Name,BirthDay,Sex,BodyweightKg,WeightClassKg,Bench1Kg,Bench2Kg,Bench3Kg,Place,Best3BenchKg,TotalKg,Event,Division,Equipment
Kelly Cartwright,1989-04-22,F,46.9,50,60,64,-66,1,64,64,B,Paralympics,Raw
Rod Watson,1988-01-19,M,98.65,107,130,-135,135,1,135,135,B,Paralympics,Raw
Edward Howarth,1989-09-11,M,98.8,107,-120,120,130,2,130,130,B,Paralympics,Raw
Steve Hennes,1983-02-25,M,70.35,72,92,96,100,1,100,100,B,Paralympics,Raw
Janel Manns,1966-05-28,F,59.15,61,-60,60,-62,1,60,60,B,Paralympics,Raw
Kaia Scholl,1993-08-03,F,47.1,50,47,50,52,2,52,52,B,Paralympics,Raw
Guiseppe Jones,1991-12-12,M,83.5,88,104,107,110,1,110,110,B,Paralympics,Raw
Jamie Clarke,1982-10-30,M,57.95,59,90,93,96,1,96,96,B,Paralympics,Raw
