Name,Instagram
A Yang,acer_yang
Aaron Adams #1,chivomacho
Aaron Brewer,flexiblefoods_aus
Aaron Burch,beastyken
Aaron Chapple,chap_training
Aaron Hagan,aaronhgn
Aaron Hull,the_amh_power
Aaron Lister,power_lister
Aaron Menden,aaron.menden
Aaron Nance,kingnancepowerlifting
Aaron Palko,oklap
Aaron Purdy,aopurdy
Aaron Ritchhart,aaronritchhart
Aaron Simm,aaron.simm
Aaron Van Scoten,aa.ron.lifts
Abby Burg,anb614
Abi Graham,abi.graham.35
Abigail Grich,abbsagails
Abigail McLean,abzpower
Abner Nazario,abner_n181
Abraham Ramirez,abe_rawmirez
Adam Bell #1,adam.bell.102
Adam Boucher,adamboucher17
Adam Cooper,ahcoop21
Adam Ezzat,purgatory_24
Adam Ferchen,elitefitnessnf
Adam Hindle,hindle1986
Adam Jackson #1,photojadamj
Adam Leidigh,meathead_adam
Adam Miller #2,adam12miller
Adam Nash,adam_nash83
Adam Pickles,adamcoachpickles
Adam Ramzy,arramzy
Adam Riman,wookielifting
Adam Sawyers,dr.adam.asc
Adam Travis,head_coach_trav
Adam Werner,big_wern
Adam Whitescarver,thicc_wolverine
Adam Woodward,injured.adam
Adil Khan,dannyak13
Adrian Knox,aknox868
Adrian Larsen,larsenpress
Adrián Solana Guerrero,adri.solana_crom
Afua Adjei-Brenyah,generic_afua
Ahmed Ellahie,ae_strength
Aiden Potts,pottsteriorchain
Aimee Porter,arpo89
Ainslee Hooper,ironbugains
Aisling Judge,aislingjudge
Aisling Lynch,thisveganlove
Aisling Scott,ashaling92
AJ Alvarez,aj_alvarez52
AJ Roberts,ajroberts
Alaina Hernandez,tattooedrn
Alan Gilbreath,texaspowerlifter
Alan Sambol,asambol
Alan Thrall,untamedstrength
Alan Wilson,aw.performance.coaching
Alastair MacNicol,amacnicol
Alberto Portillo,fatboy_strong
Alec Dorner,alec_dorner
Alec Hewstone,alechewstone
Aleem Majid,mr_hencherz
Alek Mosholt,the_amos050
Aleksandr Ryashchikov,vipmanrich
Aleksey Nikulin,adlyzhnik
Alex Campbell #1,abellcamp
Alex Deken,alexdekenpl
Alex Fodor,thesleepypowerlifter
Alex Ghossein,alex_the_sicko
Alex Gordon,thatman_gordo
Alex Hamblin,no_equipment_needed
Alex Harmston,66kg_alex
Alex Palmer #1,alexpalmer2412
Alex Simon,godlystrong
Alex Viada,alex.viada
Alexander Burgazzoli,alexburgazzoli
Alexander Clarke,bigalexanderclarke
Alexander Espin,aespin7
Alexander Goodwin,alex_1rm
Alexander Pierides,itsalexpierides
Alexander Stram,olred68
Alexandra Elzein,snarkasaurus.rex
Alexandra Messner,quad_zilluh
Alexandra Roth,squatbenchcode
Alexey Kuzmin,alexeykuzmin.official.raw
Alexey Sivokon,alexey_sivokon
Alexis Callejo,lexi__t
Alexis Carvalho,alexisvnc
Alexis Eliopoulos,nikyu1
Alexis Williams,flexin.flexis
Ali Jawad,alijawadpowerlifter
Ali Squiller,squillerz
Alice Munks,alfvsgym
Aliesha Sharp,aliesha_sharp
Alireza Herfedoust,strengthpredator
Alison Crowdus,powerpack_ali
Alison O'Reilly,allyirl
Allegra Hudson,ahuds47kg
Allen Baria,allen.baria.ab
Allen Fisher #1,basement_strong
Allie Feras,trainhardpizzaharder
Allie Rosales,alliecat90
Allison Hind,allisonhind.pl
Alora Griffiths,aloragriffiths
Álvaro López Molina,alvaro_lopez_molina
Amador Rios,the1armani
Amanda Bucci,amandabucci
Amanda Dodaro,pandamanda58
Amanda Gisby,amanda_gisby
Amanda Hillary,amandakins2
Amanda Kate Parker,amandakate
Amanda Kohatsu,haparican
Amanda Lawrence,miss_amanda_ann
Amanda Shay,iam_amandashay
Amanda Thompson #1,thamandashoww
Amanda Walker #1,onestrongdoc
Amber Abweh,swoleesi
Amber Herault,amberleiiigh
Amber Luci,amberr.alice
Amber Simpkins,ansimpkins02
Amelia Onyshkevich,amelialifts
Amelia Wagenknecht,ameliapowerlifts
Amenah Razeghi,onestrongnurse
Amie Alexander,kittenbritchess
Amit Sapir,strong_training_strong_life
Amy I'Anson,amy_doesstuff
Ana de Joux,onekiwiana
Ana Lopez,ana_the_fierce
Ana Perez #1,ana_smash
Ana Rosa Castellain,anarosacastellain
Anand Jobanputra,underdog.strength
Anand Patel,anandpulls
Anastasia Lanz,anastasialanz
Anatolii Novopismennyi,novopysmennyi
Andre' Easter II,easterstrong
Andrea Rodriguez,a_rozaayyy
Andrea White,supazanii
Andrés Gómez Rives,andresgr022
Andres Ramos,andres59kg_
Andrew Anctil,andrewanctil
Andrew Desesa,dammi_4_zas
Andrew Dinn,dinnnstagram
Andrew Hause,andrewhause
Andrew Herbert,herbietheluvbug
Andrew Hibbert,andyhibb89
Andrew Jiang,andrewwjiang
Andrew King,bigfatfuk
Andrew Le,doctafumanchu
Andrew Murphy #1,amurph47
Andrew Ogden,oggie_froggy
Andrew Ottaway,weak_lil_guy
Andrew Pfefferle,atrain34946
Andrew Richey,andrewrichey215
Andrew Sandoval,drewbsh56
Andrew Shahbazian,therealshahbazian
Andrew Sia,theawpsia
Andrew Turple,turps450
Andrew Weiser,weiserandrew275
Andrey Chernenko,andreyka_chernenko
Andrey Malanichev,andrey_malanichev
Andrey Sus,ivandrago_powerlifter
Andrzej Roszkowski,coach_wodyn
Andy Askow,andyaskow
Andy Bolton,andybolton1003
Andy Bosnyak,andyboz4
Andy Foster,bigunfromwigan
Andy Hargreaves,fatguywhodoesstuff
Andy Huang #1,that_hugeasian_guy
Andy Kershaw,andy_kershaw_
Ange Galati,mrbench1
Angela Mayor,angie138
Angelina Hong,daughtersis
Angelo Alfano,angelow_bar
Angelo Fortino,14o_power
Angelo Turner,angelo_pwrlifter
Ann Vanderbush,avpowersports
Anna Hourihane,pow_ah
Anna Khudayarov,annakhudayarov
Anne Sheehan,ifbbproannesheehan
Annika Zelander,ackimacki
Anthony Betcher,betcher94
Anthony Estrella,sirfistsalot__
Anthony Harris,tharris220
Anthony Hobaica,hobe_knows_best
Anthony Iacoviello,andtoe_knee
Anthony Oliveira,anthonycw13
Anthony Salas,bigtone88
Anthony Sberna,sbernaslam
Anthony Scaife,tonyscaife
Anthony Thorn,thorn0024
Antti Savolainen,a_savolainen
Apollo La Mig,chinolifts
April Disparte,holdingagreatbreath
April Howe,apesyjane
April Shumaker,aprilshumaker
Aria Attia,bigpoppachizl
Arian Behbehani,arian.b92
Arief Hunter,waterboy19
Arkadiy Shalokha,shalokha1983
Arlene Hernandez,femmefatale_strength
Arlind Queriman,arlindthegreat
Armando Alaniz,mr_mrs_alaniz
Armando Carreon,ac_power07
Arran Sullivan,sul3726
Artemio Zambrano Jr,bigart18
Arthi Nithi,arthi.nithi
Arthur Lynch,arthurlynch
Artur Chrzaszcz,beetlejuiced666
Asa Barnes,preacher_power_barbell_club__
Ashchen Bean,a2b_fitness
Ashleigh Satherley-Tua,theashleighkate
Ashleigh Uhl,ashleigh_uhl
Ashley Cooper,coop_strong
Ashley Garcia,bad_ash5
Ashley Gleckler,lawlift_az
Ashley Lepcin,barbells_and_bunnies
Ashley Murch,ashley_murch32
Ashley Nicole Yost,nicolemeetswrld
Ashton Ewoldsen,ashtonewoldsen
Ashton Rouska,ashh117
Athena Waldstein,_athenawaldstein_
Atomu Wakamatsu,atomwaka
Aubrey Hogan,ahogan_97
Austin Ayala,amichael165
Austin Baraki,a.z.b
Austin Beatty,big_dusty_
Austin Evans,austin_evans32
Austin McHugh,mc_huge242
Austin Patkos,austinpatkos
Austin Rodenberry,austinrodenberry
Austin Skeens,askeens15
Austin Smith,alossforaus
Auston Weinberg,theaustonw
Ava Horrigan,avahorrigan
Ayngelia Ara,star_lift3r
Babneet Dhillon,babdhillon
Bailey Montoya,ontherox57
Bailey Stettmeier,bailey.stettmeier
Barbara Lee #1,msbarbellbarbie
Barry Antoniow,canadapowerliftingcoach
Barry Pigott,smallfatdonkey
Baruch Sekenofsky,bo_powerlifting
Barzeen Vaziri,fattestillinoislifter
Beau Moore,beau.moore53
Becca Swanson,bigbeccaswanson
Beckett Scannelli,beckettscannellipwr
Becki Pierotti,bpierotti
Beckie Hebson,beckiehebsonpt
Beki Abraham,bekialexi
Ben Borger,powpowbennyb
Ben Gianacakos,bengianacakos
Ben Hernandez,ben_her_nandez
Ben O'Brien,b3nobri3n8
Ben Pape,papepowerlifting
Ben Pollack,phdeadlift
Ben Puccio,benpuccio
Ben Rant,ben.rant
Ben Rice,ben.rice.10
Ben Sellars,ben_sellars_powerlifting
Ben Wharton,benji_wharton
Ben Winstone,thewhitejuggernaut
Benedikt Magnússon,benni_magnusson
Benjamin Jenkins,benjenk1
Benjamin Smith #1,dr.smitty_
Bernie Northrop,bernienorthrop
Bethany Parker,_beethanny_
Bethany Pearce,bethpearcefit
Beverley Rodgers,bfitwithbev
Bill Newman,isaku900
Bill Tenerelli,billbro_sandbaggins
Billa Hamilton,billahamilton
Billy Mimnaugh,bmimnaugh
Billy Redd,billybonelegztraining
BJ Whitehead,bj.whitehead
Blaine Houck,benchlikeblaine
Blaine Sumner,thevanillagorilla92
Blaise Sardanelli,blaisesardanelli
Blake Camilleri,blakey.au
Blake Horton,blakehorton23
Blake Taylor,rectus_abdominis
Blanca Villoch,blanca_villoch
Blaze Alpha,blazexalpha
Bob Merkh,merkh1776
Bobbie Butters,bobbie.butters
Bobby Purser,bobkeith3
Bobby Scott,bwscott89
Bonica Brown,bubblypowerlifter
Bonnie Schroeder,bonschro
Boris Terry,nattygorilla760
Brad Abbott,brad.abbott.242
Brad Arbic,brad_arbic
Brad Crawford,bhoss601
Brad Ettinger,teambkepower
Brad Lewis #1,stankbait68
Brad Neitzel,bradneitzel88
Brad Slining,pooklifts
Braden Moss,frequent_username_changes
Braden Warwick,bwarmachine
Bradina Anae,bradinaanae
Bradley Couillard,bradcoolyard
Bradley Heinss,bradleyheinss
Bradley Lemon,killerblifts
Bradley Nortcliffe,bradleynortcliffe
Brady Stewart,thebradystewart
Brandi Morrison,blooddrunk_vikingqueen
Brandi Sneed,juggernautprincess
Brandis Dew,b_dew_powerlifting
Brandon Allen,brandon_allen88
Brandon Byrd #1,ibyrdman
Brandon Carpenter,lecarpetron275
Brandon Franklin,frankdaddy29
Brandon Lilly,brandonlilly3
Brandon Maddox,deathbysquat
Brandon Martin,bmartinpl
Brandon Perdue,perdueb84
Brandon Pierro,_orreip_
Brandon Scott #1,brandonangusscott
Brandon Simpson #1,machoman_brandysavage
Brandon Smitley,bsmitley
Brandon Stephens #1,mayhem.35
Brandon Stout,_brandonstout
Brandon Tan,princebundun
Brandon Turner #1,brandingo_t
Brantley Thornton,brantleythornton
Brea De Jonge,breadejonge
Bree Smith,bree_nexusph
Brendan Wulf,big_badwulf
Brent Drake,cdrexcod
Brett Benedix,brettbenedix
Brett Chrisman,brettchrisman
Brett Gibbs,bg_waiweight
Brett Hiller,brett.hiller
Brian Cain,powerlift_hunter
Brian Carroll,briancarroll81
Brian Cook,briancookpl
Brian Naidicz,bnaidicz13
Brian Pham,phambri
Brian Reed,brianscottreed
Brian Ross,komodo_br
Brighton Ceasar,brighton_dior
Britta Maggard,britta_maggard
Brittainy Chown,britt_chownstrength
Brittany Lowery,ozarkbarbelle
Brittany Pryor,jadessence
Brittany Shackelford,brittany_shack
Brodie Blankenship,brodie.blankenship
Brody Laybolt,brod_da_toad
Brogan Williams,brogansamuelwilliams
Brónagh McPeake,killerbee_eire
Bronwen Blunt,bron_strong
Brooks Cuzick,brooks.cuzick
Bruce A. Swanson,swannnnson
Bruce Knox,knoxpowercompany
Bruce Mason,masonbruce308
Bryan Hartman,bryan_hartman
Bryan Hartsel,trapslikemountains
Bryan Mutek,bryanmutek
Bryan Wong,brywonglifts
Bryant Dilda,punisherpwrlftr
Bryce Krawczyk,calgarybarbell
Bryce Lewis,bryce_tsa
Buffy Ralls,fit_life_buffy_sts
Burley Hawk,burleyhawk
Byron Walker,byronrwalker
C.J. Maloy,pwrlftr
Cailer Woolam,doctor.deadlift
Caitlin Cardone,upstate_caitlin
Caitlyn Dunlap,lilpowerbuilder
Caleb Tincher,ctinch90kpl
Callan Gibbons,callangibbons
Callum Crozier,calsyerpal
Callum McGovern,callum.mcgovern_pl
Callum Pearce,callumsenpai
Calvin Wren,hound15
Cambre Sorensen,camcaboose
Cameron Collins #1,cameronthetwin94
Cameron Leslie,almostcameron
Cameron McKenzie,camstrength
Cameron Smith,carltonpiggybanks
Camille Holland,camilleholland
Cara Cable,progress.not.perfection
Carina Davis,quadzilla619
Carla Fink,carla_fink
Carlo Gittermann,carlogman
Carlos Leon,carleon44
Carlos Moran,thewinterwolves
Carlos Nunez,uncle.chuck
Carlos Reyes #1,creyes55
Carmela Smythe,littlemightymama
Carmen Daldry,rock_kitty84
Carolina Dillen,carli_dillen
Caroline Lyonnais,viking_goddess31
Carrie Grissinger,mrssquatsalot
Casey Williams,thecaseywilliams
Cat Hawkins,kitty.lifter
Caterine González,catpowerlift
Catherine Croydon,catpowerlifter
Catherine Graham,_catgraham
Catherine Smith,catsmith95
Ceasar Amado,cezzzus
Celia Gomez,celiasomethinggood
Chad Hammond,meatpower45
Chad Penson,kingpensonlifts
Chad Walker,cwalkershw
Chad Wesley Smith,chadwesleysmith
Chakera Holcomb,c.c_holcomb
Channing Doyle,channing_doyle
Chantal Pearson,chantal.pearson
Charisse Surio,chuhreese
Charity Rogers,charity_jolley
Charles Binkley,charliebink1ey
Charles Okpoko,charlesokpoko
Charles Pike,charles._.pike
Charles Yarrington,csyarrington
Charlie Chester,charlie_chester_powerlifter
Charlie Dickson,cdickson3245
Charlie Shin,reps_for_jesus
Charlie Shotton-Gale,charliesgale
Charlotte Brass,thelittlemushroom.training
Charly Joung,charlton_banks
Chase Mann,chasemann13
Chase McDougall,chase.pl
Chelsea Cluett,chelscluett
Chelsea Savit,savvysavit
Chelsey Logue,cl_powerlifter
Chenney Tran,aznfatcow
Cherry Yeung,cherryyeungg.g
Cheyanne Pelletier,nh_warpony
Chhanchhaya Chham,chhaya_the_moonlight
Chiara Allen,redheadstrong
Chico Cloyne,chicocloyne
Chin Siang Too,trulysuperman
Chleo Van Wyk,chleo_v_wyk
Chloe Lansing,chloe.lansing
Chloe Whylie,whyliecanlift
Chloé-Jade McDonald,cj2392
Chris Bartley #1,old_mephistopheles
Chris Billups,chrisbillups
Chris Bridgeford,bridgeford242
Chris Brown,moose_lifts
Chris Crisman,chriscrisman_bigbear
Chris Della Fave,mr__dfave
Chris Duffin,mad_scientist_duffin
Chris Dunn,m10ak3y
Chris Etherington,veganpowerlifter
Chris Garcia,chrisrobinsin
Chris Hughes #3,barks_n_barbells
Chris Hut,heyimchrisnotdennis
Chris Janek,tankstrainingfacility
Chris Jones #1,training_to_inspire
Chris Lee,christopher_lee_41
Chris Lentini,lentiniliftsheavy
Chris Lindsay,chrislindsay56kg_masters1
Chris Moody #1,chris_mewdy
Chris Noble,cnoble242
Chris Nugteren,papa_c_fit
Chris Paschal,tr3ndingtopik
Chris Ramos,chrisramos007
Chris Ruden,chrisruden
Chris Stamatiou,critta_
Chris Tyrrell,christopher_tyrrell
Chris Weist,unleash_the_weist
Chris Welty,chrisweltyfatpowerlifter
Chris Yim,yimdatgymrat
Christian Anto,ant_toe
Christian Aquino #1,aquiyess
Christian Habihirwe,chestnificent
Christian Kearney,ya_im_dat_dude
Christian Rojas,deadliftsandpaws
Christian Sanguyo,masterch1ng97
Christian Wallace,cwally132
Christian Williams #2,cdubpower
Christina Hauck,christina56
Christina Peracchi,chrissymaxpower
Christina Valeri,meanteen1226
Christine Beauchamp,omnomnomnomcookies
Christine Castro,sneakersoverstilettos
Christophe Rebreyend,chreizr
Christopher Aydin,aydin_tsa
Christopher Blanquera,chrisblanquera
Christopher Dang,cdang4
Christopher Karmin,cm_k40
Christopher Kasabian,crispy_chris09
Christopher Nicolai,ronald.ulysses.swanson69
Christopher Vann,vann_man
Christopher Wichtl,bigwichtlpowerlifting
Christopher Wong,chris_strong_wong
Chrystal Williams,chrys_will_lift
Chuck Driscoll,chuckdriscoll
Ciarra Hutton,ciarralifts_808
Cillian Hurley,cillian_hurley
Cindy Tran,cindyystrong
CJ Mendoza,youremyheroine_
Claire McKenzie,claire.rex
Claire Sear,claire.lifts.91
Claire Taylor #1,strong_like_momma
Claire Vize,builtlikeabarn
Clare Patterson,clare.mairead
Claudia Garcia,ohhshititsclaudia
Clay Edgin,swolebiz
Clayton Harrell,clayton_harrell
Clifton Pho,clifton_pho
Coco Tang,cokes518
Codey Williams,superman_powerlifting
Cody Brady,codybrady5
Cody Carpentier,carpentier_120kg
Cody Hoffman,codyiak_bear
Cody Lefever,thefeverfever
Cody Massey,cmass2225
Cody Nolen,swollennolen
Cody Ray,codywray9811
Cody Robbins,newegro
Cody Tormoehlen,codytormoehlen
Cole Niblett,swolegiblett
Colin Wright #1,colywright
Colleen Fitzpatrick,colleendf
Collin Curtiss,colesoswoll
Collin Grant #1,cgrizzle1523
Collin Whitney,ct_whitney
Colton Hurley,churley.93kg
Colton Magers,colton.magers
Conal Nicholls,thicc_papii
Conner Branch,conmanbranch
Connor Burkhill,iconnor3
Connor Logue,logiebear_
Connor Lutz,clutz.training
Connor Marston,strongmancon
Connor Mason,atlas_short_story
Connor Walsh,connorwalsh_powerlifter98
Cooper Wage,wagepl
Corbyn Arnold,arnold.corbyn
Corey Britton,coreysmash
Corey Crook,deprimo
Corey Kamsrikerd,coreykampl
Corine DeJong,ilovepowerlifting
Cortez Gardner,officer_gymaddict
Cory Weisbeck,cp_double_u
Coty Collins,cotycollins22
Courtney Norris,fueledbyiron
Courtney Smith #1,ironcourt
Craig Malkowicz,gotmalk_
Craig Wolsey,grey_lifts
Criselda Fajardo,criseldabrah
Cristian Valdez,cris_valdez4
Cryssa Dragon,cryssaboo
Crystal Tate,ctate87
Crystal Trace,crystal_trace
Curtis Hudson,el_lobo_solo_
Curtis Miller #1,curtismiller_sc
Cynthia Leu,cynthialeu
Cyprian Thompson Jr,bobby.booshay
Dae'Shaun Thomas,thevillanbigdae
DaeVon McFarlane,von_strength
Dagan Williams,dagan_williams
Daine Hish,hish.daine
Daisymay Reyes,i_am_daisymay
Dakoda Gayne,keg_with_abs_the_2nd
Dal Gains,dalgains
Dallas Bey,beigeboybey
Dallas Jordan,dallyboy_479
Dallas Norris,norrisstrong
Dalton Cissell,dcissell5
Dalton LaCoe,53kglifter
Damien Pezzuti,damienpezzuti
Dan Green,dangreenpowerlifter
Dan Holly,dholly88
Dan Hurley,dans_fighting_gravity
Dan Kovacs,dankovacs2500
Dan Lass,danwlass
Dan Mason #5,mason74kg
Dan Matsushita,dan_matsu
Dan Neundorf,darksydeshw
Dan Stephenson,idealstrength
Dana Applegarth,dapple_
Dana Linn Bailey,danalinnbailey
Dane Dillon,danejdillon
Daniel Bedford,bedford_strength_systems
Daniel Bell,dbell_74
Daniel Cook #1,daniel_e_cook
Daniel Duncan,daniel._.duncan
Daniel Kranitz,danielkranitz
Daniel Lara Madrigal,daniel0lara
Daniel Morgan,dan56morgan
Daniel Nguyen,imthenguyener
Daniel Nichols,danpowerlifts
Daniel Olajiga,dt.strong95
Daniel Rodriguez #1,dan_rod14
Daniel Romeo,_danielromeo
Daniel Sherman,sherman_strength
Daniel Sturge,thors_follower_son_of_turgis
Daniel Wade #1,rawmuscle242
Daniel Worsley,danworsley1
Daniel Yost,thatlargehuman
Daniella Melo,daniellamelo
Daniella Tuimatai,della.powerlifter_doublethick
Danielle Columby,danielle_rose27
Danielle Couture,dee.couture
Danielle Firth,danielle.r.firth
Danielle Malcolm,dm.powerlifter
Danielle Massingill,ladybeast1991
Danielle Menniti,dmenniti
Danielle Overcash,danicashdpt
Danielle Pressler,fit_miss_dani
Danielle Reid-Clavelle,becauseredsaid
Danny Li,dan_ny2
Danny Lima,danny.r.lima
Danny Potter,dannydptraining
Danny Rodriguez #1,thisisd_rod
Daphne Zhang,daphne_wants_a_6pack
Daquan Sisco,d_sisco516
Darren McCormac,deadliftbear
Darren Sokluski,drock_david
Darrin King,darrinking79
Daugintas Blekaitis,beyourownhero_athletics
Dave Beattie,dave.bulldog
Dave Bouchet,bouchet90
Dave Hoff,mr.3k14
Dave Soffen,dsoffen
David Chanthabandith,imdaveyy
David Clifford,dacdac65
David Coimbra,professordavidcoimbra
David Douglas,davidthebeastdouglas
David Gray,davidgray_lionpaw
David Han Lee,davidhanlee
David Herrera,davidherrera1119
David Isenberg,mr.isenberg
David Jasiulewicz,thepowerturtle
David Jenkinson,dave.jenkz
David Joplin,joplinsbd
David Knight,ironknight18
David Lomeli,lomeli198
David Lotito,davelotito
David Martinez #4,de_msbd
David O'Sullivan,davidodeadlift
David Osborn #1,daveatops
David Patterson,dpatterson7070
David Raymond,davethebarbarian16
David Ricks,ricks.david
David Shelton,dshel_11
David Sloan,strengthofsloan
David St. Romain,teamfreak318
David Thompson,officialtommyguns
David Troutt,dtrouttpowerlifter
David Van,dv_ph0t0bomb
David Watson,deadliftingdavid
David Williamson,bigdave_senior
David Woolson,davidwoolson
Davy Capriles,davydoesntdocardio
Dawn Bogart,dawnbogart
Dawson Windham,dawsonwindham
Dayna McNeal,versus_myself
Deamo Baguga,d.baguga
Dean Bowring,deanbowring
Dean Chung,deanrilla
Dean Panopoulos,deannyweenie92
Dean Sabawo,sabawo.lifts
Debra Hofer,bench_press_barbie
Declan Dilley,macdilley22
Deirdre Fenlon,deefenlon
Dekwan Elfizgha,dkwand
Delroy McQueen,delroymcqueen
Delyn Moua,iam.deemo
Demietrich Baker,dboybaker
Denis Feise,denisfeise
Denis Grebenchenko,grebenchenko_denis
Denise Herber,deniseherber_
Denise Juarez,denise.maryjane
Dennis Arnold #1,freakie_d_0550
Dennis Bitetti,dennisbitetti
Dennis Chen,chensthetic_fitness
Dennis Cornelius,denniscornelius500
Dennis Mak,dmak137
Derek Dickinson,dderelick
Derek Miller,arstrength
Derek Ng,deadlifding
Derek Viet,derekdtrain
Derek Winans,winans05
Derick Bolin,dbolin47
Derick Douglas,metalheadderick
Derrick Chance,its_blasian
Derrington Wright,derringtonwright
Desmond Coleman,the.real.coleman89
Devin Gordon,devin.bs
Devin Wiggins,wiggins_70
Devon Richards,dbuilt
Didzis Zarins,zarinsdidzis
Dillon Anderson,danderson1310
Dima Rumanov,dimarumanov
Dmitry Inzarkin,inzarkin_dmitriy
Dmitry Nasonov,_nasonov_d
Domenick Minnici,dom_minnici_powerlifter
Dominic Toovey,domtoovey
Dominique Fisher #1,dommielouise
Dominique Toney,toney_montana1
Donald Eguires,iron_illusion
Donna Bradbury,donnaloubrad40
Donnie Ross,donnie.ross.242
Donnie Thompson,thompsonbowtie
Donovin Reyes,thstrongest
Drew Cheatham,zookeeper_d
Drew Heckman,heaint_heavy
Drew Leggett,stillnutting
Dulan Jansze,idulan
Duncan Sharp,dsharp_benchmostly
Durell Cull,superd1121
Dustin Kueck,d_kueck
Dustin Lillie,beard_and_iron
Dustin Reed,i.know.squat
Dustin Sixkiller,forgotten.warrior
Dustin Slepicka,imthatguyyouveneverheardof
Dustin Speed,dustin_speed
Dwayne Sigh,olmanstrength
Dwayne Thompson,wombat1988
Dylan Hellriegel,dylan_hellraiser
Dylan Mayer,dylliemays
Dylan McKinney,_dylan.m_
Dylan Moldovan,dylan.moldovan
Dylan Moltoni,dylanmoltoni
Dylan Nelson,swole_shady
Dylan Norman,dylan_norman__
Dylan Polo,dylanpolo__
Dylan Trollip,dylan_trolley
Ed Coan,eddycoan
Ed Collins,ed_collins3
Ed Knoblock,ed.k52
Ed Koo,ed_koo
Edan Davey,edandavey
Eddie Berglund,strongeddie
Eddie Ryckman,fast.eddie_181
Eddie Taylor,musclemantaylor
Eduard Khanjyan,eduardkhanjyan
Eduard Moreno Curto,edu_powerlifter
Edward Alicdan Jr,jralicdan
Edward Obakhavbaye-Hanson,oba_hanson
Edwin Nash,edwin_nash92
Elena Popadic,ellepops_
Elfie Higson,elfiehigson
Eli Burks,eliburks3
Elizabeth Craven,lizpowerlifts
Elizabeth Grundy,maddog_grundy
Elizabeth Pipe,lizziepipe
Elizabeth Renaud,zaza_renaud
Elizabeth West,westandweights
Ellen Seidel,ellen.seidel
Ellen Smith,ellenvsgravity
Ellen Stein,w8lifter222
Ellie Steel,xsteelxfitness
Elliot Burton,physique.academy
Elliot Leadbeater,elliotleadbeater
Elliot Stone,elliotstone_
Elliot Wuorinen,el_wuorinen
Elliott Shults,ell_diabloooo
Ellissa Hull,ellissahull
Elspeth McLeod,elspethmcleod
Elyse Lovelace,je_lovelace
Emery Mullen,emery_mullen
Émilie Morin,strong_memine
Emilio Címbora Acosta,cimbora_fit
Emily Burgess,_emburg
Emily DeMorest,em_powerfit13
Emily Greenway,emslifts
Emily Hu #1,ami_the_benchbrah
Emily Lin,linbarbell
Emily Lloyd Whittington,emilysplanet_pl
Emily Nguyen,myaemily
Emily Norley,emilynorleypl
Emily Williams,emzpower
Emily-Jane Sheppard,emilyjanesheppard
Emma Goodwin,egoodwin87
Emma Hall,power_puppiesandpoles
Emma Ife,ifeisshort
Emma Irwin,emmairwinn
Emma Jarman,emma_gofigure
Emma Stott,deadliftsbeforedudes
Emma Taylor,emmalouisebeautaylor
Emmanuel Bravo,thewhiterhino_
Eniola Fagbongbe,eni_md_0083
Enno Langelotz,liftinginseville
Eno Majomi,eno5050
Eoin Rice,eoin_rice_1810
Erbol Nauanov,erbolnauanov
Eric Banks #2,sir_manly_mchandsome
Eric Bryce,ebryce22
Eric Lilliebridge,ericlilliebridge
Eric Loyola,fu_blown
Eric Quindipanda,quindipanda
Eric Ranney,animalrane
Eric Sabag,eric_fitness_trainer
Eric Schwartz,naturalguy1
Eric Semifero,bigsemi
Eric Spoto,ericspoto
Eric Stephens,_eric_stephens
Erica Wilson-Lee,jusss_shay
Erick Garcia,erickgarcia1995
Erik Bentley,erikbentleypowerlifter
Erik Crouch,ragin130
Erik Mata,erikmatapowerbuilder
Erik Willis,erikwillis
Erika Hipwell,erikahipwell
Erika Stevens,e.stevens11
Erin Cartwright,errin_rae
Erin Stanton,erbeary88
Ernie Lilliebridge Jr,ernielilliebridgejr
Ernie Lilliebridge Sr,ernielilliebridgesr
Esa Janara,esa_janara
Esther Lee,fueled.by.donuts
Esther Rimmer,est.r.fitness
Ethan Dew,ethandew_vtpl
Ethan Fudge #1,iamsirbeefcake
Eugene Mccourt,genomccourt
Eugenia Tashquinth,fancylulu7
Eva Dunbar,evalaurabelle_ifbbpro
Evan Chaffey,evanchaffey
Evan Lemons,evanx10
Evan McCloy,whotookmeethed
Evan Mensing,evan_mensing
Evan Snydman,evansnydman
Eve Lundmark-Bourke,evielundb
Evelyn Garcia,evelyngg13
Ewa Januszkiewicz,ejanss
Exal García Carrillo,exal.garcia
Ezekiel Fecher,ezekielfecher
Faaris Sheikh,faaris_60
Fabbio Hu,faabbiohu
Fabien Ho Ching Ma,fab00ty
Fallon Lowery,flowery423
Fay Northcott,faynorthcott
Faye Sheridan,fayesheridan_
Félix Gagnon,fel_gag
Ferdinand Luis,ferds_the_word
Flip Silva Jr,texas_freak
Forest Thoreson,forest59kg
Forrest Bush,forrestbush
Forrest Osborne,osbornejr_
Foster Parnell,fosterparnell
Francesca Paraz,swoleprincessfp
Francesco Catalano,f_catalano
François Pham,mistatuan
Frank Luna #1,frankkk_da_tank
Frank Tran,tran.sports
Frankie Pu,frankiepu
František Šuška,frantisek_suska
Frazer Pennington,powerlifter_fraz
Frederick Hannie,chirolifter
Freya Hammer,freyathehammer
Friedrich von Hennig,_mevsgravity_
Gabby Duchesne,gabbyduchesne
Gabriel Kerr,ameri_kerr
Gabriel Velasco,rocknrollmurderer
Gabrielle Ervine,gabi1822
Gabrielle Mamani,pumping.fe
Gage Carreon,ga_jajaja
Gallia Porter,vegasrose666
Garmez Parks,gfifdeep
Garrett Bailey,bottesy
Garrett Blevins,garrettblessings
Garrett Fear,garrettfear
Garrett Griffin,gunz504
Gary Brewer,gbrewerpower
Gary Hunter,ghunter_champ
Gary Miller #1,garymillerfitness
Gavin Havard,gavinhavard
Gavin Shinn,gavinshinn
Gawain Johnstone,85gunit
Gehad Quraan,geethept
Geina McGrath,the_smiley_powerlifter
Gemma Lucas,gingerlifts
Gemma Surtees,gemmasurtees
Genelle Vanderschantz,gvanderschantz
Geoff Joyce,lifting_daddy_fogo
George Apostolopoulos,the_official_mean_jesus
George McKee,mr_mckee_89
Gerald Dionio,tiny_n_tuff
Gerald Rogers,da_powerlifting_carebear
Geramy Alexander,g.a.powerlifting.181
Gerard Frederic-Lama,gerard_lama
Gerren Short,blacklexluger
Gillian Ward,gillianwardathlete
Gina Aversa,ginahalfwolf
Giorgia South,giorgialifts
Glenn Hansen,coachglennhansen
Gloria Luong,xgloriohz
Gonçalo Pereira,gpowerlifting.wpc
Goran Lackovic,grow_with_goran
Grace Stilgoe,gracevsgravity
Gracelynn Doogan,somewhatalbino
Gracie Vanasse,gracievanasse
Grant Brown,zieggystardust
Grant Shelton,grant_shelton1997
Grecia Torres,thebeast_powerlifter
Greg Panora,big_papi_panora
Greg Van Olm,greg_vo_powerlifter
Greg Wise,gwise90
Gregory Johnson,maroonroo
Gregory Paterson,gregorybpaterson
Greyson Loweecy,greysonstrengthscs25
Griffin Jennings,jennings198
Griffin Spence,griffinspence_
Griffin Walizer,griffinwalizer
Guillermo Blanco,gmo68
Guillermo González López,guille_power
Günther Salbeck,kracher32
Gurnaik Birring,gee_birring
Gustav Hedlund,gustav.hedlund
Gustavo Teixeira,gainzgoblin
Guy Page,accelerationperformancesc
Hafiz Verdiyev,hafiz_verdiyev
Haidar Majzoub,haidarbrah
Hailey Kostynuik,haileykosty
Haley Hill,lil_swole2
Haley Randall,haley_randall_lifts
Hani Jazayrli,hani_tsa
Hanna Alvarez,bigbootybonquiqui
Hanna Rantala,hanna_rantala
Hannah Beaven,beezer5886
Hannah Chan,hannahchan921
Hannah Nguyen,misshannahhamsters
Hannah Philp,hanphilp33
Hannah Stephenson,pineapplehannah
Harrison Stickelman,harrystickelman
Harry Bowman,harry_b_fit
Harry Sugden,harrysuggypowerlifting
Harshi Dassanayake,harshiyd1990
Harvey Robinson,farmerrobinson
Hayden Bowe,hayden.bowe
Hazel Hu,hazeline_hu
Heather Connor,heather.e.connor
Heather Davidson,bench_babe
Heather Vona,hvona
Heidi Hille Arnesen,heididenville
Heidi Howar,mommy_n_ry_lifts
Helena Humphries,helena.strong
Hendrick Famutimi,supermanhf
Henrik Edström,henrikedstrom
Hieu Le,hieu_le
Hifon Smith,hogebobi
Hildeborg Juvet Hugdal,hildeborghugdal
Hinewai Pouwhare-Anderson,hinewaiwai
Hira Teirney,hira_t
Holly Baxter,hollytbaxter
Holly Beidelschies,hollylynn888
Holly Singer,manis_and_muscles
Holly Smith,hollydollyisawolly
Hugo Duarte,fullhdlifting
Ian Bell,iandeadlifts
Ian Kristman,kman_strong
Ian Matthews,jewstar613
Ibrahim Dridi,idstrength
Igor Bahtjak,igor_bahtjak01
Igor Matsko,matsko_igor
Igor Urievich Umerenkov,igorumerenkov
Ikechukwu Onuoha,jujupower1
Ingrid Barclay,ingridbarclay
Inna Filimonova,filimonovainna555
Ionut Timis,timis_powerbuilding
Irene Aguilar Sánchez,mocmocnope
Irina Kern,irina
Irina Vitman,irina.vee93
Isabel de Berrié,lurkinglifter
Isabella von Weissenberg,ivweissenberg
Isaiah Vaba,liftbear
Israel Fuentes,novaflash921
Ivan Podrez,podrezivan1100
Ivana Horná,ivana_horna
Ivy Knight,girlswhopowerlift
Iwona Gibas,iwona_gibas
Izzy Greenblatt,izzygreenblatt
Jabez Burford,jabez_burford
Jac Lewis,jlpowermuffin
Jac Quarisa,_jac_attack_
Jack Fleming,jackkfleming
Jack Johnson,jackk_johnson_
Jack Morrow,jack_the_deadlift_ripper
Jack Music,jackmusic242
Jack Suljevic,jacksuljevic
Jackson Drew,jaxdrew_
Jackson Hinch,beast_builder
Jackson Murrie,jacksonmurrie
Jackson Spencer,jackson_spencer
Jaclyn Do,jaclyndo
Jacob Craig,shake.an.jake
Jacob Downes,donutbarbell
Jacob Kurant,jacobkurant
Jacob McBride,the_iron_rook
Jacob Moore,moore_weight32
Jacob Schauer,disciplinegymcrew
Jacob Vopat,odin_witness_this
Jacob Welch,jacobwelch2008
Jacob Winstead,jacob.winstead
Jacqueline Wickens,jwicky9
Jacques Williams,jock_ll
Jade Cooper,coopa__troopa
Jaden Poole,jaden_poole98
Jaeger Low,jaegernawt
Jahvarn Heremia,jahvarnpll
Jaime Cortés Heredia,jaimecorher
Jaime Turcios,strongisland_barbarian
Jaisyn Mike,mr.athletic_over_everything
Jake Bagwell,jakeliftsthethings
Jake Benson,jakeyb_43
Jake Frazier,jakefrazierpowerlifting
Jake Hartman,hartmanstrength
Jake Heidenreich,jakeheidenreich
Jake Johns,bigscboy
Jake Thiele,jakeisalwaysright
Jamal Browner,jamal_b15
James Dudley,jamesdudley
James Duff,heresmejames
James Edwards #1,jamesedwards1984
James Fowler,gainz4dayz_
James Gibson III,james.robert.gibson242
James Grant #1,granticusrex
James Kinzer,james_kinzer2
James Koenig,jimmyray610
James MacDonald,gorillamac
James Mooney,jamesmooneygc
James Ortiz,jimmymacktruck
James Percy,oreothor
James Searcy,no_quit_searcy
James Skinner,flexjs
James Stevens,jrule2
James Strickland,swimhack
James Vang,hmongpowerlifter
James Wakefield,wakefield5523
Jamie Bisset,strongbiz
Jamie Christenson,jamiepoppchristenson
Jamie Whitehead,james.whitey
Jamila Owens,jamilaemani
Jamison Faith,faithinthemethod
Jana Hayes,jahemian
Jane Girdlestone,g_i_jane75
Janel Vegter,jcvegterlmt
Janette McClain,janettermac22
Janice Santiago,janicefitness4life
Janis Finkelman,janisfinkelman
János Rajmund Nagy,nagyjanipowerlifting
Jared Bratcher,jaredbratcher
Jared Brown,supermassive_black_swole
Jared Frick,jaredfrick
Jared Martin,the__albinorhino
Jared Scott,jared.scott83kg
Jared Skinner,drjskinner2315
Jasmin Benzant,alphafemfit
Jasmin Treimer,jasinmotion
Jasmine Saenz,jazpowerlifts
Jason Coker,jcoker220
Jason Coultman,jasoncoultman_strengthcoach
Jason Frawley,frawley49
Jason Hunton,jase_hunton
Jason Lambert,jason82999
Jason Legrand,jaselegrand
Jason Manenkoff,jasonmanenkoff165
Jason Pennell,jpennell85
Jason Schrauth,jason_power_beast
Jason Sciacca,jasonsciacca
Javier Garcia #1,eliteraw2200
Javier Ortiz,jortiz51
Jawon Garrison,the104th_avenger
Jay Brueggeman,jayman998
Jay Hollingsworth,321strengthsystems
Jay Nera,jayneezy2100
Jay Semifero,jaysemi181
Jazmine Franks,jazzfranks
Jean-Luc Badon,jeanlucbadon
Jeanelle Baldric,jeanelle.lifts
Jeanie Shellman,_jeaniie_
Jeanilee Sumagaysay,jenjitsu83
Jeanine Nutter,lilnuttbutt
Jeanine Whittaker,jwhitt206
Jeff Barnes,bigbarndoor
Jeff Cotter,senorcotter
Jeff Crosby,jm_crosby511
Jeff Frank,jeff.frank
Jeff Justo,friffstar
Jeff Meade,uncle_jiff_peanutbutter
Jeff Nippard,jeffnippard
Jeff Spawton,jayspaw
Jeff Younker,babyhuey2k
Jen Hazzard,boones_mom
Jen Juico,juicy_j9624
Jen Smith,powerliftersdiary
Jenn Rotsinger,jrotsinger
Jennifer Hobbs #1,jhobbs1512
Jennifer Millican,jenmillican
Jennifer Thompson,jenthompson132
Jenny Sutherland,missjennylifts
Jensen Kierulff,jayrilla
Jeremiah Johnson,jeremiahwjohnson
Jeremy Avilla,jeremyavilla
Jeremy Brown,cr.brown77
Jeremy Cox,jeremyacox1
Jeremy Hamilton,jeremyhamiltonswife
Jeremy Hoornstra,hoornstra_strong
Jeremy Oleson,jeremyxoleson_
Jeremy Thibodeaux,hotnastystrong
Jeremy Willis #1,jw_bentbarstrength
Jeris Hall,jeris.hall3
Jerry Adkins,tator2k
Jerry Pritchett,jerrypritchettstrongman
Jerson Manalo,jmnalo
Jesper B Mikkelsen,jesper_bundgaard
Jesse Anderson,bigjess775
Jesse Bumpus,jessebumpus
Jesse Burdick,jesseburdick
Jesse Lanuevo,deadliftgod
Jesse Littleton,ironviking6
Jesse Moores,jessemoores_
Jesse Moran,jesse.moran1
Jesse Norris,jessenorr
Jesse Rodgers,southernpowerlifting_jesse
Jesse Shelton,stayxpuft_btb
Jessica Belt,jess_belt921
Jessica Benedetto,jbenedettopower
Jessica Brown,lilith_lustx
Jessica Buettner,djessicabuettner
Jessica Fletcher,jessfletch08
Jessica Giannina,jlgiannina
Jessica Hollinger,jess_michelle11
Jessica Okimura,jayyy_whyyy_ohhh
Jessica Piper,irfpdotnet
Jessica Pippen,ladypippen
Jessica Vien,jess.lift.it
Jessica Woodward,lift_like_jess
Jessica Zukowski,jessiczka_z
Jessika Byrd,lookitsabyrd
Jessy-Ray Conlon,__jessyray
Jesús Castañón de la Fuente,jesus.power.80
Jesús Javier Quirante Pérez,javierquirante
Jesus Morales,jesusmorales2525
Jetter Lewis,jetterlewis
Jezza Uepa,jezzauepa
Jihad Mardini,jihadthechamp
Jill Mills,1jill_mills
Jillian Lew,jillian_lew
Jim Benson,warriorelite49
Jim Corvin,utkaveman
Jim Nuttall,jimnuttall790
Jimmie Pacifico,pacifico_power1
Jimmy Nguyen,jimmy_herostrength
Jimmy O'Toole,jiimmyotoole
Jimmy Paquet,jimpaquet
Jo Kelly,jo_k3lly
Jo Whiteley,stoneface_pl
Joanna Rieber,littlejo.r
Joanne Greagen,joanne_greagen
Joao Lazarin,jlazarin_165
Jodie Burford,jodie_lanae
Jodie Cook,cookiewhirls
Jodie Sajor,jsajor71109
Joe Beer,fullstrengthbeer
Joe Ceklovsky,jackdupp148
Joe Coursey,the_traveling_warrior
Joe Francisco #1,ciscokid_ep
Joe Greene,joe.greene91
Joe LaMariana,joe_the_sauce
Joe Larger,largerjoe
Joe Lyons,ploeynase
Joe Seiden,trashcan_joe
Joe Sullivan,joesullivanpowerlifter
Joel Dircks,joeldircks
Joel McCaughan,strength_geek88
Joel Shell,floatlikerock
Joey Byler,joebylr
Joey Ma,flatbenchjoe
Joey Madia,joeyygunns
Joey Reid #2,j_reid05
Joey Tango,pootietango
John Alvarez,johnalvar3z.nj
John D Jones Jr,j_rock_86
John Fayer,fayerjw
John Haack,bilbo_swaggins181
John Halloran,skiing.highlander
John Leonard,jleonardjr
John McGowan,mrjtmcgowan
John Mylott,jfmylott3
John Oso Vervelakis,ironosopowerlifting
John Paul Cauchi,5trong
John Petrizzo,johnpetrizzo
John Pineda,jrpineda.prvl
John Reynolds,jdreynolds3
John Rivas,ghengis_john
John S. Jones Jr,johnsjonesjr451
John Severson,skaterjohn121
John Wilson Tharp,wilif_the_wanderer
John Wright,johnwright_97
Jon Idelson,jonathan_idelson
Jon McKinstry,snowflake_acid
Jon Wawro,wonjawro
Jonah Liwag,jonahliwag
Jonah Varughese,jonahtv
Jonathan Akagha,jayyyy99
Jonathan Bedard,alphajonathan
Jonathan Busby,jonathan_busby_
Jonathan Cayco,league_of_lifting
Jonathan Chunn,jchunn88
Jonathan Clark #1,jon_mexico
Jonathan Cotton,cottonsense
Jonathan Davis #2,skrong_mcgee
Jonathan Garcia,jonathangarcia_66kg
Jonathan Harder,become_a_beast_181_2k
Jonathan Rodgers #1,jonisradical
Jonathan Vicente,jvbrz86
Jonnie Candito,canditotraininghq
Jonny Gardner,jonnyg_1980
Jordan Alexander,joalexander24
Jordan Bryson,jblifts_
Jordan Buchla,gi_joe_barbie
Jordan Faria,jordan_faria
Jordan Feigenbaum,jordan_barbellmedicine
Jordan Jarrell,dadbod220
Jordan Lawler,chromedome1709
Jordan Lucas Brown,whiteronnie_
Jordan McLaughlin,jordmcl
Jordan Partington,jordanpartington
Jordan Shallow,the_muscle_doc
Jordan Wong,wongstwong
Jordi Lafontaine,jordilafontaine
Jorge Pérez Córdoba,jorgeperezcordoba
José Manuel Tordesillas Villarrubia,jmanuelvilla
Jose Salgado,josesalgado90
Joseph Adamo,joseph_adamo1
Joseph Cappellino,bigjoecapp
Joseph Franzo,joeyflexx7
Joseph Hale,josephhale94
Joseph Kopito,_the_ape
Joseph Medina,josephmedinapro
Joseph Morse,joseph_morse
Joseph Mundo,mundo.inc
Joseph Nielsen,joeybuff
Joseph Park,dialect1luv
Joseph Peña,_hollapena
Joseph Sisombath,josephsisombath
Joseph Stein,littlehauss
Joseph Whittaker,whittakerpowerlifting
Joseph Williams,jowilliams0032
Josh Banks #1,jbanks120kg
Josh Caldwell,the_juicebox_
Josh Conley,josh_bigginsbrother1_conley
Josh Conroy,j.conroy242
Josh Edwards #1,uldredd
Josh Ellis #1,bearjewjosh
Josh Elsass,elsass77
Josh Enmark,stupidlystrong
Josh Gage,_joshgage
Josh Goschnick,themilkybarkid97
Josh Hancott,joshhancott
Josh Hyaduck,joshhyaduck
Josh King #2,josh_king8
Josh Lentz,jlentz220
Josh Maish,josh.maish
Josh McClintock,mcclintock_38_jmm
Josh Morris #1,joshmmorris24
Josh Nalder,joshnalder
Josh Rayson,joshrayso
Josh Smith #3,shitheadnation
Josh Tait,joshtait
Josh West,joshwest88
Josh Woodham,joshwoodham97
Joshua Bensur,deadlifts.and.chill
Joshua Biernacki,jbiernacki77
Joshua Cogoi,bacon.and.chill
Joshua Earnest,jearnest81
Joshua Eaves,jeavespls
Joshua Greenfield,josh_pwrlftr
Joshua Greminger,jgfitoz
Joshua Hawk,joshuahawk96
Joshua Luu,luujoshua
Joshua Mardini,JMPowerlifting
Joshua Prior,joshuaprior__
Joshua Rodda,the_walls_of_jericho_training
Joshua Young,j_youngbfit
Joshuacarn Metuariki,joshcarn
Josiah Moya,josiayyy
Josue Garzoria,garzoria98
Josue Rodriguez,mynameis_sue_howdoyou_do
Joy Nnamani,j_nnamani
JP Price,jplifts_sbc
Julia Bringans,squatz4sushi
Julia Kunzner,julia.kunzner.powerlifting
Julia Sweet,eagle6_198
Julián Leganés De La Fuente,julianleganesdela
Julie Brookfield,jkbambii
Julie Klenkler,bundesbizepsministerin
Julien Comte,jucomte
Julio Alberto Cañete Jiménez,julioacj
Julio Serrano,fookin_kris_jul
Julius Maddox,irregular_strength
Jun Jie Ng,lift_ng
Justin Baker,5star_justin
Justin Beringer,just_in.b
Justin Bethune,justinbethune22
Justin Bonaparte,Justin.Bonaparte
Justin Byrnes,beer_bacon_deadlifts
Justin Caputo,justin.caputo
Justin Guinn,justinguinn10
Justin Herder,herderjd
Justin Jackson,klimaxx
Justin McGarvey,comicstrong
Justin Music,justinmusic72
Justin Sowers,sowers_dont_tweet
Justin Vester,justin_vester119
Justin Waldorf,smalldorf
Justin Wilson #1,jwils_mtnbkr_pwrlftr
Justin Zottl,jzottl
Kade Weber,kadeweber2150
Kadie Crichton,kadielc27
Kaine Boudreau,kaineboudreau
Kainon Clark,kainonclark
Kaitlin McCanless,kaitlintattoos
Kaleb Collins,kalebthetwin94
Kali Archipley,kilo_lima_alpha
Kalle Räsänen,kalle_rs
Kareem Baassiri,kareeembaassiri
Kareem Browne,megaskoreem
Karen McDonnell,karenhasaface
Karina Mosqueda,karina.crystal_
Karl Hjelholt,thegreatwhiteorc
Karl Kumm,kdrporkchop
Karly Kaufman,karlykauf
Karrie Macknair,k__mack
Kate Bethune,katebethune
Kate Hart,bratsy_cline
Kate Mitchell-Parker,katemitchellparker
Katelyn O'Donnell,k_odon
Katelyn Romine,fitnesskate3
Katie Hogan,katiehogan777
Katja Babič,katie.powerlift
Katja Piscitelli,fitness_katja
Katrina Baltazar,katrinerh
Katrina Bielomyza,hurricane_katrina_bielomyza
Katrina Dajano,kattypops
Katrishia Lee,kitty.meowers
Kawika Kahalehoe,kawikatkahalehoe
Kayla Anderson #1,lackluxx
Kayla Forcier,kaylaforcier
KC Mitchell,that1legmonster
Keeten Jones,jonesstrength
Keith Baker,keith_apl
Keith Correa,itschiefkeith
Keith Kanemoto,squat705
Keith McHoney,kmacpower
Keith Rodriguez,noisycricket85
Keith Valeros,valerospl
Kelley Christopher,kelleyfit
Kelley Sturm Spohrer,kelleysturm
Kelley Wolfe,insaneinnovationsllc
Kelli Allen,kelli_matt_ironmafia
Kelli Ennis,kelli.akiko
Kelli Sanders,k3llisanderspl
Kellin Lee,dieselmonster_275
Kelly Branton,great_white_north_juggernaut
Kelly Duffy,pwrlftgrrl
Kelly Phasey,kelphay
Kelly Vogel,kelvogel
Kelsey Horton,kelseyhorton1989
Kelvin Truong,kas_powerlifter
Ken McLean,powerswole
Ken Morris,kenlimitlesssc
Kendra Joaquin,kenjashenna
Kenneth Coleman,kennethcoleman_sts
Kenneth Nwaezeigwe,kennethnwa
Kenneth Zimmerman,kenny.lift
Kerri Skladan,deadlifts_and_diamonds_
Kerrie Price,kerrie_p_strong
Kerry Lee,kerrylee2977
Kevin Lesniak,heavykevy_120kg
Kevin McHugh,mchuge655
Kevin Oak,oakstrong
Kevin Papaj,p_a_p_a_j
Kevin Torres,pitbull_torres
Khalil Kreidieh,the_shawarman
Kiara Humble,kiarahumblepowerlifter
Kibria Ali,m.kathletics
Kieonna Peake,kpeakefitness
Kieran Gray,krn_gry
Kim Gustafsson,kim_lsk
Kim Tran #1,agentvalentine
Kimberley Cowell,kc_pl
Kimberly Behzadi,kimpossiblepl
Kimberly Walford,trackfu
Kimmy Brooks,kimberland22
Kirill Sarychev,sarychevkirill
Kirk Bankert,kirkbankert
Kirstie Armstead,kirstiearmstead
Kirsty Illsley,__kirstymarie__
Kjell Egil Bakkelund,kjelllbrell
Klarizze Montemayor,klarizze.fm
Kloie Doublin,kdoublive
Kody Blazek,deadliftingandstuff
Kole Metts,koledmetts
Konstantīn Konstantīnovs,kk_powerlifting
Konstantin Morozov,konstantin.morozov.754
Konstantin Pozdeev,pozdeevk
Kris Lewis,catchsumzs
Krissy Medina,kmystk81
Kristen Dunsmore,kriis_d
Kristin Wykoff,wykoff_lifts
Kristina Kanemoto,krissyypoo
Kristine Almroth,kristinealmroth
Kristine Brown,grinding_4_depth
Kristof de Coninck,kristofdc85
Kristopher Freeman,kristopher_freeman
Kristy Hawkins,kristy_hawkins
Krzysztof Wierzbicki,mr.deadlift
Kurt Roudebush,roudebushkurt
Kyle Agner,kyle.d.ag
Kyle Alexander #1,mr_squat_a_pony
Kyle Banks,kbpowerlifting
Kyle Brennan,b.rennnan
Kyle Bresnan,kylebresnanslifts
Kyle Brown,kybrown181
Kyle Chase,thekylechase
Kyle Coogan,kylecoogan
Kyle Evans,kyle.m.evans
Kyle Hendricks,khendrickspower
Kyle Hunt,huntfitness
Kyle Johnson #1,kylej7793
Kyle Kendrick,k.r.k14
Kyle Keough,kylekeough165
Kyle Kirby,kylekirby_fit__
Kyle LaTorra,kylelatorra
Kyle McKee,fit_coachkyle
Kyle Milnes,kjmilnes_astc
Kyle Sheridan #1,sheridanstrong
Kyle Sheridan #2,hermionegainser
Kyle Stewart,kylebenches
Kyle Tripp,cub_lifts
Kylee Craig,platinumpowerprincess
Kylie Brewer,kylie_brew
Lacey Massari,littlelaceylulu
Lacey Mesley,_the_lace_
Lachlan Green,lachgreen
Lance Hickey,lancehickey
Landon Hicks,lwhicks3
LaRodrick Duncan,drugfreemonsta
Larry Schuck,larry_schuck
Larry Williams #1,larrywheels
Lary McEwen,bigcat.10
Latonia Sumuel,__beyond__average__
Laura Berry,bezzaboos
Laura Hartley,teach_fit_hartley
Laura Howarth,laurahowarth
Laura Loft,lauraloftx
Laura Phelps-Sweatt,queenbeepower
Laura Pratz,lplifts_
Laura Rodríguez Real,lauraaclassic
Laura SanBoeuf,withoutbeef
Laura Sgro,pocketrocket_booom
Lauren Anne Bianchi,lil_kimble_
Lauren Broadwater,yougonlern2day
Lauren Cabrera,lc_cabrera
Lauren Chisom,laurenmechele
Lauren Dyer,laurendyer18
Lauren Elder,lauren_elder89
Lauren Green,lozhannon
Lauren Rooney,lauren_strength_militia_system
Laurence Shahlaei,biglozwsm
Laurie Radler,laurieradler
Lawrence Anilao,renstrength
Lawrence Calabrese,ldcalabrese
Lawrence Maday,enzo127
Laymomi Ka'ahu,laykekoa1
Layne Norton,biolayne
Lazaro Rodriguez Jr,strengthetics
Lea Schreiner,baandita
Leah Davis,leahrmt
Leah Gitterman,coach.leah.g
Leah Kiblin,hybridchic
Leah Lutz,leah_barbellmedicine
Leah Reichman,leahreichman
Lee Powell,lpowell_181
LeeAnn Hewitt,hewittleeann
Leeza Watts,leeza_watts
Leigh Wetheridge,leigh_wetheridge
Lenard Jones,lenardj18
Lenka Suchankova,lenka_squats
Lenny Wicks,wicks.fit
Leon Brown,leon_brown_powerlifter
Leon Oyaro,lurkerleon
Leonardo Sucitra,cg_lionheart
Leonetta Richardson,manainsidev2
LeRoy Walker,lwthemachine
Les Grills,arseflip
Lesley Bowen,lesleyellen
Leslie Evangelista,tanzenmuskelbier
Leslie Myers,chilla_saurus
Lester Nolasco,lester_nolasco
Leticia Fernández,letiwpc_gutiteam
Levi Perez,largelikelevi
Lewis Ireland,lewisireland92
Lexie Enmark,lexieenmark
Liane Sabourin,lianesabourin
Lianne Brook,lianne_brook
Libby Blair,libby_thepowerliftinggranny
Lien Percy,lienpercy
Lil Bianchi Kimble,lill_kimble
Lilyann Napitupulu,swolelils
Linda Badillo,nursetnt
Linda Chan,musclemaus
Lindsay Small,smallsquats
Linus Lim,linus.p.lim
Lisa Alaniz,mr_mrs_alaniz
Lisa Guggisberg,lisaguggisberg114
Lisa James,lisajames1985
Lisa Jurakovich,lisajurakovich
Lizette Salgado,lizardd05
Lizzy Terry,lizzytez
Logan Chapman,logan_chapman_
Logan Durham,lmdurham20
Logan Emery,biglifter92
Logan Leverett,logan_leverett
Lonnie Atkins,csubigshow
Louie Ortiguerra,louie_xcell
Louis Beaumont,mighty_lou_91
Louise Kenna,louisekenna
Louise Richardson,louisehrich
LS McClain,lsm97m
Lucas Banks,lucasbanks161
Lucas Hügerich,farmerstrength
Lucas Martin,lucasmartinfit
Lucas Sosebee,_sosa55_
Lucia Puricelli,luciapuricelli
Lucian York,toobigformyshirt
Lucie Thompson,mzlucille
Lucinda Stansfield,cindanaomi
Lucy Jackson,lucyanne_pl
Ludovick Gagnon,lgagnon1337
Luigi Fagiani,luigifagiani
Luis Valentin,biglou84
Lukas Nering,lukasnering
Luke Bennett,lukejbennett
Luke Conboy,lukeconboy
Luke Dixon,luuuuuukey
Luke Dreier,ldreier_bigiron
Luke Edwards,lukeedwards2100
Luke Gardner,lukeg342
Luke Graham,luke_kilograham
Luke Poli,lukepoli
Luke Richardson,lukeerichardson
Luke Rogers,luke_rogers_74
Luke Selover,pbnluke
Luke Tolman,luke_tolman_powerlifting
Lyndall Vile,lyndallvile_co
Lynette Ritchie,powerlifting_lyn
Lynzi Shepherd,lynzisinsta
Maaike De Vries,maaike_de_vries
Maariyah Tahir,ms_hencherz
Mabelle Bong,mabesmysashimi
Mackie Fleishman,mackiefleishman
Macy Armstrong,ironmacy86
Madai Nguyen,power_margie
Madaline Keast,maddykeast
Madeleine Forberg,maddyforberg
Maliek Derstine,maliekderstine
Mallory Bailey,bodybyramen93
Mallory Rowan,malloryrowan
Mani Owugha,manipower1
Manjot Jassal,manjotjassal
Manuel Chagolla,therealmannypants
Manuel Prieto,bigredmanny
Manuela Bakker,mina_bakker
Mara Rosenfeld,leetlemara
Marc Flores,d0uevenlift
Marco Galindo,marcogalindojr
Marcos Fernández Martínez,powerlifter700
Marcos Rivera,marco.rivera14
Marcus Hicks,hicksy.88
Marcus Kay,marcuskay96
Marcus Leoni,marcus.leoni
Marcus Morris,marcusmorris15
Marcus Parkus,marcus.parkus
Marcus Sannadan,filipinothunder
Margaret Hampton,maggiee_ham
Margarita Lisoboy,ritalisoboy
Maria Htee,maria_htee
Maria Ramos,maria_ramos_powerlifting
María Rodríguez Cuenca,rockingsneakers
Mariah Corke,mariahcat
Mariana Moreno Cederberg,schomo_doh
Marianna Gasparyan,power_mayan
Marie Hauschild,marie.hauschild
Mariella Fisher,mari3lla_pl
Mariia Panferova,pinochka77
Marina Cornwall,marina_cornwall
Marina Misuric,marina.misuric
Mario Flotta,fit_flow_88
Marisa Drew,marisadrew_
Mariša Golob,marisagolob
Marisa Inda,marisainda
Mariusz Pilinski,mariusz_pilinski_strongman_
Mark Bell,marksmellybell
Mark Brandenburg,gearlesspower
Mark Chieco,mchieco
Mark Langley,markfails
Mark Macqueen,markmacqueen2
Mark Melancon,smmelancon
Mark Miller,ironmafia_4brosgym
Mark Plummer #1,markplummer97
Mark Selyukov,mark_selyukov
Marko Huzjak,whozjak
Marlinde Gras,marlindegras
Marlon Orellana,mijos_kiloquadz
Marlon Wragg,marlon_pl_
Marlow King,marlowkingg
Marshall Keels,mkeels2
Marshall Powell,themarshpowell
Marte Elverum,frkelverum
Martin Borgland Rønning,grizzlysterk
Martin Brown,martinpebrown
Martin Olivera,kmart_110kg
Martin Plourde,martin_plourde
Martin Smith,marsmith152
Martins Kruze,martinskruze
Marvelous James,marvjames2.0
Marvin Turner,marvturnerpt
Mary Lee Gaffin,maryleegaffin
Maryana Naumova,maryana_n
Mason Cabney,mas__daddy
Mason Cervantes,masscervantes
Mason Clemens,mason_lifts
Mason Cupp,dalai_liftma
Mason Freeman,freefit_21
Mason Liu,masonxwl
Mason Taylor,_masewindu
Mat Bailey,mjmbailey
Mathew Procak,procakliftsthings
Mathieu Brignall,matbrignall
Matic Hren,the_caffeine_overlord
Matt Bund,peninsulabarbell
Matt Disbrow,mdisbrow
Matt Fryfogle,bigmattfryfogle
Matt Mitchell,super_saiyan_bulldog
Matt Olsen,molsen_77
Matt Piscitelli,mattpisc
Matt Sohmer,thehulksmash75
Matt Wallace,mattwallace148
Matt Wenning,realmattwenning
Matthew Arremony,lil_tortoise_snurr
Matthew Bartholomew,_mattbartholomew
Matthew Cruz #1,inkredible__hulk
Matthew Hoffman,mbhoff
Matthew Jones,yaboimattjones
Matthew Jordan #1,mjsaluki
Matthew McCormick,macstrength9
Matthew Morrow,matt_90kg_morrow
Matthew Schenone,mjschenone
Matthew Smith #1,smittysmithlifts
Matthew Sollay,matthew_sollay
Matthew Staub,mattyice234
Matthew Wilk,matt_the.natural_wilk
Maureen Bornbaum,maubarbetta
Maurice Zapata,verse13
Mauro Franklim,maurofranklim
Mauro Spinardi,maurospinardicoach
Max Aita,max_aita
Max Misch,maxmisch83
Maximillian Reis,__natty_daddy
Meana Franco,meanafranco
Medb Murtagh,littlelifter_
Megan Casey,fitness_dynasty
Megan Cotcher,megan_cotcher
Megan Gallagher,megsquats
Megan Kitagawa,kittygawah
Megan McKibben,barbellsnbooks
Meghan Scanlon,megscanlift
Mehar Bhogal,mehars_life
Meicha Hardeman,inlightenedwarrior
Melanie Douglas,melie_doug
Melissa Barber,thats.so.swolissa
Melissa Cotton,lilmelliemel
Melissa Grix,carbsandprs
Melissa Hala,misshala.fit
Melissa King,melisssaking
Melvin West,barbellbully_tahir
Mia Cuevas,miacuevas_
Mia Fisher,miapowerlifter
Micah Hudson,cyborg_barbell
Micah Marino,micah_marino
Michael Abell,mikeya
Michael Albigese,malbigese
Michael Armendariz,michael.armendariz
Michael Black,mc_black33
Michael Bozeman,mbozeman88
Michael Brinson,coachbrinson_
Michael Bulzomi,strong_like_bull.53
Michael DeRouen,itsderjuan
Michael DeStefano,michael_destefano
Michael Estrella,mikeyestrella
Michael Giles,michael__giles
Michael Hsiung,mchsiung1
Michael Jurgelewicz,mikej425
Michael Kodweis,mkodweis
Michael Kuhns,mikeytwocakes
Michael Mahoney,mahoners13
Michael McCann,mccannics181
Michael Mitchell,michaelwmitchell3
Michael Petyak,yakattack6
Michael Roskell,roskelllifts
Michael Russell Jr,maddmike51
Michael Samson #1,mikeysamson_
Michael Torres,elite_conditioning
Michael Tuchscherer,miketuchscherer
Michael Walker #2,coachmike90
Michael Wong,magicmike5580
Michael Zundelevich,mzundy81
Michał Rudziński,michal.barbell
Micheal Seay,maseayjr
Michele Petro,mich2316
Michelle Franklin,thisgrannycan
Michelle Fredrick,chellebelllifts
Michelle Hewlett,michelle_hewlett_
Michelle Kim,michiiikim
Michelle Leu,mich_leudles
Michelle Lin,meeshell1n
Michelle Smith,mumma_broshell
Michelle Sothen,michie_fit
Mickael Cloutier,mickcloutier
Miguel Fuentes,__miggy_aye_f
Mika Edwards,mje_8
Mike Conley #1,high_carb_diet
Mike Conley #2,king_con_16
Mike Farr,silentmikke
Mike Giannini,mikecg2388
Mike Hoare,myhoare
Mike Jones #1,mikejoneswigan
Mike Lackey,mlack15
Mike McGivern,mikemcgivern
Mike O'Hearn,mikeohearn
Mike Polis,mpolis320
Mike Rubinetti,ironmikerubes
Mike Saravane,mikemoose83
Mike Scherer,scheeerpower
Mike Shaeffer,mike_shaeffer
Mike Swierczynski,skiboy1955
Mike Webber,xconditioning
Mike Wolfe #1,bigbadwolfe900
Mikhail Koklyaev,koklyaev_mikhail
Milena Schaefer,milenasch90
Miles Hlivko,mileshlivko
Mindy Chen,baconandbiceps
Minna Pajulahti,minnapajulahti
Miranda Chisom,mirandybrook
Miriam Trillhaas,mooncracker180
Mitch Dela Merced,dela_fit
Mitch Ravenscroft,mitch_ravenscroft
Mitchal Flowers,mitch_flowers_powerlifting
Mitchell Deskis,deskisstrength
Mitchell Fountain,mitchell_fountain
Moa Wikner,moawikner
Mohamad Arnaout,thearnaout
Mohamed Bouafia,bouafia.powerlifting
Molly Mullikin,mollykm
Molly Star,mollystarlifts
Monica Hwu,momoneeeey
Monica Medrano,moni_strength
Morgan Armour,morgan.armour
Morgan Turner #1,powerprenzs
Morocco Arnold,elite_powerlifter
Moya Williams,moyakwilliams
Muhammed Enes Ozkan,ns_alsavage
Murad Alibegov,murad.alibegov
Mustaffa Bin Khidhir,mustaffa.khidhir
Najat Khoury,magscuz
Nam Shartzer,namnamnamm
Naomi Graham,naomi_kgram
Naomi Kutin,naomi.supergirl
Naomi Sheppard,naomiasheppard
Nash Kegley,nashkegley
Natalie Cameron,bananabacknat
Natalie Hanson,natalie.907
Natalie Terrana,natuhlee18
Natasha Barnes,natashabarnes
Natasha Ching,natty_ching
Natasha Keeney,tasha9014
Nate Suangpo,ns614
Nathalie Moen Balhald,nathmoen
Nathan Alexander,alexandernathan
Nathan Baptist,bigtrac55
Nathan Kim,nathankim.js
Nathan Lester,nate_lester
Nathan Robertson,ns.powerlifter
Nathan Tanis,nathan_tanis
Nathaniel Baker #1,nathanielbkc
Nazariy Hrynkiw,the_squatting_slav
Neeti Vashi,neeti_lifts
Neil Austin,bigfreakinneil
Neville Trollip,big_neville
Ngarimu Herewini-Pera,zerobenchgame
Nicholas Austin,lucky_ifbb
Nicholas Brooks,nicholasbrooks25
Nicholas Donte McCoy,_legendofthetank
Nicholas Grasmeder,nick_grasm
Nicholas Kearns,kearnsnm
Nicholas Perdrisat,njpstrength
Nichole Holzum,nicholeholzum
Nick Best,nickbeststrongman
Nick Cook,cookiemonsta08
Nick Edlin,ed.nick
Nick Fisher,nickfisherpowerlifting
Nick Gilmore,ngilmore21
Nick Gout,nick_gout_shw
Nick Henwood,nhenwood165
Nick Israel,nickisrael_dpt
Nick Kiger,kigerstrength
Nick Pierson,nickp814
Nick Ramey,nick_ramey
Nick Rice,rice126
Nick Tadlock,nick.kinda.thicc
Nick Wheeler,wheelzz__
Nick Wright #1,nickwrightnwb
Nicklas Burilovich,nick_burilovich
Nico Duffield,nicoduffield
Nicolas Bolt,nicolasbolt
Nicole Amsler,namsler
Nicole Balkau,nikki_b11
Nicole de Mello,nicoledemellopt
Nicole Gonzalez,nikkigunz83
Nicole Lutz,nicfit8987
Nicole Nguyen,little__bigfoot
Nicole Ordway,kanikkey
Nicole Petro Kurant,petrotwin
Nicolette Zeigler,_trapeziusqueen
Nikhil Thomas,nthomas90
Niki Sims,vera_nahce
Nikki Klein,nikkian148
Nikolas Dorion,nikthehulkdorio
Noah Brooks,noahtbrooks
Noah Ripstein,noahripstein
Noel Gragasin,noel.gragasin
Noelia Corona-Terry,ncoronaterry18
Noelle Brigden,lahormiga777
Nsima Inyang,thenattyprofessor
Odell Manuel,odellmanuelpowerlifter
Ofir Birenbaum,ofirbirenbaum
Ogden J Myklebust III,og_triple_0g
Ogechi Akalegbere,getchmeifyoucan
Oleg Bazilevich,olegbazilevich
Oleg Perepechenov,oleg_perepechenov
Oleksandr Shevchenko,shevchenko_power_od
Oleksii Melnyk,melnyk_olexii
Olga Skorokhodova,olga_skorokhodova_
Olivia Hicks,livilifts
Ollie Walker,ollie.w
Oran Smith,oranksmith
Owen Hubbard,ohubb
Owen Lockwood,owenlockwood_92
Pablo Sánchez Oliva,pablosanchezing
Paige Mills,bikerbiddie
Pamela Anderson,pamv_anderson
Pantelis Sapounakis,sapounakispantelis
Paola Roccuzzo,voiceoftheturtle
Parker McCann,parker_mccann
Pat Thera,iron.outsider.1
Pat Thompson,the.patthompson
Patria Jimenez,quadsofthegodzilla
Patrick Jeffries,beardedbrawn23
Patrick Morrison,manletmorrison
Patrick Ngo,partack
Patrick Vincent Maguire,full_primal_power
Paul Beattie,paul.thewall
Paul Childress,childressp
Paul Cooper,cooperpj01
Paul Nguyen,pvn26
Paul Revelia,paulrevelia
Paul Rucci,ptc_paul_rucci
Paul Vidmar,fatharrypotter
Paula Gentle,pjgentle
Paulo Tanaka,paulo.tanaka
Payal Ghosh,pghosh2
Payje Brewster,payjeypowerlifting
Perry Ellis Jr,perryellisstrong
Perseus Black,its_perseus
Pete Rubish,pete.rubish
Peter Hoang,peterhoang_
Peter Li,petelifts
Peter Nguyen #1,peterpowerrifter
Peter Tsao,peteyxcore
Petr Petráš,petras.petr
Phil O'Donovan,philod91
Phillip Brown,flipdbrown
Phillip Herndon,phillip_herndon
Phillip Lake,papaw.phil
Phillip Richard,phil_nrg
Pierre Shillingford,easypeezly
Pip Brown,pip__brown
Ploutis Koumi,spudsusername
Porter Wood,pwood86
Primo Fantin,primo.74
Priscilla Ribic,priscillaribic
Quessandra Catlett,squatruhh
Quinn Clarke,papagrizzles
Rachael Johnson,bulkingk9
Rachel Anyi,rvchelvnyi
Rachel Frisbie,roboe92
Rachel Kiefer,braids_and_barbells
Rachel Morrison,rachtmorrison
Rachel Orbach,raychrrles
Rachel Pederson,rachlifts85
Rachel Younker,rachelyounker
Rainer Altmäe,rainer198
Raishel Phares,ironyokai
Rait Sagor,rait_sagor
Raleigh Dia,raleighdia_
Ramon Zayas,rzayas3
Randi Lee,island_randi
Randy Mazzie,bigmazofficial
Ranson Lee,ransonlee
Raúl Aparicio Escudero,montadito_de_lomo
Ray Jimenez,powerweightray
Ray Ortiz,rortizeltoro
Ray Saraiva,rayy827
Ray Williams,optimusprime_334
Raymond Chow,raychow1
Rebeca Soto-Llamas,becaasoto
Rebecca Carter,rcstat
Rebecca Heath,becki_77
Rebecca Holcomb,prettystrongbec
Rebecca Smith,bekacsmith
Reid Miranda,reid_miranda
Rene Leger,reneleger
Renee Newton,renbunctious
Reyhan Roybal,reyhanroybal
Rhaea Stinn,rhaeastinn
Rheta West,power_lady_74
Rhiannon Keith,the_valkyrhi
Rhianon Lovelace,rhi_rhi_fitness
Rhyss Keane,pale_horse_powerlifting
Rich Sadiv,sadivhumancrane
Richard Gallagher,gallagherrichard
Richard Hawthorne,corestrong010
Richard Hozjan,richardhozjan
Richard Hulick,the_rich_h
Richard Navarra,partywitrj
Richard Ramos,richard_r_ramos
Richard Twycross-Lewis,richard_lewis
Richie Perrin,darkhorsezombie
Rick Simmons,simmons_strength
Ricky Bolanos,rico_1632
Ricky Mullan,rickymullan
Rilee Stewart,mightymousestewart
Risley Tang,misostrong
RJ Forbes,rj_forbes
RJ Hizon,originally_rj
Rob Escalante,strengthrob
Rob Hall,worldbreakersavage
Rob Larson,rlarson17
Rob Lineker,roblineker
Rob Nikoleychuk,rnikoleychuk
Robb Philippus,quadslikerobb
Robbie Capriles,robbcap101
Robbie Sardinia,rsardinia
Robert Adams,radams_88
Robert Bain,bain316
Robert Morrison #1,rmorrison189
Robert Reis,dubz7512
Robert Rodney,chiseledice
Robert Sikes,rsikes
Robert Simmons,robertbsimmons
Robert Taylor,robzilla504
Robert Tolley,buddyyybruhhh
Róbert Tumpek,tumpekpower
Robert Wilkerson,bigwilk51
Robin Davis,tuffie7
Robin Figelman,slim_fig
Robyn Devaleriola,snowyfox686
Roderick Johnson,hypegod_rod
Rodney Manor,bigrodlift
Rodney Reed,rodney_reed_
Rodrigo Manzo,rodrigo.manzo
Roger Hamilton-Smith,gingertwiglet
Roger Walters,rogerwalters1980
Roman Antonyak,romanantoniak
Roman Eremashvili,eremashvili.roma
Ronald Tarvin,sir_gymratfitness
Ronald Tolie,see_ron_squat_and_stuff
Rondel Hunte,deadlift_lord868
Rory Girvan,rory__girvan
Roscoe Ware,big_sco2k
Rosimery Lima,powergirl.13
Ross Leppala,ross_rts
Ross Shahin-Ajerlo,ross.shahin
Rostislav Petkov,ross_petkov
Routh Thach,sreyrouth
Rowan Hendry-Horne,specialsundae
Rubén Fuentes Medina,ruben_rfm
Rubén Rico Martín,rubenricomartin
Rubén Rodríguez Castro,rubencastro26
Ruby Vella,rubysephora_figure
Ruchell MacGregor,rockiies
Rudy Harbin,rudboysantana
Ruslan Greev,ruslan_greyev
Russel Orhii,russwole
Ruta Lendraitiene,rutastrong
Ruthie Luna,r.lunaaa
Ruud Kassing,kassingcouch
Ryan Belcher,iam1him
Ryan Beshada,quadsimodo181
Ryan Bond,ryan.bond88
Ryan Celli,ryancelli
Ryan DeFea,flyinryan_d
Ryan DeGeorge,ryanmichael298
Ryan Gorman,the_bearded_one81
Ryan Gregnol,ryangregnolfitness
Ryan Jabalee,ryan.jabs
Ryan Kiecker,fresh_kiecks
Ryan King #2,pwr_king_85
Ryan Lataash,king_spider53
Ryan Liu,saiyanthatpowerlifts
Ryan Miller #1,strong_like_bull.dumb_like_ox
Ryan Miller #2,ryanjm313
Ryan Raynier,furious_george181
Ryan Rubio,ryanrubiocp
Ryan Spencer,politicalmuscle
Ryan Stills,ryanstills_powerlifter
Ryan Stinn,stinndler
Ryan Sylva,sylva_sbc
Ryan Turgano,turganomon
Ryan Williams #1,ryan_williams77
Ryan Wingerson,pgh_ryno
Sabrina Moore,innerstrengthuk
Sally McBrydie,sallz5
Salman Khan,salmanatorrr
Salvador Alejandro Martinez,immeatheadroblowe
Salvatore Christopher,vitro8313
Sam Bernstein,samuellbernstein
Sam Bollands,sam_bollands
Sam Byrd,sambyrd1
Sam Dean,samdeanmachine
Sam Hinks,stanleyhinks94
Sam Parker #1,phatmuscle89
Sam Watt,samwattfitness
Samantha Bechard,sam.bechard
Samantha Briggs,bicepslikebriggs
Samantha Cabrera,fitconfidenthappy
Samantha Calhoun,sculptedcreations
Samantha Coleman,colemanstrong
Samantha Perotti,sammi300
Samantha Shinavier,samanthalifts_
Samantha Todd,samirae_spartanbarbell
Sami Vaskelainen,vaskelainen_powerlifting
Sammi Johnson,nopantssammi
Sammy Sebok,ironsaint_sebok
Samuel Lloyd,samtreetops
Samuel Robinson,sdotrob
Samyra Abweh,minimyraa
Santiago Velasquez,thiagofitness92
Sara Bauer,sar_bauer
Sara Brady,sarabethbrady
Sara Cowan,saracowan95
Sara Florence,halfmoonspeak
Sara Frankovich-Hannie,squatastic_sara
Sara Harpin,saralouiseharpin
Sara Schiff,saraeatsbacon
Sarah Brenner #1,sarahskwaats
Sarah Brown,tattedfitchic
Sarah Daly,saz_daly
Sarah Gardiner,sazgardiner
Sarah Houhoulis,saritobandito
Sarah Lanzillo,strongsarah7
Sarah Lewis #1,sarah.lewis_
Sarah Marsden,sarah_e_marsden
Sarah McCaffrey,sarah_moh.caf
Sarah Paxton,sarruhhjo_
Sarah Payne,trap_sarahtops
Sarah Petrie,sarahmarie6388
Sarah Rainbow,sarah_rainbow
Sarah Skinner #1,sarah_skins
Sarah Vance #1,sarah.renee.lifts
Sascha Stendebach,sascha_stendebach
Saskia Grandl,schwarzlich.t
Sawyer Yandell,sawyer_fuerte
Scarlett Portues,captain_scarlift
Schalk-Willem Engelbrecht,schalk_engelbrecht
Scott Bradwell,scott_the_squat
Scott Cartwright,bighosscartwright
Scott Longhofer,metaljerk
Scott Shufelt,shufeltscott
Scott Stiefeld,too_hotti
Scott Sullivan,squatsullivan
Scotty Clark,scotty.clark22
Sean Baker,outlaw181
Sean Berlin,seanberlin
Sean Culnan,sculnan
Sean Fagan,seanyfagan
Sean Flament,sf_powerlifting
Sean Kilbride,seanyk11
Sean Lundin,seanlundin52
Sean Moser,seanmoser19
Sean Noriega,kissmyarch
Sean Stangl,ferruix
Sean Tomac,seantomac125
Sebastian Oreb,australianstrengthcoach
Serdar Tosun,serdartsun
Sergey Daragan,sergey.daragan
Sergey Fedosienko,sergey_fedosienko
Sergey Gladkikh,sergeyfpr0303
Sergii Bilyi,belyi_lift
Sergio Luna,surgetonewlevels
Seth Bowles,140horse
Sevasti Anastasiadis,sev_anastasiadis
Seyonn Chin,seyonnchin_
Seyonn Chinn,123cuts
Shadi Zahed,recklessgains
Shae Jones,wildthang78
Shahriar Sabri,fatglutesfatsloots
Shana Miller,shana___miller
Shane Flowers,_shaneflowers
Shane Hammock,pilgrimageofpower
Shane Henley,atlien_81
Shane Housmans,the_horno_bull
Shane Jerman,mstsystems
Shane Langston,corndog_strong
Shane Martin,smartlifts
Shane Wallace,sierra_whiskey85
Shane Walthers,walt_squats
Shanna McKenzie,shanna.mckenzie
Shannan Thompson,teddybeast__
Shannon Clifford,shannonsnutrition
Shannon Graszat,gunzandbuns
Shannon Mutch,shannypanny_
Shannon Pollock,shannpol
Sharon Holmes #1,shazholmes
Shaun Kopplin,the_heartbreakkid
Shawn Bellon,shawn_bellon
Shawn Boyd,bigshawnthehulk
Shawn Campbell,shawnbearillacampbell
Shawn Doyle,shawn.doyle308
Shawn Frankl,shawnfrankl
Shawn Frasquillo,sfra59uillo
Shawn Hendrix,shawnrhendrix
Shawn Murphy,shawnmurphy1
Shawna Mendelson,mendelsonstrength
Shelby Hood,_bluebird_81
Shelby Talon,shelby_talon
Shenae Healey,shenae.healey
Sheree Trollip,ree_pocket.rocket
Sheri Miles,sheri__miles
Sheridan Jacka,sheridanj76
Sherine Marcelle,sincerelysherine
Shira Bardfield,shira_pop
Shorty Sadang,shortylifts
Siim Rast,tzaby
Silvia García Izquierdo,sepius
Simon Kankkonen,skankkonen
Simon Restifa,rugbysmartarse
Simon Williams,siiiwilliams_powerlifter
Sin Leung,sinjatakespics
Siobhan Taylor,totallyawesometaylor
Sion Hughes,sion_hughes
Skyler Hjelm,skyler_sloan
Skyler Pike,pikeskyler
Sniazhana Zubko,zubko_sniazhana
Sofia Loft,loftsofia
Soledad Palacios,sulleypala
Solomon Levin-Sanders,strongbellysully
Sophia Duong,sphlfts
Sophia Waldemarson,sophiawaldemarson
Sophie Valeika,sophievaleika
Stacia-Al Mahoe,ii.am.legend.01
Stacy Amorim,mrs.bba_gym
Stacy Burr,bamaburr
Stan Efferding,stanefferding
Stanley Schultz,stanleythethird
Steevi Pugh,liftingsteevi
Stefan Rzehak,stefan_rhk
Stefanie Cohen,steficohen
Steph Powell,steff_eff15
Stephanie Earl,stephearlstrong
Stephanie Gaspari,stephgaspari
Stephanie Gleeson,stef_gleeson
Stephanie Pike,stefpike
Stephanie Smith,stellarlady85
Stephanie Walker,stephanierogerswalkergmailcom
Stephaun Mosley,stephskywalker
Stephen Adams,thee_squatch
Stephen Burns,burns_sdb
Stephen Cascioli,casciolisc
Stephen Domacina,steve_d_power
Stephen Krieger,grumpyoldpowerlifter
Stephen Kuang,kuangfitness
Stephen Lehew,blake_74kg
Stephen Manuel,screamermanuel
Stephen Rubalcaba,fcrubalcaba
Stephen Teeters,teeters93kg
Stephen Wilson,stephenwilsonathlete
Steve DeNovi,sdenovi
Steve DiPaola,steviedpol44
Steve Gentili,ptfitness500
Steve Goggins,gogginsforce
Steve Jellett,redbeardlifting
Steve Johnson #2,forsakenwarrior
Steve Mann,smannofsteel
Steve Shaw,bendthebarman
Steven Archer,bigstrengthsteve
Steven Maradona,stevenaay
Steven Tyers,steve_tyers
Stian Walgermo,walgermo
Stina Åkemalm,stinaakemalm
Sunita Raja,sraja89
Susan Chambers,mightymorphinpowerlifter
Susan Johnson #1,susan.l.johnson.power
Susan Salazar,supers2o
Susanna Argile,s.e.argile
Suzanne Davis,suzanne_davis_ifbb_pro
Suzanne Hartwig-Gary,siouxz52kg
Sylvie Dubé-Forslund,sylvie_lexploratrice
Szu Han Yang,sarahyangsy
Tabitha Anderson,drbigsid12
Tabitha Gleason,brains_and_gains.tabitha
Takara Hawthorne-Smith,takara_fitness
Talha Cetin,makinetalha
Tanja Stenholdt Olsen,tanja__olsen
Tanner Baird,massenomics
Tanner Johnson,tannermj15
Tanner Madison,tannermadison
Tanner McBride,tanner_tiberius
Tanya Bull,tanyabull83
Tara Duncan,liftlikemommy
Tara Webber,taragreenwebber
Tarra Oravec,tarra.oravec
Taryn Albright,waternweights
Tasmin Campbell,tazzy_cam
Tate Brinkley,taterstrong
Tatyana Polstyanova,tatyana_polstyanova67
Tavis Harris,theirondr
Tawanda Bwerudza,tawandabwerudza
Taylar Stallings,taylarmade
Taylor Atwood,t_atwood
Taylor Chapman,tchapsss
Taylor Erickson,taylor_skyyy
Taylor Haney,malevolentserenity
Taylor Irvine,t_m_irvine
Teaguen Labatch,teaguen_labatch
Tee Cummins,tee_cummins
Tee Popoola,teepopoola
Temitope Nuga,5ringsfitnessuk
Terence Chiu,chiudafunk
Teresa Parsons,teresaparsons
Teresa Yeung,aserettt
Terrian Ashley,terriboo621
Terry Foreman,terryforeman2062
Terry Harrell,terryharrell517
Terry Martin,terrymartin_
Terry Smith #1,tsmithjr44
Tess Heaslip,tessredsky
Tetyana Holm,tanja_holm
Thaheer Mannan,tazpowerlifting
Theresa Simanu,resasimanu
Thomas Adams #1,tads1025
Thomas Biddle,tomweightz
Thomas Blackwell,bigtommyblack
Thomas Botica,tpbotz
Thomas Brannick,tbrannick
Thomas Davis,tdsmash
Thomas DeFea,tomahawk_d
Thomas Elgort,bestnaopieop
Thomas Knight,peepingtomknight
Thomas Saul,itstomsaul
Thomas Schwarz,ts_pl
Thomas Soto,mightymouse1931
Thu Ngo,acciobeastmode
Tia-Clair Toomey,tiaclair1
Tiffany Leung,tinytiff97
Tiffany Nguyen,liftliketiff
Tiffany Peters,tiffany_powerlifts
Tiffany Sengsourigna,tuffany
Tiki Manu,tiki_eee_dizzle
Tim Daniel Konertz,cpt_timmy
Tim Dose,timdose72
Tim Garrett,turn_down_for_squat
Tim Parker #1,tparker_powlftr
Timothy Mercer,redbeardbarbell
Tina Daneshmand,tina_tornado
Tiny Meeker,tinymeeker
TJ Bryant,coachtjbryant
TJ Dunsmoor,tjdunsmoor
Toby Luangsy,toby_luangsy
Todd Steffens,mechatoddzilla
Tom Catchlove,tomcatchlove
Tom Chang,teechangy
Tom Davis,tomdavispl
Tom Dunning,tee_dee_92
Tom Finn,huckfinnbarbell
Tom Kallas,tomkal1
Tom Martin #1,tommartinpl
Tom Nguyen,tvn.kg
Tom Ross,trstrongfit
Tom Sayeau,sayeaut
Tom Smith,tomsmith.1
Tomi Luhtanen,tomiluhtanen
Tommy Janusz,humbledbastard
Tommy O'Connor,toc5
Toni Balijagic,_toni_315
Tony Bolognone,tony_bolognone
Tony Cliffe,tmcpower
Tony Conyers,tony_conyers
Tony Montgomery,tonymontgomeryjr
Tony Vuong,tonyyvuongg_
Tori Goulart,torigoulart
Tory Pelzer,torypelzer
Tra Farrington,unbreakabletra
Tracey Berg-Fulton,theflyingfraction
Tracey Le,icetrray
Tracy L. Jones,tracy.jones.18
Tracy O'Callaghan,tracy_ocallaghan
Travis Copeland,trav_cope
Travis Dyer,thepowerdoc
Travis Hewitt,travhewitt1
Travis Nelson,tnelsonpower
Travis P. Rogers,papabearrogers
Travis Paul Rose,travisrose_fit
Travis Salisbury,trav.salisbury
Travis Webb,strong.as.an.ox
Trent Blanchard,trenty19
Trent Ross,tr3ntosm3ntos
Trenton Mellinger,tm3lling3r
Trenton Wade,trewade198
Trevor Jaffe,jaffestrength
Trevor Myhre,the_liftertarian
Trey Arras,treycep
Tricia Floyd,teefabfit
Tristan Rocheleau,tristyr
Tristin Williams,baby_beast238
Troy Abbott,troyabbottpt
Troy Mulkey,trobertsonm
Troy Unrein,desertviking91
Trystan Oakley,oakleypowerlifting
Tsimpi Mairi,mary_tsibi
Turama Hawira,lummybro
Ty Tankard,tytankard
Tyler Castle,castle_wv
Tyler Collins #1,collins__tyler
Tyler Cummings,tcum_48pl
Tyler E Roy,roy_liftz
Tyler Frazee,ty_smash
Tyler Frost,tylerfrost17
Tyler McClanahan,mcclanahan_ty92
Tyler Mingus,tylershmingus
Tyler Obringer,tylerobringer
Tyler Ward,wyler_tard88
Tyree Dunn,pull_mybeard
Tyrel Williams,swolefat
Ulan Anuar,anuar.ulan
Urban Mur,urbanmur
Vadim Kakhuta,kahuta81
Vadym Dovhanyuk,vadymdovhanyuk
Vadym Kotsaga,vadymkotsaga
Valeria Merzlyakov,valeriamerzl
Valerie Dew,_tenacious_heart_
Valerie King,valrking
Valerie Smith,valerie_smith_powerlifter
Vanessa Burman,vanessa_barbellmedicine
Vanessa Crouch,meatshelf
Vanessa Ferla,vanessaferla
Vanessa Torres,vanessa_pitbull_torres
Vasa Samataua,vasa_shw
Véronique Fradette,freddles.fit
Vicki Jewson,vickijew
Victor Biryukov,v.biryukov_russianboss
Victor Solis,victor_solis74kg
Víctor Vázquez Hernández-Carrillo,victorvazquezhc
Victoria Lodise,victorialodise
Victoria Sukar,veemarie.powerbuilder
Vincent Falzetta,148lbsofmeat
Vincent Raia,vr.strength
Vincent Shih,veecent
Virginia Finol Franco,virfinol
Vladimir Kravtsov,vladimir_kravtcov
Vladislav Alhazov,vado.a
Wade Zeno,wadeonyourparade
Wakaba Stephens,leafstrength
Wayne Coffey,waynecoffey183
Wayne Howlett,waynehowlettpl
Wayne Knight,kauai_knight
Wayne Schmitt Jr,540guy
Wayne Van Nostrand,alpha_swole
Wei-Ling Chen,weiling14951414131
Wendell Sowers,wendellsowers
Wendy Chan,watergirl94
Wes Sharp,pma_til_im_doa
Wesley Clapp,sonofaesir
Wesley Hall,wes_hall_
Will Cooper,willfcooper
Will Hunt,nemesis_powerlifting
William Andrews #1,_hunterandrews
William Barabas,barabas_242
William Burrell,i_am_williamburrell
William Crozier,wcroz
William Fluck,fluckie19
William Freeman-Dunn,will_1982
William Littlefield,fit_over_flab
William Newton,will_newton_will.b.fit
Willis Graves,graves_strength
Winston Rasmussen,thewinniedr
Wynter Addams,wynteraddams
Xiaver Collier,the93kgs
Yakov Ionin,yakovionin
Yan-Fei Zhao,yanstahx
Yangsu Ren,deadlift_panda
Yaniv Gur,ygur
Yaroslav Chayka,seagull_powerlifting
Yessica Martinez,yessie_mart
Yianni Magoulias,greek_ptc
Yianni Manousaridis,yianni50
Yolaunda Campbell,tiny_tank1
York Stanham,york.sta
Yoshihiro Higa,yoshihiro.270
Yoshio Adachi,yoshadachi
Yosie Martinez,yosiemartinez1
Yulia Shenkarenko,yulia_shenkarenko
Yury Belkin,belkin_one_power
Zac Meyers,thehulkmeyers
Zach Anschultz,zach_anschultz
Zach Homol,zachhomol
Zach Morris,strongmanred
Zach Schulze,z.wraith
Zach Scott,zachscottepc
Zach Wittusen,zachwittusen
Zachary DiCostanzo,dicostaz
Zachary John,zach_powerlifts
Zachary Langdon,ironmanzach
Zachary Patton,lumber_jacked98
Zachary Yamamoto,zmoto_
Zachry Barnette,zbarnette98
Zack Carr,zack_carr275
Zackary Sanders,zsanders294
Zackery Shoebottom,zackeryshoebottom
Zahir Khudayarov,zahirkhudayarov
Zoe Newson,zoenewson7
Zorahgail Balino,zorahgail
Zyra Fortes,z_fortes
