Name,Place,Division,Sex,Equipment,State,WeightClassKg,BodyweightKg,Age,Best3SquatKg,Best3BenchKg,Best3DeadliftKg,TotalKg,Event
Marissa Edwards,1,Junior 13-15,F,Raw,VA,52,49.62,14,52.50,27.50,62.50,142.50,SBD
Maddie Goode,DQ,Junior 13-15,F,Raw,KY,56,54.79,14,75.00,-50.00,,,SBD
Stephanie Teichman,1,Open,F,Raw,KY,56,53.80,33,80.00,55.00,110.00,245.00,SBD
Michelle Easterling,1,Open,F,Raw,KY,67.5,67.13,34,102.50,57.50,130.00,290.00,SBD
Laurie Smith,1,Open,F,Raw,CA,75,70.22,42,137.50,75.00,155.00,367.50,SBD
Amanda Wilson,2,Open,F,Raw,KY,75,74.84,28,110.00,57.50,130.00,297.50,SBD
Sylvia Surowisc,1,Open,F,Raw,MD,82.5,80.01,25,72.50,40.00,92.50,205.00,SBD
Laurie Smith,1,Master 40-44,F,Raw,CA,75,70.22,42,137.50,75.00,155.00,367.50,SBD
Daniel Turner,DQ,Junior 16-17,M,Raw,KY,75,67.59,17,170.00,-127.50,,,SBD
Charlie Dixon,1,Junior 18-19,M,Raw,VA,82.5,81.10,18,242.50,142.50,250.00,635.00,SBD
Brandon Ramsey,1,Junior 20-23,M,Raw,IN,82.5,82.10,22,185.00,125.00,215.00,525.00,SBD
Jared Ray,2,Junior 20-23,M,Raw,KY,82.5,78.38,23,150.00,90.00,195.00,435.00,SBD
Ryan Romey,1,Junior 16-17,M,Raw,KY,90,84.82,17,190.00,130.00,240.00,560.00,SBD
Dylan Fugate,1,Junior 20-23,M,Raw,KY,90,88.09,21,172.50,125.00,197.50,495.00,SBD
Matthew Franey,DQ,Junior 20-23,M,Raw,TN,100,97.07,20,185.00,-132.50,225.00,,SBD
David Elmore,1,Junior 20-23,M,Raw,KY,110,108.50,22,265.00,175.00,272.50,712.50,SBD
Kyle Buschell,2,Junior 20-23,M,Raw,KY,110,100.52,23,200.00,122.50,245.00,567.50,SBD
Sam Lukes,1,Open,M,Raw,KY,75,74.84,30,205.00,125.00,217.50,547.50,SBD
Ryan Montan,1,Open,M,Raw,IN,82.5,81.92,25,252.50,165.00,270.00,687.50,SBD
Matthew Church,1,Open,M,Raw,KY,90,88.36,27,195.00,130.00,240.00,565.00,SBD
Caleb Norton,1,Open,M,Raw,KY,100,99.70,27,190.00,165.00,255.00,610.00,SBD
Jeremiah Hampton,1,Open,M,Raw,VA,125,124.56,33,227.50,170.00,245.00,642.50,SBD
Jacob Harlan,2,Open,M,Raw,KY,125,116.12,25,210.00,177.50,250.00,637.50,SBD
Nathan Hampton,1,Submaster 35-39,M,Raw,VA,110,109.50,39,157.50,155.00,185.00,497.50,SBD
Tom Urani,1,Master 65-69,M,Raw,MO,67.5,66.50,66,120.00,100.50,193.50,414.00,SBD
Jaclyn Wolfe,1,Junior 18-19,F,Wraps,KY,56,55.70,19,112.50,42.50,137.50,292.50,SBD
Briana Molfetta,1,Junior 18-19,F,Wraps,OH,60,57.24,18,110.00,50.00,125.00,285.00,SBD
Donna Williams,1,Open,F,Wraps,KY,75,71.12,39,180.00,120.00,190.00,490.00,SBD
Talia Van Doran,1,Open,F,Wraps,TN,82.5,79.38,29,160.00,77.50,185.00,422.50,SBD
Donna Williams,1,Submaster 35-39,F,Wraps,KY,75,71.12,39,180.00,120.00,190.00,490.00,SBD
JP Gound,1,Junior 16-17,M,Wraps,KY,67.5,66.13,17,172.50,110.00,225.00,507.50,SBD
Cyrus XI,1,Junior 20-23,M,Wraps,KY,67.5,65.59,20,172.50,97.50,195.00,465.00,SBD
Seth Marcum,1,Junior 16-17,M,Wraps,KY,82.5,79.38,17,180.00,120.00,197.50,497.50,SBD
Zach Gound,1,Junior 18-19,M,Wraps,KY,90,85.09,19,175.00,145.00,225.00,545.00,SBD
Miles Goodman,1,Junior 16-17,M,Wraps,KY,100,93.89,16,182.50,132.50,217.50,532.50,SBD
Zack Humphries,1,Junior 18-19,M,Wraps,VA,100,97.98,19,210.00,115.00,215.00,540.00,SBD
Joe Oakley,1,Junior 20-23,M,Wraps,OH,100,97.70,22,227.50,132.50,230.00,590.00,SBD
Kody Johnson,2,Junior 20-23,M,Wraps,KY,100,92.62,21,137.50,75.00,185.00,397.50,SBD
Danny Keen,1,Junior 20-23,M,Wraps,KY,110,109.59,23,170.00,120.00,207.50,497.50,SBD
Jason McKinny,1,Junior 20-23,M,Wraps,KY,125,120.93,23,230.00,165.00,242.50,637.50,SBD
Corey Graham,1,Junior 20-23,M,Wraps,KY,140+,183.61,22,200.00,125.00,240.00,565.00,SBD
Nicholas Phillips,1,Open,M,Wraps,AZ,75,71.85,25,182.50,105.00,187.50,475.00,SBD
Ryan Montgomery,1,Open,M,Wraps,KY,82.5,81.56,22,175.00,102.50,190.00,467.50,SBD
Danny Amon,1,Open,M,Wraps,KY,90,89.36,29,210.00,187.50,257.50,655.00,SBD
Chaz Cable,2,Open,M,Wraps,KY,90,89.58,30,192.50,145.00,240.00,577.50,SBD
Dylan Pope,1,Open,M,Wraps,IN,110,109.77,24,277.50,175.00,285.00,737.50,SBD
Corey Lovett,2,Open,M,Wraps,KY,110,108.86,35,260.00,182.50,255.00,697.50,SBD
Cody Capps,3,Open,M,Wraps,TN,110,109.77,27,250.00,147.50,277.50,675.00,SBD
Mitchell Obenchain,1,Open,M,Wraps,VA,125,122.65,31,225.00,182.50,287.50,695.00,SBD
Terry Densmore,2,Open,M,Wraps,IN,125,119.20,33,185.00,155.00,210.00,550.00,SBD
Charles Jones,1,Open,M,Wraps,VA,140,135.17,28,95.50,95.00,182.50,373.00,SBD
Chris Chrisman,1,Open,M,Wraps,IN,140+,180.26,36,365.00,215.00,330.00,910.00,SBD
Kenny Carlisle,1,Master 45-49,M,Wraps,IN,125,117.93,48,182.50,150.00,205.00,537.50,SBD
Jason Rigg,DQ,Master 40-44,M,Single-ply,KY,90,89.81,42,-247.50,,,,SBD
Dalton Cissell,1,Open,M,Raw,KY,100,98.70,24,,205.00,,205.00,B
Ryan Osborne,1,Open,M,Raw,KY,110,107.64,32,,215.00,,215.00,B
Matt Holder,2,Open,M,Raw,TN,110,107.95,32,,187.50,,187.50,B
Dustin Minks,1,Submaster 35-39,M,Raw,IN,140,139.66,35,,172.50,,172.50,B
Tom Urani,1,Master 65-69,M,Raw,MO,67.5,66.50,66,,100.50,,100.50,B
David Bassett,1,Master 40-44,M,Raw,IL,90,89.54,40,,165.00,,165.00,B
Dustin Minks,1,Submaster 35-39,M,Single-ply,IN,140,139.66,35,,265.00,,265.00,B
Chase Carrett,1,Junior 13-15,M,Raw,IL,67.5,60.78,13,,,125.00,125.00,D
Benjamin Hack,1,Junior 18-19,M,Raw,,90,89.81,19,,,252.50,252.50,D
Tom Urani,1,Master 65-69,M,Raw,MO,67.5,66.50,66,,,193.50,193.50,D
John Kranchison,1,Master 50-54,M,Raw,IN,82.5,80.74,54,,,160.00,160.00,D
