Place,Name,State,WeightClassKg,BodyweightKg,Age,Best3SquatKg,Best3BenchKg,Best3DeadliftKg,TotalKg,Sex,Division,Equipment,Event,Deadlift4Kg
1,Jennifer Nerida,HI,48,47.7,23,85,42.5,117.5,245,F,Junior 20-23,Raw,SBD,
1,Kendall Luz,HI,56,55.6,19,115,62.5,132.5,310,F,Junior 18-19,Raw,SBD,137.5
2,Leilani Nicolas,HI,56,54,18,92.5,50,112.5,255,F,Junior 18-19,Raw,SBD,
1,Charissa Vallesteros,HI,56,56,21,92.5,47.5,137.5,277.5,F,Junior 20-23,Raw,SBD,
2,Rose Nakamura,HI,56,55,22,100,52.5,112.5,265,F,Junior 20-23,Raw,SBD,
1,E'Le'A Ilae,HI,60,58,19,95,50,125,270,F,Junior 18-19,Raw,SBD,
1,Addison Didcoct,HI,60,59.8,21,80,42.5,92.5,215,F,Junior 20-23,Raw,SBD,
1,Lorrainne Dizon,HI,67.5,60.6,18,105,40,132.5,277.5,F,Junior 18-19,Raw,SBD,
1,Noelle Tsutsui,HI,82.5,81.6,23,132.5,60,115,307.5,F,Junior 20-23,Raw,SBD,
1,Stephanie Araya,HI,48,47.8,25,92.5,50,122.5,265,F,Open,Raw,SBD,
1,Lindsey Okumoto,HI,52,50.8,30,107.5,60,137.5,305,F,Open,Raw,SBD,
2,Natasha Nagum,HI,52,49.6,26,90,65,142.5,297.5,F,Open,Raw,SBD,
3,Aisha Young,HI,52,51.3,28,90,50,120,260,F,Open,Raw,SBD,
1,Brianna Simcic,HI,56,56,23,62.5,37.5,80,180,F,Open,Raw,SBD,
1,Shatonia Narvaez,HI,60,59.6,26,85,52.5,127.5,265,F,Open,Raw,SBD,
1,Amber Carranco,HI,67.5,64.6,24,137.5,77.5,162.5,377.5,F,Open,Raw,SBD,
2,Julia Cap,HI,67.5,66.4,28,135,62.5,152.5,350,F,Open,Raw,SBD,
3,Mandy Holt,HI,67.5,65.1,36,110,57.5,137.5,305,F,Open,Raw,SBD,
4,Denise Nakamura,HI,67.5,64,26,85,60,95,240,F,Open,Raw,SBD,
5,Maribeth Seveses,HI,67.5,66.4,27,77.5,47.5,110,235,F,Open,Raw,SBD,
1,Aurielle Polynice,HI,75,74,28,147.5,80,165,392.5,F,Open,Raw,SBD,
2,Claudia Trevino,HI,75,74,24,80,50,115,245,F,Open,Raw,SBD,
3,Whitley Fulcher,HI,75,71.8,29,77.5,45,117.5,240,F,Open,Raw,SBD,
1,Chelle Sun,HI,82.5,81.6,32,127.5,62.5,165,355,F,Open,Raw,SBD,
2,Alejandra Montes,HI,82.5,78.2,24,130,67.5,147.5,345,F,Open,Raw,SBD,
3,Cortney Jones,HI,82.5,80,27,107.5,50,125,282.5,F,Open,Raw,SBD,
1,Dawn Reno,HI,90,84.2,30,120,60,137.5,317.5,F,Open,Raw,SBD,
1,Mandy Holt,HI,67.5,65.1,36,110,57.5,137.5,305,F,Submaster 35-39,Raw,SBD,
1,Kim Inoshita,HI,75,73.6,40,95,57.5,112.5,265,F,Master 40-44,Raw,SBD,
1,Logan Villareal,HI,52,52,14,95,50,143.5,288.5,M,Junior 13-15,Raw,SBD,
2,Allen Mahoe III,HI,52,51.6,13,82.5,47.5,102.5,232.5,M,Junior 13-15,Raw,SBD,
1,Ricky Oshita,HI,52,51,21,120,87.5,147.5,355,M,Junior 20-23,Raw,SBD,
1,Pakela Olanolan,HI,67.5,67.4,23,182.5,110,235,527.5,M,Junior 20-23,Raw,SBD,
2,Kevin Young,HI,67.5,66,22,160,97.5,195,452.5,M,Junior 20-23,Raw,SBD,
1,Alexander Oley,HI,75,73.6,19,167.5,115,230,512.5,M,Junior 18-19,Raw,SBD,
2,Sterling Kahumoku,HI,75,73,19,150,92.5,182.5,425,M,Junior 18-19,Raw,SBD,
1,Brandon Perez,HI,75,68.4,22,210,117.5,257.5,585,M,Junior 20-23,Raw,SBD,
2,Jael Caoile,HI,75,74.2,22,210,110,245,565,M,Junior 20-23,Raw,SBD,
1,Christopher Yoshikawa,HI,82.5,81.8,21,215,137.5,282.5,635,M,Junior 20-23,Raw,SBD,
2,Christopher Oakland,HI,82.5,81.2,22,195,142.5,227.5,565,M,Junior 20-23,Raw,SBD,
3,Nielsen Mariano,HI,82.5,82.5,21,195,122.5,230,547.5,M,Junior 20-23,Raw,SBD,
1,Chris Chang,HI,90,87.8,22,192.5,117.5,225,535,M,Junior 20-23,Raw,SBD,
1,Weston Akamine,HI,100,98.8,23,200,160,265,625,M,Junior 20-23,Raw,SBD,
2,Samuel Birns,CA,100,96.4,22,202.5,112.5,200,515,M,Junior 20-23,Raw,SBD,
1,Bryan Suka,HI,110,110,23,215,180,220,615,M,Junior 20-23,Raw,SBD,
2,Thomas Simpkins,HI,110,108,22,227.5,145,237.5,610,M,Junior 20-23,Raw,SBD,
1,Kekoa Marshall,HI,125,111.4,23,265,185,245,695,M,Junior 20-23,Raw,SBD,
1,Dustin Zuniga,HI,75,75,24,195,132.5,280,607.5,M,Open,Raw,SBD,
1,Premar Namnama,HI,82.5,82.2,24,255,182.5,292.5,730,M,Open,Raw,SBD,
2,Christopher Yoshikawa,HI,82.5,81.8,21,215,137.5,282.5,635,M,Open,Raw,SBD,
3,Puluke Pascua,HI,82.5,81.2,31,195,135,230,560,M,Open,Raw,SBD,
4,Alberto Sandobal III,HI,82.5,80.8,24,187.5,130,220,537.5,M,Open,Raw,SBD,
5,Benjamin Chung,HI,82.5,81.8,25,155,107.5,197.5,460,M,Open,Raw,SBD,
1,Alex Mendoza,HI,90,89.2,30,210,150,260,620,M,Open,Raw,SBD,
2,Eric Loyola,HI,90,89.6,48,220,142.5,212.5,575,M,Open,Raw,SBD,
3,Leighton Asuncion,HI,90,89.2,37,210,130,200,540,M,Open,Raw,SBD,
4,Dallas Velke,HI,90,89.4,26,182.5,117.5,227.5,527.5,M,Open,Raw,SBD,
5,Nigel Eharis,HI,90,90,29,172.5,115,227.5,515,M,Open,Raw,SBD,
6,Sam Winders,HI,90,90,26,192.5,102.5,210,505,M,Open,Raw,SBD,
1,Dalton Christy,HI,100,100,25,272.5,172.5,307.5,752.5,M,Open,Raw,SBD,
2,Kalei Saffery,HI,100,98.6,31,182.5,185,237.5,605,M,Open,Raw,SBD,
3,Tuvale Polu,HI,100,98.8,27,197.5,135,237.5,570,M,Open,Raw,SBD,
4,Miller Porche,HI,100,100,21,192.5,135,230,557.5,M,Open,Raw,SBD,
5,Jesus Madrigal,HI,100,99,25,200,117.5,225,542.5,M,Open,Raw,SBD,
1,Schyler Arakaki,HI,110,108.6,27,272.5,157.5,295,725,M,Open,Raw,SBD,
2,Mark Carlos,HI,110,110,32,222.5,157.5,235,615,M,Open,Raw,SBD,
1,Brandon Luis,HI,125,122.6,25,197.5,157.5,242.5,597.5,M,Open,Raw,SBD,
1,Will Lau,HI,67.5,67.2,38,100,87.5,165,352.5,M,Submaster 35-39,Raw,SBD,
1,Tyree Tucker,HI,75,73.8,35,182.5,127.5,220,530,M,Submaster 35-39,Raw,SBD,
1,Kaulana Duldulao,HI,82.5,81.8,38,185,160,250,595,M,Submaster 35-39,Raw,SBD,
1,Leighton Asuncion,HI,90,89.2,37,210,130,200,540,M,Submaster 35-39,Raw,SBD,
1,Edward Clattenburg,HI,75,74.8,40,125,110,207.5,442.5,M,Master 40-44,Raw,SBD,
1,Eric Loyola,HI,90,89.6,48,220,142.5,212.5,575,M,Master 45-49,Raw,SBD,
1,Daniel Manoi,HI,100,97.4,42,105,105,162.5,372.5,M,Master 40-44,Raw,SBD,
1,Gilbert Ikehara,HI,100,99.2,51,215,160,200,575,M,Master 50-54,Raw,SBD,
1,Val Patao,HI,110,109.2,49,230,100,242.5,572.5,M,Master 45-49,Raw,SBD,
1,Stefano Magaddino,HI,110,103,67,152.5,125,160,437.5,M,Master 65-69,Raw,SBD,
1,Jason Lamb,HI,125,120,40,182.5,180,220,582.5,M,Master 40-44,Raw,SBD,
1,Ren Yamashita,HI,52,51.6,28,170,105,160,435,F,Open,Single-ply,SBD,
1,Jessica Radakovich,HI,67.5,66,34,137.5,110,142.5,390,F,Open,Single-ply,SBD,
1,Kamuela Wassman,HI,140,137.2,29,320,230,325,875,M,Open,Single-ply,SBD,
1,Kirk Gosnell,HI,125,114.6,47,,200,,200,M,Master 45-49,Raw,B,
