Division,WeightClassKg,Place,Name,Team,BodyweightKg,Best3SquatKg,Best3BenchKg,Best3DeadliftKg,TotalKg,Equipment,Event,Sex
Boys,52,1,Coleman Hardin,Frankston,50.71,138.35,65.77,136.08,340.19,Single-ply,SBD,M
Boys,52,2,Jerry Fail,Elkhart,49.71,95.25,52.16,102.06,249.48,Single-ply,SBD,M
Boys,52,3,Logan Shaw,Buffalo,42.46,83.91,47.63,90.72,222.26,Single-ply,SBD,M
Boys,56,1,Cannon Churchman,Palestine Westwood,55.61,136.08,56.7,129.27,322.05,Single-ply,SBD,M
Boys,56,2,Chandler Prnka,Malakoff,52.8,113.4,68.04,124.74,306.17,Single-ply,SBD,M
Boys,56,3,Brandon Renteria,Buffalo,52.34,97.52,58.97,102.06,258.55,Single-ply,SBD,M
Boys,60,1,Jj Beckfield,Frankston,59.47,147.42,65.77,136.08,349.27,Single-ply,SBD,M
Boys,60,2,Noble Giles,Frankston,58.69,127.01,65.77,145.15,337.93,Single-ply,SBD,M
Boys,60,3,Cooper Jordan,Elkhart,59.06,122.47,77.11,138.35,337.93,Single-ply,SBD,M
Boys,67.5,1,Demarkus Ray,Elkhart,64.95,158.76,99.79,151.95,410.5,Single-ply,SBD,M
Boys,67.5,2,Joel Dees,Trinity,65.59,147.42,92.99,163.29,403.7,Single-ply,SBD,M
Boys,67.5,3,Truman Garza,Buffalo,66.95,165.56,77.11,136.08,378.75,Single-ply,SBD,M
Boys,67.5,4,Justin Standley,Trinity,63.41,129.27,83.91,136.08,349.27,Single-ply,SBD,M
Boys,67.5,5,Ben Workman,Frankston,61.6,129.27,61.23,145.15,335.66,Single-ply,SBD,M
Boys,67.5,6,Gesyler Llanos,Trinity,60.87,129.27,70.31,133.81,333.39,Single-ply,SBD,M
Boys,67.5,7,Kyle Kennerk,Cayuga,61.23,124.74,65.77,136.08,326.59,Single-ply,SBD,M
Boys,67.5,8,Chris Soria,Buffalo,63.41,,95.25,151.95,247.21,Single-ply,BD,M
Boys,67.5,9,Jaycob Elliot,Grapeland,65.77,102.06,,124.74,226.8,Single-ply,SD,M
Boys,75,1,Parker Hay,Trinity,74.84,195.04,115.67,201.85,512.56,Single-ply,SBD,M
Boys,75,2,Zach Morrow,Palestine Westwood,70.31,179.17,108.86,174.63,462.66,Single-ply,SBD,M
Boys,75,3,Ulices Guerrero,Buffalo,68.4,165.56,102.06,165.56,433.18,Single-ply,SBD,M
Boys,75,4,Sebastion Maldonado,Trinity,74.84,147.42,102.06,174.63,424.11,Single-ply,SBD,M
Boys,75,5,Jonathan Alemen,Trinity,73.48,133.81,88.45,183.7,405.97,Single-ply,SBD,M
Boys,75,6,Taylor Vincent,Cayuga,73.75,147.42,88.45,136.08,371.95,Single-ply,SBD,M
Boys,75,7,John Vaughn,Buffalo,72.03,145.15,86.18,131.54,362.87,Single-ply,SBD,M
Boys,75,8,Jp Hucklebridge,Palestine Westwood,73.48,138.35,74.84,142.88,356.07,Single-ply,SBD,M
Boys,75,9,Brayden Raymond,Malakoff,70.03,129.27,68.04,142.88,340.19,Single-ply,SBD,M
Boys,75,10,Jay Shepherd,Grapeland,71.49,127.01,70.31,133.81,331.12,Single-ply,SBD,M
Boys,75,11,Jayden Rodemaker,Grapeland,73.66,108.86,58.97,149.69,317.51,Single-ply,SBD,M
Boys,75,12,Todd Flangan,Mount Enterprise,71.67,90.72,61.23,99.79,251.74,Single-ply,SBD,M
Boys,82.5,1,Cameron Riess,Grapeland,80.65,272.16,174.63,229.06,675.85,Single-ply,SBD,M
Boys,82.5,2,Ryan Lindsay,Elkhart,82.01,231.33,113.4,195.04,539.77,Single-ply,SBD,M
Boys,82.5,3,Nate Bell,Elkhart,76.57,213.19,117.93,190.51,521.63,Single-ply,SBD,M
Boys,82.5,4,Mike Agan,Elkhart,80.29,204.12,129.27,183.7,517.1,Single-ply,SBD,M
Boys,82.5,5,Tevor King,Buffalo,80.92,181.44,120.2,151.95,453.59,Single-ply,SBD,M
Boys,82.5,6,Justin Ortiz,Frankston,81.47,142.88,83.91,158.76,385.55,Single-ply,SBD,M
Boys,82.5,7,Kevin Kennerk,Cayuga,79.11,147.42,81.65,151.95,381.02,Single-ply,SBD,M
Boys,82.5,8,Johnathan Hernandez,Malakoff,77.93,136.08,90.72,149.69,376.48,Single-ply,SBD,M
Boys,82.5,9,Cason Grasch,Cayuga,75.39,127.01,77.11,142.88,347,Single-ply,SBD,M
Boys,82.5,10,Tyler Crews,Malakoff,77.2,127.01,70.31,140.61,337.93,Single-ply,SBD,M
Boys,82.5,11,Scott Davis,Mount Enterprise,77.47,92.99,72.57,142.88,308.44,Single-ply,SBD,M
Boys,90,1,Hector Dominguez,Buffalo,82.55,231.33,120.2,204.12,555.65,Single-ply,SBD,M
Boys,90,2,Trey Walters,Palestine Westwood,88.18,181.44,136.08,204.12,521.63,Single-ply,SBD,M
Boys,90,3,Ashton Henry,Grapeland,89.27,192.78,92.99,204.12,489.88,Single-ply,SBD,M
Boys,90,4,Jamar Cewis,Palestine Westwood,89.27,181.44,113.4,183.7,478.54,Single-ply,SBD,M
Boys,90,5,DeVonte McClain,Palestine Westwood,83.1,170.1,115.67,181.44,467.2,Single-ply,SBD,M
Boys,90,6,Caleb Adams,Malakoff,89.36,172.37,111.13,170.1,453.59,Single-ply,SBD,M
Boys,90,7,Dakota Neal,Elkhart,83.82,122.47,92.99,131.54,347,Single-ply,SBD,M
Boys,90,8,Jamar Thompson,Mount Enterprise,86.18,124.74,70.31,136.08,331.12,Single-ply,SBD,M
Boys,100,1,Gavin Defore,Elkhart,92.8,222.26,151.95,222.26,596.47,Single-ply,SBD,M
Boys,100,2,Brendan Harcrow,Cayuga,97.98,204.12,142.88,185.97,532.97,Single-ply,SBD,M
Boys,100,3,Aaron Davis,Grapeland,97.16,165.56,92.99,183.7,442.25,Single-ply,SBD,M
Boys,100,4,Brendan McClintock,Malakoff,92.26,154.22,83.91,167.83,405.97,Single-ply,SBD,M
Boys,100,5,Timothy Simpson,Buffalo,95.98,106.59,102.06,151.95,360.61,Single-ply,SBD,M
Boys,100,6,Tristan LeGard,Cayuga,96.3,113.4,92.99,129.27,335.66,Single-ply,SBD,M
Boys,100,7,Matthew Barber,Cayuga,98.97,106.59,77.11,147.42,331.12,Single-ply,SBD,M
Boys,100,8,Austin Prevost,Malakoff,91.35,167.83,,158.76,326.59,Single-ply,SD,M
Boys,100,9,John Montano,Buffalo,94.89,122.47,74.84,106.59,303.91,Single-ply,SBD,M
Boys,100,10,Devorriay Anderson,Trinity,93.08,183.7,,,183.7,Single-ply,S,M
Boys,110,1,TJ Jones,Elkhart,107.68,231.33,136.08,222.26,589.67,Single-ply,SBD,M
Boys,110,2,Brandon Phillips,Trinity,109.77,213.19,138.35,181.44,532.97,Single-ply,SBD,M
Boys,110,3,Giovanny Garcia,Trinity,102.24,176.9,92.99,170.1,439.98,Single-ply,SBD,M
Boys,110,4,Cerdarian Davis,Grapeland,101.33,142.88,79.38,204.12,426.38,Single-ply,SBD,M
Boys,110,5,Joey Ingram,Cayuga,109.59,136.08,70.31,147.42,353.8,Single-ply,SBD,M
Boys,110,6,Deandre Fergeson,Mount Enterprise,104.69,83.91,65.77,97.52,247.21,Single-ply,SBD,M
Boys,125,1,Malik Benson,Palestine Westwood,123.01,272.16,145.15,233.6,650.91,Single-ply,SBD,M
Boys,125,2,Benito Rivas,Buffalo,122.02,226.8,151.95,215.46,594.21,Single-ply,SBD,M
Boys,125,3,Lincoln Rogers,Malakoff,114.94,172.37,111.13,170.1,453.59,Single-ply,SBD,M
Boys,125,4,Keevon Jackson,Palestine Westwood,120.11,185.97,97.52,170.1,453.59,Single-ply,SBD,M
Boys,125,5,Franco Rea,Grapeland,113.85,176.9,108.86,145.15,430.91,Single-ply,SBD,M
Boys,125,6,Jacob Barbosa,Grapeland,115.12,176.9,92.99,154.22,424.11,Single-ply,SBD,M
Boys,125+,1,Coby Wilbanks,Malakoff,147.69,238.14,140.61,176.9,555.65,Single-ply,SBD,M
Boys,125+,2,Joel Barbosa,Grapeland,130.73,222.26,117.93,183.7,523.9,Single-ply,SBD,M
Boys,125+,3,Tanner Keith,Grapeland,135.81,204.12,117.93,90.72,412.77,Single-ply,SBD,M
Boys,,DQ,Ethan Snow,Malakoff,,,,,,Single-ply,SBD,M
Boys,,DQ,Javonte Oliphant,Trinity,,,,,,Single-ply,SBD,M
Boys,,DQ,Aundrea Holmes,Trinity,,,,,,Single-ply,SBD,M
Boys,,DQ,Morrow Zach,Palestine Westwood,,,,,,Single-ply,SBD,M
Boys,,DQ,Cayden Barlow,Palestine Westwood,,,,,,Single-ply,SBD,M
Boys,,DQ,Clayton Carnes,Frankston,,,,,,Single-ply,SBD,M
Boys,,DQ,Kaleb Nichols,Mount Enterprise,,,,,,Single-ply,SBD,M
Boys,,DQ,Kyler Dalrymple,Malakoff,,,,,,Single-ply,SBD,M
