Place,Name,CyrillicName,BirthDay,Country,Tested,Event,Equipment,Sex,Division,BodyweightKg,WeightClassKg,Squat1Kg,Squat2Kg,Squat3Kg,Best3SquatKg,Squat4Kg,Bench1Kg,Bench2Kg,Bench3Kg,Best3BenchKg,Bench4Kg,Deadlift1Kg,Deadlift2Kg,Deadlift3Kg,Best3DeadliftKg,Deadlift4Kg,TotalKg
1,Natalya Konchakova,Наталья Кончакова,1977-08-14,Russia,Yes,SBD,Wraps,F,O,47.5,48,95,100,105,105,110,47.5,52.5,55,55,,115,125,132.5,132.5,,292.5
2,Lyubov Shestakova,Любовь Шестакова,1988-10-07,Russia,Yes,SBD,Wraps,F,O,47.8,48,75,-80,82.5,82.5,,47.5,52.5,-55,52.5,,-90,90,95,95,,230
1,Alena Berezina,Алена Березина,1995-05-12,Russia,Yes,SBD,Wraps,F,T3,51.7,52,-60,60,65,65,,-32.5,35,37.5,37.5,,-60,67.5,72.5,72.5,,175
1,Viktoriya Kurpatova,Виктория Курпатова,1992-11-15,Russia,Yes,SBD,Wraps,F,J,51.1,52,90,95,100,100,,47.5,52.5,57.5,57.5,,95,100,105,105,,262.5
2,Anna Galanova,Анна Галанова,1992-09-16,Russia,Yes,SBD,Wraps,F,J,51.1,52,70,-80,-80,70,,35,-45,-45,35,,82.5,87.5,95,95,,200
1,Tatyana Chechkina,Татьяна Чечкина,1986-07-26,Russia,Yes,SBD,Wraps,F,O,51.3,52,110,112.5,115,115,,62.5,-65,-65,62.5,,120,-127.5,127.5,127.5,140.5,305
2,Viktoriya Kurpatova,Виктория Курпатова,1992-11-15,Russia,Yes,SBD,Wraps,F,O,51.1,52,90,95,100,100,,47.5,52.5,57.5,57.5,,95,100,105,105,,262.5
DQ,Ekaterina Galochka,Екатерина Галочка,1987-01-05,Russia,Yes,SBD,Wraps,F,O,52,52,-85,-85,-85,,,,,,,,,,,,,
1,Mariya Shengerey,Мария Шенгерей,1995-11-24,Russia,Yes,SBD,Wraps,F,T2,55.2,56,62.5,67.5,-70,67.5,,30,35,-37.5,35,,-62.5,67.5,77.5,77.5,,180
1,Galina Tukal,Галина Тукаль,1989-06-19,Russia,Yes,SBD,Wraps,F,O,55.8,56,105,112.5,-115,112.5,,52.5,55,57.5,57.5,,130,135,143,143,145,312.5
2,Marina Nikitina,Марина Никитина,1976-07-02,Russia,Yes,SBD,Wraps,F,O,55.3,56,100,105,-110,105,,55,-60,-60,55,,115,120,-125,120,,280
3,Anastasiya Noskova,Анастасия Носкова,1984-02-14,Russia,Yes,SBD,Wraps,F,O,54.4,56,72.5,77.5,-82.5,77.5,,-50,50,55,55,,122.5,127.5,132.5,132.5,,265
4,Nadezhda Ponomareva,Надежда Пономарева,1987-02-07,Russia,Yes,SBD,Wraps,F,O,54.7,56,-60,60,70,70,,40,45,-47.5,45,,90,100,105,105,,220
DQ,Svetlana Stelmashenko,Светлана Стельмашенко,1985-06-16,Russia,Yes,SBD,Wraps,F,O,55.3,56,75,-85,-85,75,,-60,-65,-65,,,,,,,,
1,Elizaveta Shinkareva,Елизавета Шинкарева,1998-06-24,Russia,Yes,SBD,Wraps,F,T1,59.2,60,80,85,,85,,55,60,62.5,62.5,,90,100,105,105,,252.5
1,Alina Kufeld,Алина Куфельд,1991-04-10,Russia,Yes,SBD,Wraps,F,J,60,60,90,-95,95,95,,50,55,-57.5,55,,90,95,100,100,,250
1,Anastasiya Polunina,Анастасия Полунина,1986-07-06,Russia,Yes,SBD,Wraps,F,O,58.9,60,70,-77.5,-77.5,70,,-37.5,37.5,-40,37.5,,67.5,72.5,80,80,,187.5
1,Svetlana Kufeld,Светлана Куфельд,1968-05-06,Russia,Yes,SBD,Wraps,F,M2,57.8,60,70,-75,-75,70,,45,-50,-50,45,,-85,85,90,90,,205
1,Otgontuya Gongor,,1991-01-09,Mongolia,Yes,SBD,Wraps,F,J,63.4,67.5,110,120,130,130,,-75,-80,80,80,,120,,,120,,330
1,Otgontuya Gongor,,1991-01-09,Mongolia,Yes,SBD,Wraps,F,O,63.4,67.5,110,120,130,130,,-75,-80,80,80,,120,,,120,,330
2,Oksana Chudnaya,Оксана Чудная,1977-05-30,Russia,Yes,SBD,Wraps,F,O,66.5,67.5,110,-115,-115,110,,55,-60,60,60,,100,-115,,100,,270
3,Larisa Krikun,Лариса Крикун,1974-10-13,Russia,Yes,SBD,Wraps,F,O,64.5,67.5,70,75,-80,75,,50,55,-57.5,55,,90,100,110,110,,240
1,Ekaterina Myasnikova,Екатерина Мясникова,1986-06-28,Russia,Yes,SBD,Wraps,F,O,73.5,75,-120,120,130,130,,70,80,-85,80,,165,180,190,190,,400
2,Ichinnorov Darkhanbaatar,,1989-04-14,Mongolia,Yes,SBD,Wraps,F,O,73.9,75,120,135,145,145,,90,-97.5,97.5,97.5,,130,145,152.5,152.5,,395
3,Elena Zherdeva,Елена Жердева,1982-04-14,Russia,Yes,SBD,Wraps,F,O,72.5,75,-100,-100,110,110,,50,60,67.5,67.5,,120,142.5,-147.5,142.5,,320
4,Olga Pyzhyanova,Ольга Пыжьянова,1989-03-09,Russia,Yes,SBD,Wraps,F,O,74.5,75,90,95,105,105,,60,-67.5,67.5,67.5,,100,110,-115,110,,282.5
1,Denis Sharapov,Денис Шарапов,1998-01-21,Russia,Yes,SBD,Wraps,M,T1,51.6,52,90,-100,-100,90,,60,65,70,70,,130,-140,-140,130,,290
2,Rufat Niyazov,Руфат Ниязов,1998-11-06,Russia,Yes,SBD,Wraps,M,T1,50.8,52,90,100,-105,100,,45,50,55,55,,130,-140,-140,130,,285
3,Andrey Khruslov,Андрей Хруслов,2001-07-14,Russia,Yes,SBD,Wraps,M,T1,43.1,52,-75,-75,75,75,,37.5,40,-42.5,40,,90,95,-100,95,,210
4,Dmitriy Abdulin,Дмитрий Абдулин,1999-11-24,Russia,Yes,SBD,Wraps,M,T1,40.3,52,40,45,47.5,47.5,,32.5,35,37.5,37.5,,70,75,80,80,,165
1,Aleksandr Lomachenko,Александр Ломаченко,1995-04-08,Russia,Yes,SBD,Wraps,M,T3,55.2,56,105,110,-115,110,,-90,90,-95,90,,110,120,130,130,,330
1,Andrey Chuchalin,Андрей Чучалин,1997-09-18,Russia,Yes,SBD,Wraps,M,T1,60,60,90,100,107.5,107.5,,75,80,85,85,,130,140,150,150,,342.5
1,Battamir Batzaan,,1995-11-28,Mongolia,Yes,SBD,Wraps,M,T2,58.1,60,90,105,120,120,,60,70,75,75,,140,152.5,165,165,,360
2,Daniil Goltyapov,Даниил Гольтяпов,1996-03-12,Russia,Yes,SBD,Wraps,M,T2,57.8,60,80,92.5,-100,92.5,,-70,-70,70,70,,100,-115,115,115,,277.5
1,Vasiliy Sashchenko,Василий Сащенко,1994-08-18,Russia,Yes,SBD,Wraps,M,T3,60,60,100,-115,-117.5,100,,-70,75,-82.5,75,,110,120,-135,120,,295
1,Battamir Batzaan,,1995-11-28,Mongolia,Yes,SBD,Wraps,M,O,58.1,60,90,105,120,120,,60,70,75,75,,140,152.5,165,165,,360
1,Pavel Krivda,Павел Кривда,1998-06-24,Russia,Yes,SBD,Wraps,M,T1,63.1,67.5,85,90,95,95,,67.5,72.5,-75,72.5,,125,135,142.5,142.5,,310
1,Barsbold Tunsee,,1995-08-24,Mongolia,Yes,SBD,Wraps,M,T2,66.2,67.5,90,100,117.5,117.5,,90,-100,,90,,150,170,180,180,,387.5
2,Evgeniy Romanov,Евгений Романов,1997-08-04,Russia,Yes,SBD,Wraps,M,T2,65,67.5,75,85,90,90,,65,67.5,-70,67.5,,135,147.5,150,150,,307.5
3,Roman Rogozhkin,Роман Рогожкин,1997-01-09,Russia,Yes,SBD,Wraps,M,T2,65,67.5,85,90,100,100,,70,80,-82.5,80,,110,120,-137.5,120,,300
1,Amarbat Batmagnay,,1990-05-22,Mongolia,Yes,SBD,Wraps,M,J,67.4,67.5,165,180,-195,180,,120,130,135,135,,220,-230,230,230,,545
1,Aleksey Samoylov,Алексей Самойлов,1982-05-25,Russia,Yes,SBD,Wraps,M,O,66.8,67.5,150,160,165,165,,120,125,130,130,,210,220,225,225,,520
1,Dmitriy Mkrtchan,Дмитрий Мкртчан,1998-05-08,Russia,Yes,SBD,Wraps,M,T1,72.9,75,75,85,90,90,,50,57.5,-62.5,57.5,,95,105,-110,105,,252.5
1,Aleksey Nikitenko,Алексей Никитенко,1996-08-13,Russia,Yes,SBD,Wraps,M,T2,74,75,160,170,-175,170,,95,102.5,107.5,107.5,,170,180,190,190,,467.5
2,Artur Zaykov,Артур Зайков,1996-02-28,Russia,Yes,SBD,Wraps,M,T2,74.2,75,130,140,145,145,,85,92.5,97.5,97.5,,170,-177.5,-177.5,170,,412.5
3,Denis Dementev,Денис Дементьев,1996-06-03,Russia,Yes,SBD,Wraps,M,T2,73.5,75,110,120,-130,120,,-80,80,90,90,,160,170,180,180,,390
4,Igor Makushev,Игорь Макушев,1997-02-21,Russia,Yes,SBD,Wraps,M,T2,70.2,75,-90,90,-97.5,90,,75,80,85,85,,120,132.5,145,145,,320
5,Andrey Romanov,Андрей Романов,1995-08-26,Russia,Yes,SBD,Wraps,M,T2,68.1,75,77.5,82.5,-90,82.5,,65,72.5,75,75,,130,135,140,140,,297.5
DQ,Yaroslav Gusev,Ярослав Гусев,1995-11-25,Russia,Yes,SBD,Wraps,M,T2,68.5,75,100,110,-120,110,,-80,-85,-85,,,145,155,160,160,,
1,Dmitriy Kolikov,Дмитрий Коликов,1993-10-26,Russia,Yes,SBD,Wraps,M,T3,74.3,75,160,-170,-170,160,,105,112.5,117.5,117.5,,175,190,202.5,202.5,,480
2,Maksim Garipov,Максим Гарипов,1994-05-07,Russia,Yes,SBD,Wraps,M,T3,74,75,145,155,-170,155,,95,-100,-100,95,,165,175,-182.5,175,,425
3,Maksim Kandakov,Максим Кандаков,1994-04-22,Russia,Yes,SBD,Wraps,M,T3,72,75,150,160,170,170,,90,95,102.5,102.5,,135,150,-165,150,,422.5
1,Artem Golubin,Артем Голубин,1990-06-25,Russia,Yes,SBD,Wraps,M,J,71.1,75,120,140,-150,140,,105,110,115,115,,170,185,200,200,,455
1,Kostas Telidis,Костас Телидис,1989-04-18,Russia,Yes,SBD,Wraps,M,O,74,75,180,190,200,200,,140,145,150,150,155.5,202.5,220,227.5,227.5,,577.5
2,Georgiy Vershinin,Георгий Вершинин,1988-12-23,Russia,Yes,SBD,Wraps,M,O,74.8,75,180,200,210,210,,-135,135,142.5,142.5,,205,220,-227.5,220,,572.5
3,Sergey Stakheev,Сергей Стахеев,1984-11-22,Russia,Yes,SBD,Wraps,M,O,75,75,145,150,-155,150,,140,145,147.5,147.5,,190,-195,-195,190,,487.5
4,Dmitriy Kolikov,Дмитрий Коликов,1993-10-26,Russia,Yes,SBD,Wraps,M,O,74.3,75,160,-170,-170,160,,105,112.5,117.5,117.5,,175,190,202.5,202.5,,480
DQ,Aleksandr Karagaev,Александр Карагаев,1988-03-17,Russia,Yes,SBD,Wraps,M,O,74.6,75,-175,-185,-185,,,,,,,,,,,,,
1,Sergey Karas,Сергій Карась,1973-07-19,Russia,Yes,SBD,Wraps,M,M1,74.5,75,150,-155,-155,150,,90,95,100,100,,160,165,172.5,172.5,,422.5
1,Namkhaydorzh Dash,,1952-03-03,Mongolia,Yes,SBD,Wraps,M,M5,72.3,75,140,165,175,175,,80,90,100,100,,170,180,,180,,455
2,Valeriy Khomenko,Валерий Хоменко,1951-09-03,Russia,Yes,SBD,Wraps,M,M5,74.4,75,135,140,145,145,,80,85,-90,85,,180,195,202.5,202.5,,432.5
3,Nikolay Zakharov,Николай Захаров,1951-12-21,Russia,Yes,SBD,Wraps,M,M5,71.1,75,115,125,-130,125,,60,65,-67.5,65,,150,160,165,165,,355
1,Tsegmed Byambaa,,1940-05-09,Mongolia,Yes,SBD,Wraps,M,M7,73.7,75,140,150,,150,,70,82.5,-90,82.5,,150,160,,160,,392.5
1,Grigoriy Romanov,Григорий Романов,1997-10-06,Russia,Yes,SBD,Wraps,M,T1,82,82.5,115,125,-130,125,,80,-87.5,,80,,-140,140,-152.5,140,,345
1,Vladislav Simonov,Владислав Симонов,1996-06-07,Russia,Yes,SBD,Wraps,M,T2,79,82.5,130,-140,-140,130,,110,120,-122.5,120,,180,-200,-200,180,,430
2,Vladislav Romanov,Владислав Романов,1996-09-23,Russia,Yes,SBD,Wraps,M,T2,80,82.5,120,130,137.5,137.5,,97.5,105,-110,105,,145,155,162.5,162.5,,405
1,Egor Zhdanov,Егор Жданов,1994-08-27,Russia,Yes,SBD,Wraps,M,T3,79.8,82.5,-150,-150,150,150,,110,-117.5,-117.5,110,,-170,170,-180,170,,430
1,Aleksandr Shchelkov,Александр Щелков,1989-11-05,Russia,Yes,SBD,Wraps,M,J,78.4,82.5,180,190,-195,190,,130,137.5,145,145,,180,195,212.5,212.5,,547.5
2,Roman Borisov,Роман Борисов,1990-11-23,Russia,Yes,SBD,Wraps,M,J,80.2,82.5,135,142.5,-147.5,142.5,,100,107.5,-112.5,107.5,,150,160,165,165,,415
1,Aleksandr Shchelkov,Александр Щелков,1989-11-05,Russia,Yes,SBD,Wraps,M,O,78.4,82.5,180,190,-195,190,,130,137.5,145,145,,180,195,212.5,212.5,,547.5
2,Akmal Matkarimov,,1987-04-21,Kazakhstan,Yes,SBD,Wraps,M,O,82,82.5,180,-195,-195,180,,120,127.5,132.5,132.5,,225,235,-240,235,,547.5
3,Aleksey Vinyukov,Алексей Винюков,1973-03-10,Russia,Yes,SBD,Wraps,M,O,80.5,82.5,180,-190,190,190,,130,135,137.5,137.5,,200,210,215,215,,542.5
4,Maksim Ivakin,Максим Ивакин,1985-10-06,Russia,Yes,SBD,Wraps,M,O,82.1,82.5,150,160,170,170,,110,120,-130,120,,190,205,,205,,495
5,Andrey Timonov,Андрей Тимонов,1979-06-19,Russia,Yes,SBD,Wraps,M,O,81.7,82.5,150,160,-170,160,,-95,100,105,105,,160,-175,-175,160,,425
6,Yan Maul,Ян Мауль,1988-12-03,Russia,Yes,SBD,Wraps,M,O,77.9,82.5,125,135,150,150,,90,-95,-95,90,,150,-160,160,160,,400
7,Denis Sinitsyn,Денис Синицын,1976-01-07,Russia,Yes,SBD,Wraps,M,O,80.6,82.5,130,135,140,140,,100,105,-107.5,105,,150,-160,-160,150,,395
1,Maamchullun Tseveendorzh,,1946-06-08,Mongolia,Yes,SBD,Wraps,M,M6,80.5,82.5,-160,160,,160,,100,110,115,115,,160,170,180,180,,455
1,Aleksey Luzhanskiy,Алексей Лужанский,1995-10-05,Russia,Yes,SBD,Wraps,M,T2,87.4,90,-160,165,-180,165,,130,137.5,-142.5,137.5,,160,170,175,175,,477.5
1,Nikita Sekret,Никита Секрет,1989-09-04,Russia,Yes,SBD,Wraps,M,J,88.7,90,-140,140,-155,140,,115,-120,-120,115,,150,160,167.5,167.5,,422.5
1,Aleksandr Nikitin,Александр Никитин,1973-09-15,Russia,Yes,SBD,Wraps,M,O,88.7,90,185,190,195,195,,140,147.5,152.5,152.5,,215,222.5,230,230,,577.5
2,Gennadiy Pokshevatov,Геннадий Покшеватов,1959-04-17,Russia,Yes,SBD,Wraps,M,O,89.6,90,210,220,-230,220,,120,130,135,135,,200,215,222.5,222.5,,577.5
3,Zhargalsaykhan Sosorbaram,,1970-03-01,Mongolia,Yes,SBD,Wraps,M,O,89.3,90,160,170,-175,170,,132.5,-140,,132.5,,170,-185,,170,,472.5
1,Evgeniy Svoboda,Евгений Свобода,1972-03-23,Russia,Yes,SBD,Wraps,M,M1,88.1,90,-160,160,170,170,,130,140,145,145,,170,200,210,210,,525
2,Zhargalsaykhan Sosorbaram,,1970-03-01,Mongolia,Yes,SBD,Wraps,M,M1,89.3,90,160,170,-175,170,,132.5,-140,,132.5,,170,-185,,170,,472.5
1,Andrey Sobolev,Андрей Соболев,1968-01-11,Russia,Yes,SBD,Wraps,M,M2,85.3,90,-140,140,,140,,100,-110,110,110,,150,160,,160,,410
1,Gennadiy Pokshevatov,Геннадий Покшеватов,1959-04-17,Russia,Yes,SBD,Wraps,M,M3,89.6,90,210,220,-230,220,,120,130,135,135,,200,215,222.5,222.5,,577.5
1,Aleksandr Bobrovskiy,Александр Бобровский,1997-03-03,Russia,Yes,SBD,Wraps,M,T2,99.8,100,100,110,125,125,,70,80,-90,80,,125,135,155,155,,360
1,Dmitriy Sekushenko,Дмитрий Секушенко,1990-07-26,Russia,Yes,SBD,Wraps,M,J,93,100,220,235,240,240,,135,145,150,150,,220,240,-250,240,,630
2,Aleksey Bokarev,Алексей Бокарев,1991-09-10,Russia,Yes,SBD,Wraps,M,J,96.6,100,155,165,,165,,125,132.5,-140,132.5,,190,202.5,215,215,,512.5
3,Nikolay Tolokonnikov,Николай Толоконников,1991-11-02,Russia,Yes,SBD,Wraps,M,J,97.8,100,100,120,-150,120,,102.5,110,115,115,,160,180,200,200,,435
1,Andrey Andriychuk,Андрей Андрийчук,1978-10-18,Russia,Yes,SBD,Wraps,M,O,98.7,100,210,220,-230,220,,140,152.5,-160,152.5,,230,245,260,260,,632.5
2,Dmitriy Sekushenko,Дмитрий Секушенко,1990-07-26,Russia,Yes,SBD,Wraps,M,O,93,100,220,235,240,240,,135,145,150,150,,220,240,-250,240,,630
3,Aleksandr Pushkarev,Александр Пушкарев,1987-07-22,Russia,Yes,SBD,Wraps,M,O,97.8,100,-170,170,220,220,,135,145,150,150,,180,225,230,230,,600
4,Nikolay Piskunov,Николай Пискунов,1989-02-24,Russia,Yes,SBD,Wraps,M,O,99.7,100,210,-220,-220,210,,150,160,-170,160,,-230,230,-250,230,,600
5,Konstantin Panchenko,,1980-05-30,Russia,Yes,SBD,Wraps,M,O,99.3,100,190,200,210,210,,140,-145,145,145,,220,235,-245,235,,590
6,Sukh-Ochir Yura,,1970-01-19,Mongolia,Yes,SBD,Wraps,M,O,96.8,100,175,195,210,210,,100,110,120,120,,200,220,235,235,,565
7,Andrey Soshenko,Андрей Сошенко,1988-04-27,Russia,Yes,SBD,Wraps,M,O,99.9,100,170,180,-190,180,,-140,140,-155,140,,210,230,240,240,,560
1,Sukh-Ochir Yura,,1970-01-19,Mongolia,Yes,SBD,Wraps,M,M1,96.8,100,175,195,210,210,,100,110,120,120,,200,220,235,235,,565
2,Igor Andreev,Игорь Андреев,1971-04-26,Russia,Yes,SBD,Wraps,M,M1,91,100,90,100,110,110,,110,120,132.5,132.5,,90,110,125,125,,367.5
1,Aleksandr Pastushenko,Александр Пастушенко,1966-10-30,Russia,Yes,SBD,Wraps,M,M2,95.4,100,180,185,190,190,,175,182.5,-187.5,182.5,,165,175,,175,,547.5
1,Ilya Gusev,Илья Гусев,1982-04-28,Russia,Yes,SBD,Wraps,M,O,103.8,110,220,-225,-225,220,,-155,155,160,160,,210,215,222.5,222.5,,602.5
2,Yuriy Zherebtsov,Юрий Жеребцов,1974-04-06,Russia,Yes,SBD,Wraps,M,O,108.5,110,-170,170,180,180,,135,147.5,155,155,,200,240,250,250,,585
1,Oleg Zherdev,Олег Жердев,1970-05-12,Russia,Yes,SBD,Wraps,M,M1,105.8,110,190,210,220,220,,150,160,170,170,,210,230,-245,230,,620
2,Svyatoslav Kotik,Святослав Котик,1972-01-14,Russia,Yes,SBD,Wraps,M,M1,108.9,110,200,-210,-210,200,,150,-155,-155,150,,200,227.5,-235,227.5,,577.5
3,Mikhail Batukov,Михаил Батуков,1972-09-10,Russia,Yes,SBD,Wraps,M,M1,102.9,110,190,205,215,215,,130,135,-140,135,,210,220,225,225,,575
1,Sergey Karelin,Сергей Карелин,1959-08-09,Russia,Yes,SBD,Wraps,M,M3,100.6,110,150,160,170,170,,100,110,115,115,,180,190,200,200,,485
1,Yuriy Zakharov,,1972-08-09,Kazakhstan,Yes,SBD,Wraps,M,O,123,125,-260,260,270,270,,170,185,192.5,192.5,,250,270,280,280,,742.5
1,Yuriy Zakharov,,1972-08-09,Kazakhstan,Yes,SBD,Wraps,M,M1,123,125,-260,260,270,270,,170,185,192.5,192.5,,250,270,280,280,,742.5
2,Oleg Shevchuk,Олег Шевчук,1970-07-23,Russia,Yes,SBD,Wraps,M,M1,122.7,125,180,190,200,200,,-140,140,145,145,,200,-215,-215,200,,545
1,Pavel Filatov,Павел Филатов,1984-01-20,Russia,Yes,SBD,Wraps,M,O,139.5,125+,230,242.5,-247.5,242.5,,160,-172.5,-172.5,160,,230,250,260,260,,662.5
2,Mikhail Kagala,Михаил Кагала,1973-11-25,Russia,Yes,SBD,Wraps,M,O,133.1,125+,200,215,-230,215,,130,140,145,145,,215,220,230,230,,590
1,Kseniya Kiryanova,Ксения Кирьянова,1985-03-25,Russia,Yes,SBD,Single-ply,F,O,54.6,56,150,160,167.5,167.5,,85,-90,-90,85,,155,165,172.5,172.5,,425
1,Irina Artsebasheva,Ирина Арцебашева,1972-11-14,Russia,Yes,SBD,Single-ply,F,M1,53.6,56,105,112.5,,112.5,,55,60,,60,,-105,115,117.5,117.5,,290
1,Otgontuya Gongor,,1991-01-09,Mongolia,Yes,SBD,Single-ply,F,J,63.4,67.5,-180,180,195,195,,100,-110,-110,100,,180,-195,195,195,,490
DQ,Mariya Zaigraeva,Мария Заиграева,1976-06-27,Russia,Yes,SBD,Single-ply,F,O,67,67.5,-170,-170,-170,,,,,,,,,,,,,
1,Ichinnorov Darkhanbaatar,,1989-04-14,Mongolia,Yes,SBD,Single-ply,F,O,73.9,75,-200,200,215,215,,-130,130,140,140,,160,-180,,160,,515
1,Aleksandr Ryzhov,Александр Рыжов,1993-09-19,Russia,Yes,SBD,Single-ply,M,T3,52.7,56,150,160,170,170,,105,115,-120,115,,155,-170,-170,155,,440
1,Sergey Danilin,Сергей Данилин,1988-01-13,Russia,Yes,SBD,Single-ply,M,O,55.4,56,160,-170,-170,160,,90,-100,100,100,,-140,140,-180,140,,400
DQ,Battamir Batzaan,,1995-11-28,Mongolia,Yes,SBD,Single-ply,M,T2,58.1,60,-150,,,,,,,,,,,,,,,
1,Aleksey Kislukhin,Алексей Кислухин,1992-08-17,Russia,Yes,SBD,Single-ply,M,J,60,60,-160,160,-170,160,,100,110,115,115,,160,170,180,180,,455
1,Barsbold Tunsee,,1995-06-24,Mongolia,Yes,SBD,Single-ply,M,T3,66.2,67.5,-160,-160,160,160,,110,117.5,-125,117.5,,170,185,-200,185,,462.5
1,Amarbat Batmagnay,,1990-05-22,Mongolia,Yes,SBD,Single-ply,M,J,67.4,67.5,240,-250,-250,240,,140,150,-165,150,,245,-250,-250,245,,635
2,Bayarbaatar Batgerel,,1991-10-01,Mongolia,Yes,SBD,Single-ply,M,J,66.7,67.5,200,215,230,230,,-160,-170,170,170,,180,190,-195,190,,590
3,Ayurbold Gansukh,,1991-08-27,Mongolia,Yes,SBD,Single-ply,M,J,64.1,67.5,220,-240,-240,220,,-150,150,-160,150,,205,210,-220,210,,580
4,Nikita Kobzar,Никита Кобзарь,1992-07-13,Russia,Yes,SBD,Single-ply,M,J,67.5,67.5,200,-210,-220,200,,125,135,-140,135,,190,210,-220,210,,545
5,Maksim Zelenin,Максим Зеленин,1992-11-22,Russia,Yes,SBD,Single-ply,M,J,67.5,67.5,175,190,-197.5,190,,140,-150,150,150,,160,-185,-185,160,,500
1,Elchin Khalilov,Эльчин Халилов,1996-09-30,Russia,Yes,SBD,Single-ply,M,T2,71,75,165,175,185,185,,105,115,-120,115,,165,175,-185,175,,475
1,Bermurat Avdalkhamid,,1992-01-01,Mongolia,Yes,SBD,Single-ply,M,J,73.9,75,250,265,275,275,,-150,150,-160,150,,230,240,250,250,,675
2,Andrey Ponikarovskiy,Андрей Поникаровский,1990-08-23,Russia,Yes,SBD,Single-ply,M,J,75,75,200,212.5,217.5,217.5,,135,145,147.5,147.5,,205,215,230,230,,595
1,Kostas Telidis,Костас Телидис,1989-04-18,Russia,Yes,SBD,Single-ply,M,O,74,75,235,245,-255,245,,180,190,197.5,197.5,,215,230,-240,230,,672.5
1,Namkhaydorm Dash,,1952-03-03,Mongolia,Yes,SBD,Single-ply,M,M5,72.3,75,190,200,-210,200,,90,100,-110,100,,180,190,,190,,490
1,Tsegmed Byambaa,,1940-05-09,Mongolia,Yes,SBD,Single-ply,M,M7,73.7,75,-170,-170,170,170,200,70,80,90,90,,150,170,,170,,430
1,Roman Raspopin,Роман Распопин,1996-03-15,Russia,Yes,SBD,Single-ply,M,T2,82.4,82.5,280,300,310,310,,145,160,-162.5,160,,230,265,280,280,,750
1,Vadim Dityatin,Вадим Дитятин,1995-07-11,Russia,Yes,SBD,Single-ply,M,T3,79.9,82.5,180,-195,-195,180,,-120,120,-137.5,120,,185,195,-200,195,,495
1,Andrey Tuzov,Андрей Тузов,1991-02-24,Russia,Yes,SBD,Single-ply,M,J,81.9,82.5,225,245,-255,245,,140,150,-152.5,150,,180,-205,-205,180,,575
1,Sergey Vorm,Сергей Ворм,1984-08-20,Russia,Yes,SBD,Single-ply,M,O,80.6,82.5,250,260,,260,,140,150,160,160,,-205,-215,225,225,,645
2,Anton Kornev,Антон Корнев,1989-04-24,Russia,Yes,SBD,Single-ply,M,O,82.5,82.5,230,245,260,260,,140,150,-162.5,150,,200,220,-240,220,,630
3,Dmitriy Kashavtsev,Дмитрий Кашавцев,1981-06-04,Russia,Yes,SBD,Single-ply,M,O,81.7,82.5,200,-215,,200,,150,160,162.5,162.5,,180,-190,,180,,542.5
DQ,Andrey Marmoza,Андрей Мармоза,1959-12-12,Russia,Yes,SBD,Single-ply,M,M3,79.8,82.5,-240,-240,-240,,,,,,,,,,,,,
1,Maamchuluun Tseveendozh,,1946-06-08,Mongolia,Yes,SBD,Single-ply,M,M6,80.5,82.5,180,200,-210,200,,-120,120,130,130,,180,200,,200,,530
1,Andrey Pinikinshteyn,Андрей Пиникинштейн,1992-05-12,Russia,Yes,SBD,Single-ply,M,J,87.9,90,250,260,270,270,,170,-180,180,180,,220,240,-260,240,,690
1,Artem Bykhovets,Артем Быховец,1983-07-19,Russia,Yes,SBD,Single-ply,M,O,89.8,90,277.5,290,300,300,,190,203,210,210,,230,257.5,272.5,272.5,290,782.5
2,Grigoriy Kostenko,Григорий Костенко,1986-07-04,Russia,Yes,SBD,Single-ply,M,O,88.9,90,290,300,-305,300,,150,-160,160,160,,230,240,250,250,,710
3,Evgeniy Svoboda,Евгений Свобода,1972-03-23,Russia,Yes,SBD,Single-ply,M,O,88.1,90,225,245,-255,245,,160,172.5,177.5,177.5,,205,230,,230,,652.5
1,Evgeniy Svoboda,Евгений Свобода,1972-03-23,Russia,Yes,SBD,Single-ply,M,M1,88.1,90,225,245,-255,245,,160,172.5,177.5,177.5,,205,230,,230,,652.5
1,Mikhail Levchenko #1,Михаил Левченко,1960-07-03,Russia,Yes,SBD,Single-ply,M,M3,88,90,180,200,,200,,135,145,,145,,180,-200,,180,,525
1,Dmitriy Bespalov,,1995-11-24,Kazakhstan,Yes,SBD,Single-ply,M,T2,96.9,100,-250,250,260,260,,-145,145,152.5,152.5,,250,265,-270,265,,677.5
1,Daniil Fomenko,Даниил Фоменко,1992-01-30,Russia,Yes,SBD,Single-ply,M,J,99.8,100,300,325,-330,325,,190,-200,-210,190,,260,280,-300,280,,795
1,Daniil Fomenko,Даниил Фоменко,1992-01-30,Russia,Yes,SBD,Single-ply,M,O,99.8,100,300,325,-330,325,,190,-200,-210,190,,260,280,-300,280,,795
DQ,Khatbaatar Buyandalay,,1990-01-06,Mongolia,Yes,SBD,Single-ply,M,J,104.6,110,250,-265,,250,,-170,-170,-170,,,-210,-210,210,210,,
1,Vladimir Polivanov,Владимир Поливанов,1963-01-20,Russia,Yes,SBD,Single-ply,M,O,116.5,125,225,240,,240,,190,200,205,205,,260,280,-290,280,,725
1,Vladimir Polivanov,Владимир Поливанов,1963-01-20,Russia,Yes,SBD,Single-ply,M,M3,116.5,125,225,240,,240,,190,200,205,205,,260,280,-290,280,,725
1,Dinara Shreyter,Динара Шрейтер,2002-10-08,Russia,No,SBD,Wraps,F,T1,26.8,44,37.5,42.5,,42.5,,25,-30,30,30,,52.5,57.5,60,60,,132.5
1,Snezhana Aksarova,Снежана Аксарова,1993-09-06,Russia,No,SBD,Wraps,F,T3,42.4,44,52.5,57.5,62.5,62.5,,40,-45,45,45,,70,75,80,80,,187.5
1,Yuliya Sergeeva,Юлия Сергеева,1995-06-05,Russia,No,SBD,Wraps,F,T3,51.4,52,100,105,110,110,,60,65,67.5,67.5,,145,150,155,155,,332.5
1,Yuliya Sergeeva,Юлия Сергеева,1995-06-05,Russia,No,SBD,Wraps,F,O,51.4,52,100,105,110,110,,60,65,67.5,67.5,,145,150,155,155,,332.5
1,Daniya Tukhvatulina,Дания Тухватулина,1996-04-19,Russia,No,SBD,Wraps,F,T2,58,60,75,-85,-85,75,,57.5,-60,60,60,,105,110,115,115,,250
1,Olesya Plikus,Олеся Пликус,1982-04-07,Russia,No,SBD,Wraps,F,O,59.1,60,100,-110,-110,100,,60,65,70,70,,120,130,-140,130,,300
2,Daniya Tukhvatulina,Дания Тухватулина,1996-04-19,Russia,No,SBD,Wraps,F,O,58,60,75,-85,-85,75,,57.5,-60,60,60,,105,110,115,115,,250
1,Irina Denisova,Ирина Денисова,1990-02-10,Russia,No,SBD,Wraps,F,J,67,67.5,110,120,-125,120,,55,60,65,65,,130,140,150,150,,335
1,Ekaterina Koshkareva,Екатерина Кошкарева,1991-08-22,Russia,No,SBD,Wraps,F,J,68,75,90,97.5,-102.5,97.5,,45,50,-55,50,,120,127.5,-132.5,127.5,,275
1,Anna Chubarova,Анна Чубарова,1988-02-03,Russia,No,SBD,Wraps,F,O,72,75,145,-155,155,155,,85,92.5,95,95,,160,170,182.5,182.5,,432.5
1,Daniil Sherbatykh,Даниил Шербатых,1998-03-25,Russia,No,SBD,Wraps,M,T1,67.5,67.5,80,92.5,-95,92.5,,45,50,-55,50,,100,110,-115,110,,252.5
1,Eduard Kichigin,Эдуард Кичигин,1991-01-29,Russia,No,SBD,Wraps,M,J,67.5,67.5,190,200,207.5,207.5,,122.5,127.5,132.5,132.5,,190,205,-215,205,,545
1,Vladimir Sviderskiy,Владимир Свидерский,1951-05-07,Russia,No,SBD,Wraps,M,M5,66.3,67.5,130,135,138,138,140,82.5,90,-93,90,,140,147.5,151,151,,379
1,Pavel Gridchin,Павел Гридчин,1993-01-03,Russia,No,SBD,Wraps,M,J,73.8,75,210,-220,220,220,,135,140,142.5,142.5,,205,215,-230,215,,577.5
2,Pavel Fedorov,Павел Федоров,1990-12-15,Russia,No,SBD,Wraps,M,J,73.3,75,170,180,-187.5,180,,147.5,-157.5,-157.5,147.5,,195,200,-207.5,200,,527.5
1,Pavel Gridchin,Павел Гридчин,1993-01-03,Russia,No,SBD,Wraps,M,O,73.8,75,210,-220,220,220,,135,140,142.5,142.5,,205,215,-230,215,,577.5
2,Artem Onokhin,Артем Онохин,1987-09-28,Russia,No,SBD,Wraps,M,O,75,75,170,190,-205,190,,130,-140,140,140,,180,195,-207.5,195,,525
3,Evgeniy Lonchakov,Евгений Лончаков,1986-02-05,Russia,No,SBD,Wraps,M,O,70.8,75,160,-180,180,180,,120,130,-140,130,,160,180,190,190,,500
4,Aleksey Polubatonov,Алексей Полубатонов,1987-07-16,Russia,No,SBD,Wraps,M,O,74.6,75,150,157.5,165,165,,115,120,-125,120,,185,192.5,197.5,197.5,,482.5
5,Sergey Filippov,Сергей Филиппов,1978-09-27,Russia,No,SBD,Wraps,M,O,75,75,115,-125,-130,115,,85,95,97.5,97.5,,130,150,170,170,,382.5
1,Oleg Solonenko,Олег Солоненко,1970-09-26,Russia,No,SBD,Wraps,M,M1,71.8,75,140,-150,150,150,,100,110,-120,110,,145,160,175,175,,435
1,Aleksandr Kornachev,Александр Корначев,1958-08-10,Russia,No,SBD,Wraps,M,M4,75,75,-80,80,120,120,,-100,110,-115,110,,160,175,-180,175,,405
1,Gennadiy Chuldenko,Геннадий Чульденко,1948-07-04,Russia,No,SBD,Wraps,M,M6,75,75,160,170,180,180,,50,55,,55,,180,200,,200,,435
1,Denis Sergeev,Денис Сергеев,1991-07-27,Russia,No,SBD,Wraps,M,J,82.5,82.5,170,180,192.5,192.5,,130,140,147.5,147.5,,210,222.5,232.5,232.5,,572.5
2,Vladimir Shumilov,Владимир Шумилов,1992-08-01,Russia,No,SBD,Wraps,M,J,82.5,82.5,170,180,190,190,,135,142.5,147.5,147.5,,215,225,230,230,,567.5
1,Aleksey Tolstykh,Алексей Толстых,1988-03-11,Russia,No,SBD,Wraps,M,O,79.5,82.5,225,235,240,240,,145,155,162.5,162.5,,215,225,235,235,,637.5
2,Aleksandr Kuchin,Александр Кучин,1987-07-10,Russia,No,SBD,Wraps,M,O,82.5,82.5,205,215,-220,215,,140,147.5,-150,147.5,,220,240,-252.5,240,,602.5
3,Gankhuyag Erdenee,,1969-12-09,Mongolia,No,SBD,Wraps,M,O,81.9,82.5,175,190,205,205,,145,155,165,165,,190,210,-235,210,,580
1,Gankhuyag Erdenee,,1969-12-09,Mongolia,No,SBD,Wraps,M,M1,81.9,82.5,175,190,205,205,,145,155,165,165,,190,210,-235,210,,580
1,Vladimir Galkin,Владимир Галкин,1990-07-13,Russia,No,SBD,Wraps,M,J,89,90,240,-257.5,-257.5,240,,145,155,-160,155,,250,265,-270,265,,660
2,Vladimir Nikolaev,Владимир Николаев,1990-03-18,Russia,No,SBD,Wraps,M,J,86.9,90,220,230,-235,230,,145,150,155,155,,240,-250,,240,,625
1,Delger-Khishig Banzragch,,1971-08-19,Mongolia,No,SBD,Wraps,M,O,89.3,90,210,220,235,235,,130,-145,-145,130,,235,245,-255,245,,610
2,Vladimir Sadreev,Владимир Садреев,1969-01-29,Russia,No,SBD,Wraps,M,O,85.6,90,190,200,-210,200,,135,140,145,145,,200,-210,-210,200,,545
DQ,Aleksandr Savin,Александр Савин,1986-06-01,Russia,No,SBD,Wraps,M,O,90,90,200,-207.5,-207.5,200,,175,-180,-180,175,,-220,-220,-220,,,
DQ,Denis Bertenev,Денис Бертенев,1987-10-10,Russia,No,SBD,Wraps,M,O,89.8,90,160,180,190,190,,-130,150,-155,150,,-200,-200,-245,,,
DQ,Anton Shkvarovskiy,Антон Шкваровский,1988-02-22,Russia,No,SBD,Wraps,M,O,86.3,90,-170,170,-180,170,,-135,-140,-140,,,,,,,,
1,Vladimir Sadreev,Владимир Садреев,1969-01-29,Russia,No,SBD,Wraps,M,M1,85.6,90,190,200,-210,200,,135,140,145,145,,200,-210,-210,200,,545
1,Valeriy Nugumanov,Валерий Нугуманов,1939-06-25,Russia,No,SBD,Wraps,M,M7,88.2,90,180,190,195,195,,100,105,110,110,,170,180,,180,,485
1,Daniil Tsarev,Даниил Царев,1990-09-12,Russia,No,SBD,Wraps,M,J,93.1,100,220,230,-240,230,,160,170,-175,170,,280,295,-302.5,295,,695
1,Valeriy Kuznetsov,Валерий Кузнецов,1983-08-21,Russia,No,SBD,Wraps,M,O,96.8,100,250,260,270,270,,170,180,190,190,,250,270,-280,270,,730
2,Daniil Tsarev,Даниил Царев,1990-09-12,Russia,No,SBD,Wraps,M,O,93.1,100,220,230,-240,230,,160,170,-175,170,,280,295,-302.5,295,,695
3,Anatoliy Eskin,Анатолий Еськин,1981-07-16,Russia,No,SBD,Wraps,M,O,100,100,210,220,230,230,,170,180,182.5,182.5,,220,230,240,240,,652.5
4,Vadim Ivanov,Вадим Иванов,1988-10-19,Russia,No,SBD,Wraps,M,O,99.5,100,-200,210,220,220,,200,-210,,200,,-225,230,-240,230,,650
5,Igor Lepikhov,Игорь Лепихов,1976-08-10,Russia,No,SBD,Wraps,M,O,98.1,100,205,212.5,217.5,217.5,,155,162.5,-165,162.5,,235,250,-265,250,,630
DQ,Aleksandr Merkurev,Александр Меркурьев,1985-12-01,Russia,No,SBD,Wraps,M,O,99.5,100,-220,-220,-225,,,,,,,,,,,,,
DQ,Aleksandr Pozyabkin,Александр Позябкин,1958-03-06,Russia,No,SBD,Wraps,M,M4,93.2,100,-150,,,,,,,,,,,,,,,
DQ,Vasiliy Ivanov,Василий Иванов,1955-09-04,Russia,No,SBD,Wraps,M,M4,98.1,100,-115,-120,-120,,,,,,,,,,,,,
1,Andrei Beloslubtsev,,1992-01-16,Kazakhstan,No,SBD,Wraps,M,J,107.7,110,-250,250,-255,250,,130,140,145,145,,240,250,255,255,,650
1,Aleksandr Obukhovich,Александр Обухович,1987-08-16,Russia,No,SBD,Wraps,M,O,103.9,110,270,285,,285,,180,190,200,200,,350,370,385,385,,870
2,Ivan Zevyakin,Иван Зевякин,1988-06-28,Russia,No,SBD,Wraps,M,O,106,110,290,-300,300,300,,190,197.5,-200,197.5,,315,-330,,315,,812.5
3,Tsogzoldorzh Dondog,,1974-08-20,Mongolia,No,SBD,Wraps,M,O,103.3,110,225,245,-260,245,,-100,100,120,120,,235,,,235,,600
1,Aleksandr Medvedev,Александр Медведев,1967-01-19,Russia,No,SBD,Wraps,M,M2,102.2,110,210,220,230,230,,130,140,145,145,,-240,-240,240,240,,615
1,Anton Bardin,Антон Бардин,1990-11-17,Russia,No,SBD,Wraps,M,J,119.3,125,230,240,250,250,,170,180,,180,,300,-327.5,,300,,730
2,Vladimir Matsievskiy,Владимир Мациевский,1989-09-25,Russia,No,SBD,Wraps,M,J,110.5,125,250,-272.5,,250,,185,-195,,185,,180,200,225,225,,660
1,Stanislav Mordvinov,Станислав Мордвинов,1983-11-04,Russia,No,SBD,Wraps,M,O,120.8,125,300,320,325,325,,210,220,-225,220,,300,320,,320,,865
2,Sergey Farafontev,Сергей Фарафонтьев,1984-01-27,Russia,No,SBD,Wraps,M,O,117.7,125,260,280,290,290,,185,195,-200,195,,280,300,-305,300,,785
3,Vladimir Matsievskiy,Владимир Мациевский,1989-09-25,Russia,No,SBD,Wraps,M,O,110.5,125,250,-272.5,,250,,185,-195,,185,,180,200,225,225,,660
1,Borislav Dzakhsorov,Борислав Дзахсоров,1972-07-19,Russia,No,SBD,Wraps,M,M1,119.9,125,210,220,230,230,,170,180,-190,180,,220,240,260,260,,670
1,Valeriy Gorbunov,Валерий Горбунов,1965-01-30,Russia,No,SBD,Wraps,M,M2,112,125,150,-200,200,200,,130,150,160,160,,180,200,262.5,262.5,,622.5
1,Aleksey Ermakov,Алексей Ермаков,1973-07-03,Russia,No,SBD,Wraps,M,O,131.1,125+,220,,,220,,190,-200,-200,190,,260,270,,270,,680
1,Aleksey Ermakov,Алексей Ермаков,1973-07-03,Russia,No,SBD,Wraps,M,M1,131.1,125+,220,,,220,,190,-200,-200,190,,260,270,,270,,680
1,Darima Kudrya,Дарима Кудря,1976-05-10,Russia,No,SBD,Single-ply,F,O,56,56,130,137.5,145,145,,-90,-90,95,95,,130,140,-150,140,,380
1,Dmitriy Sklyarov,Дмитрий Скляров,1981-10-07,Russia,No,SBD,Single-ply,M,O,67.5,67.5,190,-210,-210,190,,-130,130,-140,130,,190,200,210,210,,530
1,Maksim Shvarts,Максим Шварц,1989-11-29,Russia,No,SBD,Single-ply,M,J,75,75,300,320,330,330,,170,180,190,190,,265,285,290,290,,810
1,Maksim Shvarts,Максим Шварц,1989-11-29,Russia,No,SBD,Single-ply,M,O,75,75,300,320,330,330,,170,180,190,190,,265,285,290,290,,810
2,Anatoliy Glazunov,Анатолий Глазунов,1972-02-09,Russia,No,SBD,Single-ply,M,O,75,75,270,300,330,330,,170,190,-200,190,,230,-250,-262.5,230,,750
3,Sergey Fedoseev,Сергей Федосеев,1982-01-18,Russia,No,SBD,Single-ply,M,O,74.9,75,-170,177.5,187.5,187.5,,140,150,-157.5,150,,170,190,205,205,,542.5
DQ,Muslim Maykin,,1967-05-08,Kazakhstan,No,SBD,Single-ply,M,O,75,75,-280,-280,-280,,,,,,,,,,,,,
1,Anatoliy Glazunov,Анатолий Глазунов,1972-02-09,Russia,No,SBD,Single-ply,M,M1,75,75,270,300,330,330,,170,190,-200,190,,230,-250,-262.5,230,,750
1,Konstantin Semenov,Константин Семенов,1964-08-24,Russia,No,SBD,Single-ply,M,M2,73.7,75,200,207.5,212.5,212.5,,-180,182.5,-187.5,182.5,,220,-225,,220,,615
DQ,Muslim Maykin,,1967-05-08,Kazakhstan,No,SBD,Single-ply,M,M2,75,75,-280,-280,-280,,,,,,,,,,,,,
1,Stepan Pakhomov,Степан Пахомов,1991-08-04,Russia,No,SBD,Single-ply,M,J,82.3,82.5,-280,280,290,290,,-150,150,-160,150,,230,255,265,265,,705
1,Dmitriy Ovcharov,Дмитрий Овчаров,1989-09-04,Russia,No,SBD,Single-ply,M,O,82.5,82.5,270,280,-290,280,,215,230,-232.5,230,,240,257.5,-270,257.5,,767.5
2,Sergey Gostishchev,Сергей Гостищев,1982-04-07,Russia,No,SBD,Single-ply,M,O,79.9,82.5,220,-235,-245,220,,135,140,145,145,,180,190,200,200,,565
DQ,Andrey Tomasik,Андрей Томасик,1987-12-14,Russia,No,SBD,Single-ply,M,O,82.2,82.5,220,-230,235,235,,-185,-185,-185,,,,,,,,
1,Vladislav Filipovich,Владислав Филипович,1991-01-28,Russia,No,SBD,Single-ply,M,J,89,90,350,370,,370,,215,230,-235,230,,290,300,312.5,312.5,,912.5
2,Kirill Fedyunin,Кирилл Федюнин,1992-11-02,Russia,No,SBD,Single-ply,M,J,89.4,90,-230,230,-245,230,,180,-195,-195,180,,210,220,-240,220,,630
DQ,Dmitriy Yakovlev,Дмитрий Яковлев,1992-02-10,Russia,No,SBD,Single-ply,M,J,89.2,90,360,380,-390,380,,-220,220,-230,220,,-292.5,-292.5,,-292.5,,
DQ,Vladimir Nikolaev,Владимир Николаев,1990-03-18,Russia,No,SBD,Single-ply,M,J,86.9,90,280,290,300,300,,-205,-205,-205,,,,,,,,
1,Vladislav Filipovich,Владислав Филипович,1991-01-28,Russia,No,SBD,Single-ply,M,O,89,90,350,370,,370,,215,230,-235,230,,290,300,312.5,312.5,,912.5
2,Dmitriy Yuskov,Дмитрий Юськов,1989-03-16,Russia,No,SBD,Single-ply,M,O,90,90,300,320,340,340,,185,200,-210,200,,262.5,-280,280,280,,820
3,Delger-Khishig Banzragch,,1980-01-20,Mongolia,No,SBD,Single-ply,M,O,89.3,90,320,340,-365,340,,-160,160,-175,160,,-250,265,-305,265,,765
4,Evgeniy Doroshenko,Евгений Дорошенко,1983-02-01,Russia,No,SBD,Single-ply,M,O,84.3,90,-300,-300,300,300,,190,-200,-200,190,,260,-270,,260,,750
DQ,Dmitriy Yakovlev,Дмитрий Яковлев,1992-02-10,Russia,No,SBD,Single-ply,M,O,89.2,90,360,380,-390,380,,-220,220,-230,220,,-292.5,-292.5,,-292.5,,
1,Sergey Kuznetsov,Сергей Кузнецов,1971-08-29,Russia,No,SBD,Single-ply,M,M1,89.4,90,240,250,260,260,,180,190,,190,,200,210,,210,,660
1,Batdelger Batsukh,,1990-09-20,Mongolia,No,SBD,Single-ply,M,J,94.8,100,340,360,385,385,,170,187.5,195,195,,260,272.5,280,280,,860
1,Ivan Vasyunin,Иван Васюнин,1983-01-08,Russia,No,SBD,Single-ply,M,O,99.6,100,360,-370,370,370,,275,-285,285,285,,290,305,-315,305,,960
2,Batdelger Batsukh,,1990-09-20,Mongolia,No,SBD,Single-ply,M,O,94.8,100,340,360,385,385,,170,187.5,195,195,,260,272.5,280,280,,860
3,Evgeniy Utkin,Евгений Уткин,1988-10-05,Russia,No,SBD,Single-ply,M,O,99.9,100,270,280,-300,280,,140,-150,160,160,,210,230,240,240,,680
4,Maksim Zayka,Максим Зайка,1988-08-26,Russia,No,SBD,Single-ply,M,O,96,100,235,250,-260,250,,135,145,-150,145,,180,-200,-215,180,,575
1,Aleksandr Musokhranov,Александр Мусохранов,1980-10-16,Russia,No,SBD,Single-ply,M,O,109.7,110,290,305,315,315,,185,200,-210,200,,270,285,290,290,,805
2,Aleksandr Bozhko,Александр Божко,1979-03-19,Russia,No,SBD,Single-ply,M,O,102.7,110,260,280,290,290,,-170,170,177.5,177.5,,260,-280,,260,,727.5
DQ,Yuriy Dmitrenko,Юрий Дмитренко,1983-07-25,Russia,No,SBD,Single-ply,M,O,115.2,125,-350,-350,-350,,,,,,,,,,,,,
1,Vyacheslav Sidyakin,Вячеслав Сидякин,1978-06-08,Russia,No,SBD,Single-ply,M,O,131.4,140,330,355,370,370,,225,245,-250,245,,300,332.5,-340,332.5,,947.5
1,Anna Bibanaeva,Анна Бибанаева,2002-04-25,Russia,Yes,B,Raw,F,T1,38.9,44,,,,,,32.5,35,-37.5,35,,,,,,,35
1,Natalya Gubanova,Наталья Губанова,1977-07-25,Russia,Yes,B,Raw,F,O,44,44,,,,,,35,37.5,-40,37.5,,,,,,,37.5
1,Anastasiya Kovanovskaya,Анастасия Ковановская,1989-08-26,Russia,Yes,B,Raw,F,J,46.9,48,,,,,,45,-50,-50,45,,,,,,,45
2,Elena Tokarets,Елена Токарец,1989-09-05,Russia,Yes,B,Raw,F,J,45.9,48,,,,,,-40,40,-45,40,,,,,,,40
1,Elena Vorozhishcheva,Елена Ворожищева,1976-06-18,Russia,Yes,B,Raw,F,O,48,48,,,,,,55,60,-62.5,60,,,,,,,60
2,Lyubov Shestakova,Любовь Шестакова,1988-10-07,Russia,Yes,B,Raw,F,O,47.8,48,,,,,,47.5,52.5,55,55,,,,,,,55
1,Alena Pustovarova,Алена Пустоварова,1988-06-27,Russia,Yes,B,Raw,F,O,51.7,52,,,,,,60,65,67.5,67.5,,,,,,,67.5
2,Ekaterina Galochka,Екатерина Галочка,1987-01-05,Russia,Yes,B,Raw,F,O,51,52,,,,,,60,62.5,,62.5,,,,,,,62.5
1,Elena Kushkova,Елена Кушкова,1967-03-12,Russia,Yes,B,Raw,F,M2,49.8,52,,,,,,-57.5,57.5,-60,57.5,,,,,,,57.5
1,Yuliya Fialkovskaya,Юлия Фиалковская,1999-03-30,Russia,Yes,B,Raw,F,T1,53.6,56,,,,,,35,-37.5,37.5,37.5,,,,,,,37.5
1,Tatyana Gulerich,Татьяна Гулерич,1989-01-03,Russia,Yes,B,Raw,F,O,54.8,56,,,,,,62.5,65,67.5,67.5,,,,,,,67.5
2,Alla Shabunina,Алла Шабунина,1989-06-21,Russia,Yes,B,Raw,F,O,55.5,56,,,,,,62.5,-65,-67.5,62.5,,,,,,,62.5
3,Evgeniya Likhanova,Евгения Лиханова,1984-08-15,Russia,Yes,B,Raw,F,O,55.6,56,,,,,,-50,-50,50,50,,,,,,,50
1,Elizaveta Shinkareva,Елизавета Шинкарева,1998-06-24,Russia,Yes,B,Raw,F,T1,59.2,60,,,,,,55,57.5,60,60,,,,,,,60
DQ,Olga Nasonova,Ольга Насонова,1996-01-01,Russia,Yes,B,Raw,F,T2,59.1,60,,,,,,-62.5,-67.5,-67.5,,,,,,,,
1,Anastasiya Kozhemyako,Анастасия Кожемяко,1991-03-09,Russia,Yes,B,Raw,F,J,59.4,60,,,,,,60,-62.5,62.5,62.5,,,,,,,62.5
2,Anastasiya Borodina,Анастасия Бородина,1990-10-02,Russia,Yes,B,Raw,F,J,59.8,60,,,,,,45,-50,50,50,,,,,,,50
1,Kristina Baranova,Кристина Баранова,1988-05-17,Russia,Yes,B,Raw,F,O,59.6,60,,,,,,65,70,75,75,,,,,,,75
2,Svetlana Ilyanova,Светлана Ильянова,1975-03-25,Russia,Yes,B,Raw,F,O,60,60,,,,,,55,-60,-60,55,,,,,,,55
1,Irina Svitlik,Ирина Свитлик,1999-09-18,Russia,Yes,B,Raw,F,T1,66.9,67.5,,,,,,30,40,50,50,,,,,,,50
1,Mariya Timoshina,,1984-01-27,Kazakhstan,Yes,B,Raw,F,O,60.5,67.5,,,,,,82.5,87.5,90,90,,,,,,,90
1,Alena Simonova,Алена Симонова,1996-01-30,Russia,Yes,B,Raw,F,T2,78.8,82.5,,,,,,-50,50,52.5,52.5,,,,,,,52.5
1,Anna Slobodchikova,Анна Слободчикова,1981-06-07,Russia,Yes,B,Raw,F,O,82,82.5,,,,,,80,-85,85,85,,,,,,,85
1,Elena Skobelkina,Елена Скобелкина,1973-05-24,Russia,Yes,B,Raw,F,O,102.3,90+,,,,,,75,85,-92.5,85,,,,,,,85
1,Elena Skobelkina,Елена Скобелкина,1973-05-24,Russia,Yes,B,Raw,F,M1,102.3,90+,,,,,,75,85,-92.5,85,,,,,,,85
1,Denis Sharapov,Денис Шарапов,1998-01-21,Russia,Yes,B,Raw,M,T1,51.6,52,,,,,,60,65,-70,65,,,,,,,65
2,Daniil Shestakov,Даниил Шестаков,2000-08-17,Russia,Yes,B,Raw,M,T1,52,52,,,,,,40,50,60,60,,,,,,,60
3,Rufat Niyazov,Руфат Ниязов,1998-11-06,Russia,Yes,B,Raw,M,T1,50.8,52,,,,,,45,50,55,55,,,,,,,55
4,Dmitriy Abdulin,Дмитрий Абдулин,1999-11-24,Russia,Yes,B,Raw,M,T1,40.3,52,,,,,,32.5,35,-40,35,,,,,,,35
5,Daniil Simonov,Даниил Симонов,2004-05-25,Russia,Yes,B,Raw,M,T1,27.6,52,,,,,,20,22.5,25,25,,,,,,,25
1,Vyacheslav Kravtsov,Вячеслав Кравцов,1967-04-21,Russia,Yes,B,Raw,M,M2,50,52,,,,,,90,-95,95,95,,,,,,,95
1,Sergey Bogun,Сергей Богун,1999-04-03,Russia,Yes,B,Raw,M,T1,55.3,56,,,,,,-95,95,-102.5,95,,,,,,,95
2,Vitaliy Naydenkov,Виталий Найденков,1998-11-11,Russia,Yes,B,Raw,M,T1,54.9,56,,,,,,72.5,-77.5,-77.5,72.5,,,,,,,72.5
1,Sergey Bogun,Сергей Богун,1999-04-03,Russia,Yes,B,Raw,M,O,55.3,56,,,,,,-95,95,-102.5,95,,,,,,,95
1,Rustam Kudusov,Рустам Кудусов,1997-12-09,Russia,Yes,B,Raw,M,T1,59.9,60,,,,,,65,70,-75,70,,,,,,,70
1,Vladislav Felk,Владислав Фельк,1996-09-13,Russia,Yes,B,Raw,M,T2,56.9,60,,,,,,97.5,-102.5,102.5,102.5,,,,,,,102.5
2,Nikolay Basov,Николай Басов,1996-01-05,Russia,Yes,B,Raw,M,T2,59.6,60,,,,,,90,97.5,100,100,,,,,,,100
3,Dmitriy Talko,Дмитрий Талько,1996-09-17,Russia,Yes,B,Raw,M,T2,58,60,,,,,,90,95,-97.5,95,,,,,,,95
4,Saveliy Semenov,Савелий Семенов,1997-03-27,Russia,Yes,B,Raw,M,T2,59.9,60,,,,,,90,95,-97.5,95,,,,,,,95
5,Gennadiy Borisov,Геннадий Борисов,1997-07-01,Russia,Yes,B,Raw,M,T2,60,60,,,,,,55,60,-67.5,60,,,,,,,60
1,Zhora Verobyan,Жора Веробян,1994-02-23,Russia,Yes,B,Raw,M,T3,60,60,,,,,,-115,-115,115,115,,,,,,,115
2,Vladislav Lavrinenko,Владислав Лавриненко,1995-07-26,Russia,Yes,B,Raw,M,T3,59.1,60,,,,,,105,-112.5,112.5,112.5,,,,,,,112.5
3,Anatoliy Kozlov,Анатолий Козлов,1994-10-13,Russia,Yes,B,Raw,M,T3,60,60,,,,,,100,-107.5,107.5,107.5,,,,,,,107.5
4,Vitaliy Sapegin,Виталий Сапегин,1994-11-01,Russia,Yes,B,Raw,M,T3,57.7,60,,,,,,95,102.5,-107.5,102.5,,,,,,,102.5
1,Yanis Kalaychev,Янис Калайчев,1985-07-23,Russia,Yes,B,Raw,M,O,59.2,60,,,,,,140,150,160,160,170.5,,,,,,160
1,Aleksandr Yung,Александр Юнг,1998-01-23,Russia,Yes,B,Raw,M,T1,67.4,67.5,,,,,,107.5,112.5,-125,112.5,,,,,,,112.5
2,Dmitriy Peshev,Дмитрий Пешев,1997-09-02,Russia,Yes,B,Raw,M,T1,66.4,67.5,,,,,,80,-90,-90,80,,,,,,,80
1,Daniil Semenov,Даниил Семенов,1996-10-21,Russia,Yes,B,Raw,M,T2,67.5,67.5,,,,,,110,117.5,-125,117.5,,,,,,,117.5
2,Nikita Mordachev,Никита Мордачев,1996-06-15,Russia,Yes,B,Raw,M,T2,66.1,67.5,,,,,,107.5,-115,115,115,,,,,,,115
3,Andrey Palchikov,Андрей Пальчиков,1995-10-20,Russia,Yes,B,Raw,M,T2,64.9,67.5,,,,,,97.5,107.5,112.5,112.5,,,,,,,112.5
4,Dmitriy Komarov,Дмитрий Комаров,1996-11-08,Russia,Yes,B,Raw,M,T2,67.4,67.5,,,,,,90,100,105,105,,,,,,,105
5,Andrey Lityaev,Андрей Литяев,1995-09-26,Russia,Yes,B,Raw,M,T2,67.5,67.5,,,,,,100,-105,-105,100,,,,,,,100
6,Sergey Mitrofanov,Сергей Митрофанов,1997-03-18,Russia,Yes,B,Raw,M,T2,63.9,67.5,,,,,,-80,80,90,90,,,,,,,90
7,Aleksandr Galevich,Александр Галевич,1996-10-25,Russia,Yes,B,Raw,M,T2,66.5,67.5,,,,,,70,80,-90,80,,,,,,,80
DQ,Vladislav Semenov,Владислав Семенов,1996-09-20,Russia,Yes,B,Raw,M,T2,67,67.5,,,,,,-100,-100,-100,,,,,,,,
1,Konstantin Timoshin,Константин Тимошин,1993-12-24,Russia,Yes,B,Raw,M,T3,66.5,67.5,,,,,,92.5,-95,95,95,,,,,,,95
2,Aleksandr Anufriev,Александр Ануфриев,1995-06-07,Russia,Yes,B,Raw,M,T3,67,67.5,,,,,,77.5,82.5,-87.5,82.5,,,,,,,82.5
1,Viktor Kolomiets,Виктор Коломиец,1991-07-28,Russia,Yes,B,Raw,M,J,67.2,67.5,,,,,,122.5,125,127.5,127.5,,,,,,,127.5
2,Sergey Zagarskiy,Сергей Загарский,1989-11-20,Russia,Yes,B,Raw,M,J,67.5,67.5,,,,,,115,-120,120,120,,,,,,,120
3,Sergey Lunshin,Сергей Луньшин,1991-04-16,Russia,Yes,B,Raw,M,J,65.8,67.5,,,,,,110,-115,-115,110,,,,,,,110
1,Dmitriy Kaygorodov,Дмитрий Кайгородов,1983-09-24,Russia,Yes,B,Raw,M,O,66.9,67.5,,,,,,142.5,147.5,150,150,,,,,,,150
2,Sergey Poboykin,Сергей Побойкин,1989-03-10,Russia,Yes,B,Raw,M,O,67.5,67.5,,,,,,135,-142.5,142.5,142.5,,,,,,,142.5
3,Aleksey Abramov,Алексей Абрамов,1986-04-06,Russia,Yes,B,Raw,M,O,66.3,67.5,,,,,,115,120,125,125,,,,,,,125
4,Anatoliy Aursalov,Анатолий Аурсалов,1980-09-28,Russia,Yes,B,Raw,M,O,65,67.5,,,,,,115,-120,120,120,,,,,,,120
5,Dmitriy Karlovskiy,Дмитрий Карловский,1984-08-26,Russia,Yes,B,Raw,M,O,61.8,67.5,,,,,,60,65,-70,65,,,,,,,65
6,Aleksey Chunzhekov,Алексей Чунжеков,1961-06-13,Russia,Yes,B,Raw,M,O,66.5,67.5,,,,,,40,50,65,65,,,,,,,65
1,Aleksey Chunzhekov,Алексей Чунжеков,1961-06-13,Russia,Yes,B,Raw,M,M3,66.5,67.5,,,,,,40,50,65,65,,,,,,,65
1,Valeriy Baev,Валерий Баев,1951-11-15,Russia,Yes,B,Raw,M,M5,64.1,67.5,,,,,,92.5,97.5,100,100,,,,,,,100
2,Yuriy Vikhorev,Юрий Вихорев,1950-06-28,Russia,Yes,B,Raw,M,M5,65,67.5,,,,,,-90,90,92.5,92.5,,,,,,,92.5
1,Nikita Smirnov,Никита Смирнов,1996-06-03,Russia,Yes,B,Raw,M,T2,72.1,75,,,,,,100,-110,110,110,,,,,,,110
2,Ilya Penkin,Илья Пенкин,1996-08-21,Russia,Yes,B,Raw,M,T2,74.8,75,,,,,,80,90,-100,90,,,,,,,90
1,Ilya Kurbatov,Илья Курбатов,1994-09-22,Russia,Yes,B,Raw,M,T3,73.1,75,,,,,,125,135,140,140,,,,,,,140
2,Aleksandr Shpilev,Александр Шпилев,1995-03-09,Russia,Yes,B,Raw,M,T3,73.6,75,,,,,,105,110,117.5,117.5,,,,,,,117.5
3,Mikhail Makhnovskiy,Михаил Махновский,1995-04-24,Russia,Yes,B,Raw,M,T3,72.4,75,,,,,,110,115,-117.5,115,,,,,,,115
1,Renat Deshevykh,Ренат Дешевых,1993-08-12,Russia,Yes,B,Raw,M,J,74.8,75,,,,,,-150,150,-155,150,,,,,,,150
2,Elbak Petrosyan,Эльбак Петросян,1991-10-03,Russia,Yes,B,Raw,M,J,74.1,75,,,,,,-130,-135,135,135,,,,,,,135
3,Viktor Kurbatov,Виктор Курбатов,1992-10-23,Russia,Yes,B,Raw,M,J,74.7,75,,,,,,135,-155,-155,135,,,,,,,135
4,Daniil Tsebenko,Даниил Цебенко,1991-05-30,Russia,Yes,B,Raw,M,J,72.6,75,,,,,,125,-135,-135,125,,,,,,,125
5,Artem Golubin,Артем Голубин,1990-06-25,Russia,Yes,B,Raw,M,J,71.1,75,,,,,,105,117.5,-120,117.5,,,,,,,117.5
6,Khayrullo Saburov,Хайрулло Сабуров,1992-07-29,Russia,Yes,B,Raw,M,J,71.1,75,,,,,,70,-90,-90,70,,,,,,,70
1,Evgeniy Zuev,Евгений Зуев,1985-07-11,Russia,Yes,B,Raw,M,O,73.3,75,,,,,,150,157.5,162.5,162.5,,,,,,,162.5
2,Igor Kalashnikov,Игорь Калашников,1964-08-16,Russia,Yes,B,Raw,M,O,71.7,75,,,,,,150,155,160,160,,,,,,,160
3,Viktor Baraov,Виктор Бараов,1987-11-07,Russia,Yes,B,Raw,M,O,73,75,,,,,,145,-150,-150,145,,,,,,,145
4,Ilya Makarov,Илья Макаров,1987-05-21,Russia,Yes,B,Raw,M,O,74.2,75,,,,,,145,-150,-150,145,,,,,,,145
5,Sergey Zhuganenko,Сергей Жуганенко,1987-07-11,Russia,Yes,B,Raw,M,O,74.7,75,,,,,,130,135,140,140,,,,,,,140
6,Khuseyn Ishmatov,Хусейн Ишматов,1978-01-08,Russia,Yes,B,Raw,M,O,75,75,,,,,,125,135,140,140,,,,,,,140
7,Dmitriy Dashkov,Дмитрий Дашков,1989-04-10,Russia,Yes,B,Raw,M,O,73.7,75,,,,,,-130,130,135,135,,,,,,,135
8,Aleksandr Karagaev,Александр Карагаев,1988-03-17,Russia,Yes,B,Raw,M,O,74.6,75,,,,,,125,135,,135,,,,,,,135
9,Ilya Shokhtin,Илья Шохтин,1986-12-08,Russia,Yes,B,Raw,M,O,74.8,75,,,,,,120,130,-135,130,,,,,,,130
10,Sergey Astakhov,Сергей Астахов,1976-05-19,Russia,Yes,B,Raw,M,O,74.3,75,,,,,,105,110,-117.5,110,,,,,,,110
DQ,Ilya Sidorenko,Илья Сидоренко,1987-04-28,Russia,Yes,B,Raw,M,O,73.7,75,,,,,,-135,-135,-135,,,,,,,,
1,Igor Kalashnikov,Игорь Калашников,1964-08-16,Russia,Yes,B,Raw,M,M1,71.7,75,,,,,,150,155,160,160,,,,,,,160
2,Yuriy Volkov,Юрий Волков,1972-04-01,Russia,Yes,B,Raw,M,M1,74.2,75,,,,,,90,100,,100,,,,,,,100
1,Igor Bashtanov,Игорь Баштанов,1967-01-30,Russia,Yes,B,Raw,M,M2,72.9,75,,,,,,100,110,,110,,,,,,,110
1,Vladislav Simonov,Владислав Симонов,1996-06-07,Russia,Yes,B,Raw,M,T2,79,82.5,,,,,,110,120,-127.5,120,,,,,,,120
1,Vitaliy Ilyushin,Виталий Илюшин,1994-12-19,Russia,Yes,B,Raw,M,T3,81.3,82.5,,,,,,110,115,120,120,,,,,,,120
1,Daniil Poddubnyak,Даниил Поддубняк,1990-04-14,Russia,Yes,B,Raw,M,J,80.9,82.5,,,,,,157.5,165,-167.5,165,,,,,,,165
2,Vasiliy Svalov,Василий Свалов,1990-03-10,Russia,Yes,B,Raw,M,J,79.5,82.5,,,,,,140,145,-150,145,,,,,,,145
3,Mikhail Kovalev,Михаил Ковалев,1990-04-04,Russia,Yes,B,Raw,M,J,82.4,82.5,,,,,,-120,120,127.5,127.5,,,,,,,127.5
DQ,Evgeniy Kotukhov,Евгений Котухов,1989-09-24,Russia,Yes,B,Raw,M,J,81.8,82.5,,,,,,-127.5,-135,-135,,,,,,,,
1,Aleksey Kozlov,Алексей Козлов,1982-04-27,Russia,Yes,B,Raw,M,O,81.4,82.5,,,,,,175,180,-185,180,,,,,,,180
2,Daniil Poddubnyak,Даниил Поддубняк,1990-04-14,Russia,Yes,B,Raw,M,O,80.9,82.5,,,,,,157.5,165,-167.5,165,,,,,,,165
3,Dmitriy Levtsov,Дмитрий Левцов,1981-02-11,Russia,Yes,B,Raw,M,O,82.5,82.5,,,,,,-160,162.5,-167.5,162.5,,,,,,,162.5
4,Andrey Lastovskiy,Андрей Ластовский,1987-03-06,Russia,Yes,B,Raw,M,O,82.5,82.5,,,,,,150,160,-167.5,160,,,,,,,160
5,Vitaliy Kapyrin,Виталий Капырин,1984-10-08,Russia,Yes,B,Raw,M,O,81.7,82.5,,,,,,152.5,157.5,-160,157.5,,,,,,,157.5
6,Nikolay Mikhalchenko,Николай Михальченко,1985-10-17,Russia,Yes,B,Raw,M,O,81.5,82.5,,,,,,145,-152.5,152.5,152.5,,,,,,,152.5
7,Dmitriy Zharkov,Дмитрий Жарков,1979-12-13,Russia,Yes,B,Raw,M,O,81.5,82.5,,,,,,-130,145,-152.5,145,,,,,,,145
8,Evgeniy Kolosov,Евгений Колосов,1984-12-07,Russia,Yes,B,Raw,M,O,81.5,82.5,,,,,,137.5,145,-150,145,,,,,,,145
9,Yaroslav Terentev,Ярослав Терентьев,1986-11-27,Russia,Yes,B,Raw,M,O,81,82.5,,,,,,127.5,130,132.5,132.5,,,,,,,132.5
10,Dmitriy Kashchavtsev,Дмитрий Кащавцев,1981-06-04,Russia,Yes,B,Raw,M,O,81.7,82.5,,,,,,130,-145,-145,130,,,,,,,130
11,Aleksandr Savchenko,Александр Савченко,1978-04-13,Russia,Yes,B,Raw,M,O,81.6,82.5,,,,,,120,-125,-132.5,120,,,,,,,120
1,Igor Belskiy,Игорь Бельский,1970-10-22,Russia,Yes,B,Raw,M,M1,79,82.5,,,,,,140,145,,145,,,,,,,145
1,Aleksandr Tsmyg,Александр Цмыг,1963-10-20,Russia,Yes,B,Raw,M,M2,81.3,82.5,,,,,,120,127.5,-132.5,127.5,,,,,,,127.5
2,Aleksandr Rasskazchikov,Александр Рассказчиков,1963-12-26,Russia,Yes,B,Raw,M,M2,79.9,82.5,,,,,,105,110,115,115,,,,,,,115
3,Sergey Korenkov,Сергей Кореньков,1965-07-11,Russia,Yes,B,Raw,M,M2,77,82.5,,,,,,-92.5,-97.5,97.5,97.5,,,,,,,97.5
1,Boris Kozhin,Борис Кожин,1960-05-03,Russia,Yes,B,Raw,M,M3,82.5,82.5,,,,,,120,130,-145,130,,,,,,,130
1,Aleksandr Bezborodov,Александр Безбородов,1954-12-19,Russia,Yes,B,Raw,M,M4,79.6,82.5,,,,,,90,100,110,110,,,,,,,110
1,Nikolay Bachurin,Николай Бачурин,1948-10-25,Russia,Yes,B,Raw,M,M5,80.5,82.5,,,,,,107.5,-112.5,-112.5,107.5,,,,,,,107.5
1,Vladimir Startsev,Владимир Старцев,1995-11-30,Russia,Yes,B,Raw,M,T2,88.2,90,,,,,,115,125,-132.5,125,,,,,,,125
1,Vitaliy Kovalchuk,Виталий Ковальчук,1994-11-15,Russia,Yes,B,Raw,M,T3,87.4,90,,,,,,125,130,-132.5,130,,,,,,,130
1,Egor Kornyush,Егор Корнюш,1993-02-02,Russia,Yes,B,Raw,M,J,85.2,90,,,,,,160,165,-172.5,165,,,,,,,165
2,Yuriy Popa,Юрий Попа,1993-01-10,Russia,Yes,B,Raw,M,J,88,90,,,,,,-147.5,147.5,152.5,152.5,,,,,,,152.5
3,Aleksandr Boykov,Александр Бойков,1992-06-30,Russia,Yes,B,Raw,M,J,88.8,90,,,,,,135,-145,145,145,,,,,,,145
4,Petr Nesterenko,Петр Нестеренко,1991-08-04,Russia,Yes,B,Raw,M,J,87,90,,,,,,-140,-142.5,142.5,142.5,,,,,,,142.5
5,Nikita Sekret,Никита Секрет,1989-09-04,Russia,Yes,B,Raw,M,J,88.7,90,,,,,,120,-132.5,-132.5,120,,,,,,,120
1,Vladimir Konchakov,Владимир Кончаков,1973-05-25,Russia,Yes,B,Raw,M,O,88.8,90,,,,,,185,195,200,200,203,,,,,,200
2,Nikolay Berezovskiy,Николай Березовский,1987-04-06,Russia,Yes,B,Raw,M,O,85.5,90,,,,,,170,180,185,185,,,,,,,185
3,Petr Mikhaylov,Петр Михайлов,1975-08-24,Russia,Yes,B,Raw,M,O,88.7,90,,,,,,-170,-175,175,175,,,,,,,175
4,Pavel Boretskiy,Павел Борецкий,1986-09-17,Russia,Yes,B,Raw,M,O,88.6,90,,,,,,160,-175,-175,160,,,,,,,160
5,Sergey Damm,Сергей Дамм,1973-07-21,Russia,Yes,B,Raw,M,O,88.5,90,,,,,,152.5,157.5,,157.5,,,,,,,157.5
6,Nutsu Shiman,Нуцу Шиман,1982-12-16,Russia,Yes,B,Raw,M,O,89.3,90,,,,,,150,152.5,-160,152.5,,,,,,,152.5
7,Artem Lukyanov,Артем Лукьянов,1983-04-02,Russia,Yes,B,Raw,M,O,87.7,90,,,,,,150,-160,-160,150,,,,,,,150
8,Aleksandr Maltsev,Александр Мальцев,1981-05-07,Russia,Yes,B,Raw,M,O,89.1,90,,,,,,-145,-145,145,145,,,,,,,145
9,Dmitriy Chernolyubskiy,Дмитрий Чернолюбский,1985-09-26,Russia,Yes,B,Raw,M,O,86.7,90,,,,,,132.5,142.5,-152.5,142.5,,,,,,,142.5
10,Aleksey Afanasev,Алексей Афанасьев,1982-10-28,Russia,Yes,B,Raw,M,O,89.6,90,,,,,,127.5,-132.5,132.5,132.5,,,,,,,132.5
11,Andrey Maslakov,Андрей Маслаков,1988-06-20,Russia,Yes,B,Raw,M,O,88.4,90,,,,,,-125,125,-132.5,125,,,,,,,125
12,Aleksandr Goloyukhov,Александр Голоюхов,1988-05-13,Russia,Yes,B,Raw,M,O,88.5,90,,,,,,125,-130,-132.5,125,,,,,,,125
13,Sergey Mishchirikov,Сергей Мищириков,1955-02-15,Russia,Yes,B,Raw,M,O,90,90,,,,,,70,80,90,90,,,,,,,90
DQ,Yuriy Dorokhov,Юрий Дорохов,1977-11-06,Russia,Yes,B,Raw,M,O,87.6,90,,,,,,-155,-165,-165,,,,,,,,
DQ,Aleksandr Yudin,Александр Юдин,1980-04-26,Russia,Yes,B,Raw,M,O,88.4,90,,,,,,-152.5,-152.5,-152.5,,,,,,,,
1,Vladimir Konchakov,Владимир Кончаков,1973-05-25,Russia,Yes,B,Raw,M,M1,88.8,90,,,,,,185,195,200,200,203,,,,,,200
2,Sergey Voronets,Сергей Воронец,1971-10-16,Russia,Yes,B,Raw,M,M1,88.8,90,,,,,,155,162.5,167.5,167.5,,,,,,,167.5
3,Aleksandr Tyulenev,Александр Тюленев,1968-08-26,Russia,Yes,B,Raw,M,M1,88.7,90,,,,,,140,145,-147.5,145,,,,,,,145
4,Evgeniy Svoboda,Евгений Свобода,1972-03-23,Russia,Yes,B,Raw,M,M1,88.1,90,,,,,,130,140,-150,140,,,,,,,140
1,Nikolay Leshchenko,Николай Лещенко,1966-02-20,Russia,Yes,B,Raw,M,M2,85.5,90,,,,,,132.5,-142.5,-142.5,132.5,,,,,,,132.5
1,Leonid Tikhonov,Леонид Тихонов,1963-03-25,Russia,Yes,B,Raw,M,M3,90,90,,,,,,152.5,160,-165,160,,,,,,,160
2,Nikolay Kablashov,Николай Каблашов,1962-08-22,Russia,Yes,B,Raw,M,M3,87.2,90,,,,,,120,130,-145,130,,,,,,,130
1,Sergey Mishchirikov,Сергей Мищириков,1955-02-15,Russia,Yes,B,Raw,M,M4,90,90,,,,,,70,80,90,90,,,,,,,90
1,Aleksandr Andrianov,Александр Андрианов,1944-09-04,Russia,Yes,B,Raw,M,M5,86.3,90,,,,,,-135,135,140,140,,,,,,,140
2,Yuriy Isagulov,Юрий Исагулов,1944-01-02,Russia,Yes,B,Raw,M,M5,85.9,90,,,,,,75,-82.5,82.5,82.5,,,,,,,82.5
1,Vitaliy Bibikov,,1985-02-05,Kazakhstan,Yes,B,Raw,M,O,100,100,,,,,,190,197.5,202.5,202.5,,,,,,,202.5
2,Vasiliy Synkov,Василий Сынков,1972-09-07,Russia,Yes,B,Raw,M,O,98.8,100,,,,,,185,195.5,200,200,,,,,,,200
3,Konstantin Kovazhenko,Константин Коваженко,1978-04-17,Russia,Yes,B,Raw,M,O,91.8,100,,,,,,185,190,197.5,197.5,,,,,,,197.5
4,Khayrullo Shakiev,Хайрулло Шакиев,1983-01-10,Russia,Yes,B,Raw,M,O,96.4,100,,,,,,175,185,-187.5,185,,,,,,,185
5,Mikhail Klishev,Михаил Клишев,1980-08-26,Russia,Yes,B,Raw,M,O,98.4,100,,,,,,180,-187.5,-187.5,180,,,,,,,180
6,Andrey Makarenko,Андрей Макаренко,1988-12-26,Russia,Yes,B,Raw,M,O,99.2,100,,,,,,165,172.5,180,180,,,,,,,180
7,Pavel Kovalev,Павел Ковалев,1982-01-11,Russia,Yes,B,Raw,M,O,94.1,100,,,,,,165,170,175,175,,,,,,,175
8,Fedor Alekseev,Федор Алексеев,1977-07-07,Russia,Yes,B,Raw,M,O,96.5,100,,,,,,162.5,167.5,172.5,172.5,,,,,,,172.5
9,Aleksandr Fedorov,Александр Федоров,1986-04-29,Russia,Yes,B,Raw,M,O,97.7,100,,,,,,165,170,-185,170,,,,,,,170
10,Vitaliy Shevelev,Виталий Шевелев,1979-12-28,Russia,Yes,B,Raw,M,O,99.1,100,,,,,,-152.5,155,-162.5,155,,,,,,,155
11,Vitaliy Kryzhanovskiy,Виталий Крыжановский,1976-03-06,Russia,Yes,B,Raw,M,O,95.7,100,,,,,,152.5,-157.5,-157.5,152.5,,,,,,,152.5
12,Sergey Kolmychkov,Сергей Колмычков,1976-11-24,Russia,Yes,B,Raw,M,O,98.8,100,,,,,,152.5,-162.5,-162.5,152.5,,,,,,,152.5
13,Evgeniy Zvontsov,Евгений Звонцов,1982-05-05,Russia,Yes,B,Raw,M,O,95.4,100,,,,,,145,150,-162.5,150,,,,,,,150
14,Vladimir Shmidt,Владимир Шмидт,1985-05-06,Russia,Yes,B,Raw,M,O,96.6,100,,,,,,150,-162.5,-162.5,150,,,,,,,150
15,Sergey Pisklov,Сергей Писклов,1987-05-21,Russia,Yes,B,Raw,M,O,97.3,100,,,,,,145,147.5,-152.5,147.5,,,,,,,147.5
16,Nikita Mirzaev,Никита Мирзаев,1989-05-25,Russia,Yes,B,Raw,M,O,97.5,100,,,,,,135,145,-150,145,,,,,,,145
17,Slava Gaprindashvili,Слава Гаприндашвили,1987-12-22,Russia,Yes,B,Raw,M,O,94,100,,,,,,140,-155,-162.5,140,,,,,,,140
18,Evgeniy Serebrennikov,Евгений Серебренников,1983-04-04,Russia,Yes,B,Raw,M,O,98.5,100,,,,,,130,140,-145,140,,,,,,,140
DQ,Andrey Germanovich,Андрей Германович,1979-03-09,Russia,Yes,B,Raw,M,O,98.3,100,,,,,,-162.5,-162.5,,,,,,,,,
DQ,Vyacheslav Konovalenko,Вячеслав Коноваленко,1973-10-24,Russia,Yes,B,Raw,M,O,98.7,100,,,,,,-155,-155,,,,,,,,,
1,Vasiliy Synkov,Василий Сынков,1972-09-07,Russia,Yes,B,Raw,M,M1,98.8,100,,,,,,185,195.5,200,200,,,,,,,200
2,Aleksey Isakov,Алексей Исаков,1972-02-16,Russia,Yes,B,Raw,M,M1,100,100,,,,,,180,185,-190,185,,,,,,,185
3,Dmitriy Bibanaev,Дмитрий Бибанаев,1972-08-02,Russia,Yes,B,Raw,M,M1,97.8,100,,,,,,160,165,167.5,167.5,,,,,,,167.5
4,Igor Andreev,Игорь Андреев,1971-04-26,Russia,Yes,B,Raw,M,M1,90.6,100,,,,,,110,120,130,130,,,,,,,130
1,Aleksandr Pastushenko,Александр Пастушенко,1966-10-30,Russia,Yes,B,Raw,M,M2,95.4,100,,,,,,175,180,185,185,,,,,,,185
2,Gennadiy Dortman,Геннадий Дортман,1965-05-15,Russia,Yes,B,Raw,M,M2,96.6,100,,,,,,140,150,-155,150,,,,,,,150
3,Vadim Klyachenkov,Вадим Кляченков,1966-06-18,Russia,Yes,B,Raw,M,M2,100,100,,,,,,130,135,-140,135,,,,,,,135
4,Aleksandr Kiselev,Александр Киселев,1968-03-28,Russia,Yes,B,Raw,M,M2,92.5,100,,,,,,100,-107.5,,100,,,,,,,100
1,Aleksandr Kyubbar,Александр Кюббар,1960-05-23,Russia,Yes,B,Raw,M,M3,92.5,100,,,,,,110,115,-120,115,,,,,,,115
1,Grigoriy Kalinin,Григорий Калинин,1950-11-19,Russia,Yes,B,Raw,M,M5,98.5,100,,,,,,140,-150,-150,140,,,,,,,140
1,Ilya Epikhin,Илья Епихин,1996-05-08,Russia,Yes,B,Raw,M,T2,105.7,110,,,,,,110,-120,120,120,,,,,,,120
1,Vladimir Samoylov,Владимир Самойлов,1991-05-09,Russia,Yes,B,Raw,M,J,109.5,110,,,,,,-167.5,167.5,170,170,,,,,,,170
2,Anton Ponomarev,Антон Пономарев,1992-02-12,Russia,Yes,B,Raw,M,J,102.5,110,,,,,,132.5,142.5,145,145,,,,,,,145
1,Vitaliy Stolbovoy,Виталий Столбовой,1973-06-14,Russia,Yes,B,Raw,M,O,110,110,,,,,,185,192.5,195,195,,,,,,,195
2,Igor Karapuzov,Игорь Карапузов,1962-07-29,Russia,Yes,B,Raw,M,O,103,110,,,,,,162.5,170,175,175,,,,,,,175
3,Aleksandr Lezin,Александр Лезин,1970-06-03,Russia,Yes,B,Raw,M,O,106.4,110,,,,,,160,167.5,172.5,172.5,,,,,,,172.5
4,Oleg Ilyushin,Олег Илюшин,1984-09-03,Russia,Yes,B,Raw,M,O,108.3,110,,,,,,160,167.5,172.5,172.5,,,,,,,172.5
5,Evgeniy Chigirov,Евгений Чигиров,1974-02-13,Russia,Yes,B,Raw,M,O,110,110,,,,,,162.5,167.5,170,170,,,,,,,170
6,Sergey Manzyrev,Сергей Манзырев,1986-01-22,Russia,Yes,B,Raw,M,O,100.5,110,,,,,,-165,165,-170,165,,,,,,,165
7,Sergey Sharovatov,Сергей Шароватов,1978-02-22,Russia,Yes,B,Raw,M,O,105.3,110,,,,,,155,-167.5,-167.5,155,,,,,,,155
8,Anton Ponomarev,Антон Пономарев,1992-02-12,Russia,Yes,B,Raw,M,O,102.5,110,,,,,,132.5,142.5,145,145,,,,,,,145
9,Dmitriy Gritsunov,Дмитрий Грицунов,1977-02-24,Russia,Yes,B,Raw,M,O,109.6,110,,,,,,132.5,-140,-140,132.5,,,,,,,132.5
1,Vitaliy Stolbovoy,Виталий Столбовой,1973-06-14,Russia,Yes,B,Raw,M,M1,110,110,,,,,,185,192.5,195,195,,,,,,,195
2,Oleg Rybalkin,Олег Рыбалкин,1971-10-07,Russia,Yes,B,Raw,M,M1,106.1,110,,,,,,-175,175,177.5,177.5,,,,,,,177.5
3,Aleksandr Lezin,Александр Лезин,1970-06-03,Russia,Yes,B,Raw,M,M1,106.4,110,,,,,,160,167.5,172.5,172.5,,,,,,,172.5
4,Evgeniy Guber,Евгений Губер,1971-05-01,Russia,Yes,B,Raw,M,M1,102.3,110,,,,,,165,-167.5,167.5,167.5,,,,,,,167.5
1,Igor Karapuzov,Игорь Карапузов,1962-07-29,Russia,Yes,B,Raw,M,M3,103,110,,,,,,162.5,170,175,175,,,,,,,175
2,Aleksandr Novopashin,Александр Новопашин,1962-07-26,Russia,Yes,B,Raw,M,M3,102.2,110,,,,,,115,125,-132.5,125,,,,,,,125
1,Vasiliy Tolbakov,Василий Тольбаков,1955-02-02,Russia,Yes,B,Raw,M,M4,107.3,110,,,,,,110,115,-120,115,,,,,,,115
1,Anton Genkin,Антон Генкин,1976-06-05,Russia,Yes,B,Raw,M,O,119.9,125,,,,,,200,210,-220,210,,,,,,,210
2,Aleksandr Emelyanov,Александр Емельянов,1984-02-18,Russia,Yes,B,Raw,M,O,120.2,125,,,,,,177.5,-182.5,-182.5,177.5,,,,,,,177.5
1,Mikhail Kekalo,Михаил Кекало,1983-11-17,Russia,Yes,B,Raw,M,O,130,140,,,,,,200,205,210,210,,,,,,,210
2,Vadim Simonov,Вадим Симонов,1977-06-03,Russia,Yes,B,Raw,M,O,128,140,,,,,,190,-200,-200,190,,,,,,,190
3,Roman Khivrin,Роман Хиврин,1978-04-08,Russia,Yes,B,Raw,M,O,131.9,140,,,,,,175,-180,180,180,,,,,,,180
4,Dmitriy Mikheev,Дмитрий Михеев,1976-05-19,Russia,Yes,B,Raw,M,O,127.1,140,,,,,,165,170,-175,170,,,,,,,170
5,Ilya Martysyuk,Илья Мартысюк,1981-11-01,Russia,Yes,B,Raw,M,O,131.7,140,,,,,,100,-110,-110,100,,,,,,,100
1,Dmitriy Karavan,Дмитрий Караван,1976-03-17,Russia,Yes,B,Raw,M,O,164.1,140+,,,,,,217.5,222.5,225,225,,,,,,,225
2,Pavel Filatov,Павел Филатов,1984-01-20,Russia,Yes,B,Raw,M,O,140.3,140+,,,,,,160,172.5,-182.5,172.5,,,,,,,172.5
1,Alena Pustovarova,Алена Пустоварова,1988-06-27,Russia,Yes,B,Single-ply,F,O,51.7,52,,,,,,67.5,72.5,-75,72.5,,,,,,,72.5
2,Anna Isakova,Анна Исакова,1988-11-08,Russia,Yes,B,Single-ply,F,O,51.5,52,,,,,,57.5,-62.5,-62.5,57.5,,,,,,,57.5
1,Tatyana Babko,Татьяна Бабко,1981-01-01,Russia,Yes,B,Single-ply,F,O,56,56,,,,,,70,75,-77.5,75,,,,,,,75
1,Ichinnorov Darkhanbaatar,,1989-04-14,Mongolia,Yes,B,Single-ply,F,O,73.9,75,,,,,,135,145,-150,145,,,,,,,145
1,Vadim Sokushev,Вадим Сокушев,1990-03-28,Russia,Yes,B,Single-ply,M,J,50,52,,,,,,115,127.5,-135,127.5,,,,,,,127.5
1,Vadim Sokushev,Вадим Сокушев,1990-03-28,Russia,Yes,B,Single-ply,M,O,50,52,,,,,,115,127.5,-135,127.5,,,,,,,127.5
1,Battamir Batzaan,,1995-11-28,Mongolia,Yes,B,Single-ply,M,T2,58.1,60,,,,,,60,77.5,,77.5,,,,,,,77.5
1,Barsbold Tunsee,,1995-08-24,Mongolia,Yes,B,Single-ply,M,T2,66.2,67.5,,,,,,100,-110,,100,,,,,,,100
1,Bayarbaatar Batgerel,,1991-10-01,Mongolia,Yes,B,Single-ply,M,J,66.7,67.5,,,,,,160,170,-185,170,,,,,,,170
2,Ayurbold Gansukh,,1991-08-27,Mongolia,Yes,B,Single-ply,M,J,64.1,67.5,,,,,,150,-160,-160,150,,,,,,,150
1,Bayarbaatar Batgerel,,1991-10-01,Mongolia,Yes,B,Single-ply,M,O,66.7,67.5,,,,,,160,170,-185,170,,,,,,,170
2,Artur Volchanskiy,Артур Волчанский,1988-11-11,Russia,Yes,B,Single-ply,M,O,67.5,67.5,,,,,,135,140,,140,,,,,,,140
1,Vladislav Chigirov,Владислав Чигиров,1996-08-05,Russia,Yes,B,Single-ply,M,T2,73.1,75,,,,,,-85,85,90,90,,,,,,,90
1,Vadim Berezov,Вадим Березов,1990-11-13,Russia,Yes,B,Single-ply,M,J,74.8,75,,,,,,-190,197.5,-205,197.5,,,,,,,197.5
2,Semen Kolushenkov,Семен Колушенков,1991-09-30,Russia,Yes,B,Single-ply,M,J,71,75,,,,,,-170,170,-197.5,170,,,,,,,170
3,Berdmurat Avdalkhamid,,1992-01-01,Mongolia,Yes,B,Single-ply,M,J,73.9,75,,,,,,150,160,-172.5,160,,,,,,,160
1,Kostas Telidis,Костас Телидис,1989-04-18,Russia,Yes,B,Single-ply,M,O,74,75,,,,,,185,197.5,205.5,205.5,207.5,,,,,,205.5
2,Sergey Kalabukhov,Сергей Калабухов,1984-08-19,Russia,Yes,B,Single-ply,M,O,75,75,,,,,,147.5,-155,-155,147.5,,,,,,,147.5
DQ,Evgeniy Zuev,Евгений Зуев,1985-07-11,Russia,Yes,B,Single-ply,M,O,73.3,75,,,,,,-190,-195,-200,,,,,,,,
1,Igor Bashtanov,Игорь Баштанов,1967-01-30,Russia,Yes,B,Single-ply,M,M2,72.9,75,,,,,,-140,140,-147.5,140,,,,,,,140
1,Namkhaydorzh Dash,,1952-03-03,Mongolia,Yes,B,Single-ply,M,M5,72.3,75,,,,,,90,-110,-110,90,,,,,,,90
1,Tsegmed Byambaa,,1940-05-09,Mongolia,Yes,B,Single-ply,M,M7,73.7,75,,,,,,75,-92.5,,75,,,,,,,75
1,Maksim Sergeev,Максим Сергеев,1992-07-08,Russia,Yes,B,Single-ply,M,J,78.5,82.5,,,,,,150,-162.5,-162.5,150,,,,,,,150
1,Aleksandr Taranenko,Александр Тараненко,1987-05-05,Russia,Yes,B,Single-ply,M,O,77.9,82.5,,,,,,-180,185,-200,185,,,,,,,185
2,Dmitriy Kondaurov,Дмитрий Кондауров,1989-07-19,Russia,Yes,B,Single-ply,M,O,79.6,82.5,,,,,,-172.5,-172.5,172.5,172.5,,,,,,,172.5
3,Evgeniy Pikuzo,Евгений Пикузо,1988-06-27,Russia,Yes,B,Single-ply,M,O,80.4,82.5,,,,,,-160,-160,162.5,162.5,,,,,,,162.5
4,Sergey Vorm,Сергей Ворм,1984-08-20,Russia,Yes,B,Single-ply,M,O,80.6,82.5,,,,,,145,155,160,160,,,,,,,160
1,Boris Kozhin,Борис Кожин,1960-05-03,Russia,Yes,B,Single-ply,M,M3,82.5,82.5,,,,,,150,-162.5,162.5,162.5,,,,,,,162.5
2,Konstantin Smirnov,Константин Смирнов,1962-07-15,Russia,Yes,B,Single-ply,M,M3,81.7,82.5,,,,,,140,-152.5,152.5,152.5,,,,,,,152.5
1,Maamchuluun Tseveendorzh,,1946-06-08,Mongolia,Yes,B,Single-ply,M,M6,80.5,82.5,,,,,,120,130,-140,130,,,,,,,130
1,Anatoliy Rozenshteyn,Анатолий Розенштейн,1985-11-04,Russia,Yes,B,Single-ply,M,O,83.8,90,,,,,,-185,185,-195,185,,,,,,,185
2,Evgeniy Svoboda,Евгений Свобода,1972-03-23,Russia,Yes,B,Single-ply,M,O,88.1,90,,,,,,160,170,175,175,,,,,,,175
3,Andrey Shmakov,Андрей Шмаков,1986-12-24,Russia,Yes,B,Single-ply,M,O,87.8,90,,,,,,-145,150,155,155,,,,,,,155
DQ,Artem Bykhovets,Артем Быховец,1983-07-19,Russia,Yes,B,Single-ply,M,O,89.8,90,,,,,,-215,-230,-230,,,,,,,,
1,Evgeniy Svoboda,Евгений Свобода,1972-03-23,Russia,Yes,B,Single-ply,M,M1,88.1,90,,,,,,160,170,175,175,,,,,,,175
2,Sergey Boldin,Сергей Болдин,1971-05-31,Russia,Yes,B,Single-ply,M,M1,88.1,90,,,,,,150,160,-162.5,160,,,,,,,160
1,Mikhail Levchenko #1,Михаил Левченко,1960-07-03,Russia,Yes,B,Single-ply,M,M3,88,90,,,,,,140,150,,150,,,,,,,150
1,Evgeniy Barinov,Евгений Баринов,1990-02-19,Russia,Yes,B,Single-ply,M,J,90.3,100,,,,,,-140,140,-165,140,,,,,,,140
1,Vasiliy Synkov,Василий Сынков,1972-09-07,Russia,Yes,B,Single-ply,M,O,98.8,100,,,,,,247.5,255,260,260,,,,,,,260
2,Georgiy Paradiz,Георгий Парадиз,1975-05-14,Russia,Yes,B,Single-ply,M,O,95,100,,,,,,240,250,255,255,,,,,,,255
3,Ilya Nazarov,Илья Назаров,1980-09-22,Russia,Yes,B,Single-ply,M,O,98,100,,,,,,175,187.5,-190,187.5,,,,,,,187.5
DQ,Andrey Nazarenko,Андрей Назаренко,1986-02-21,Russia,Yes,B,Single-ply,M,O,96.2,100,,,,,,-230,-230,-247.5,,,,,,,,
1,Vasiliy Synkov,Василий Сынков,1972-09-07,Russia,Yes,B,Single-ply,M,M1,98.8,100,,,,,,247.5,255,260,260,,,,,,,260
1,Aleksandr Kiselev,Александр Киселев,1968-03-28,Russia,Yes,B,Single-ply,M,M2,92.5,100,,,,,,115,120,125,125,,,,,,,125
1,Valeriy Verkholantsev,Валерий Верхоланцев,1953-11-24,Russia,Yes,B,Single-ply,M,M4,96.9,100,,,,,,155,-162.5,-162.5,155,,,,,,,155
1,Khatbaatar Buyandalay,,1990-01-06,Mongolia,Yes,B,Single-ply,M,J,104.6,110,,,,,,-155,-157.5,157.5,157.5,,,,,,,157.5
1,Mikhail Abrashkin,Михаил Абрашкин,1983-07-19,Russia,Yes,B,Single-ply,M,O,106.5,110,,,,,,245,255,260,260,,,,,,,260
2,Konstantin Zakharov,Константин Захаров,1981-06-22,Russia,Yes,B,Single-ply,M,O,103.7,110,,,,,,205,215,227.5,227.5,,,,,,,227.5
3,Denis Grigorev,Денис Григорьев,1982-08-07,Russia,Yes,B,Single-ply,M,O,105.6,110,,,,,,200,217.5,-230,217.5,,,,,,,217.5
4,Evgeniy Chigirov,Евгений Чигиров,1974-02-13,Russia,Yes,B,Single-ply,M,O,110,110,,,,,,-200,-200,200,200,,,,,,,200
1,Aleksandr Medvedev,Александр Медведев,1971-12-14,Russia,Yes,B,Single-ply,M,M1,107.1,110,,,,,,225,230,-235,230,,,,,,,230
DQ,Vitaliy Gritskevich,Виталий Грицкевич,1969-05-17,Russia,Yes,B,Single-ply,M,M1,107.2,110,,,,,,-217.5,-217.5,-227.5,,,,,,,,
1,Aleksey Gorbunov,Алексей Горбунов,1979-09-07,Russia,Yes,B,Single-ply,M,O,138.2,140,,,,,,237.5,-245,-252.5,237.5,,,,,,,237.5
1,Natalya Nelyubina,,1987-08-28,Kazakhstan,No,B,Raw,F,O,50.8,52,,,,,,35,40,-42.5,40,,,,,,,40
1,Natalya Konovalova,Наталья Коновалова,1988-09-14,Russia,No,B,Raw,F,O,55.2,56,,,,,,105,-110,112.5,112.5,117.5,,,,,,112.5
1,Natalya Konovalova,Наталья Коновалова,1989-10-01,Russia,No,B,Raw,F,J,66.9,67.5,,,,,,-55,55,60,60,,,,,,,60
1,Dilmurat Mamadzhanov,Дилмурат Мамаджанов,1995-01-13,Russia,No,B,Raw,M,T3,66.7,67.5,,,,,,-85,90,-97.5,90,,,,,,,90
1,Evgeniy Sinko,Евгений Синько,1981-10-07,Russia,No,B,Raw,M,O,66.3,67.5,,,,,,145,-152.5,-152.5,145,,,,,,,145
2,Ivan Sivkov,Иван Сивков,1988-12-10,Russia,No,B,Raw,M,O,67.5,67.5,,,,,,120,-130,-130,120,,,,,,,120
1,Vladimir Sviderskiy,Владимир Свидерский,1951-05-07,Russia,No,B,Raw,M,M5,66.3,67.5,,,,,,82.5,87.5,92.5,92.5,,,,,,,92.5
1,Dmitriy Yanovskiy,Дмитрий Яновский,1996-04-17,Russia,No,B,Raw,M,T2,70.6,75,,,,,,130,135,140,140,145,,,,,,140
1,Denis Makeev,Денис Макеев,,Russia,No,B,Raw,M,O,74.8,75,,,,,,155,162.5,170,170,,,,,,,170
2,Yuriy Glazkov,Юрий Глазков,1983-09-19,Russia,No,B,Raw,M,O,74.8,75,,,,,,-120,-130,130,130,,,,,,,130
3,Vyacheslav Makarov,Вячеслав Макаров,1974-05-17,Russia,No,B,Raw,M,O,75,75,,,,,,125,-135,-135,125,,,,,,,125
1,Aleksey Semenov,Алексей Семенов,1980-05-04,Russia,No,B,Raw,M,O,80,82.5,,,,,,-190,190,-200,190,,,,,,,190
2,Igor Ryzhov,Игорь Рыжов,1985-10-24,Russia,No,B,Raw,M,O,82.1,82.5,,,,,,185,-197.5,-197.5,185,,,,,,,185
3,Pavel Barts,Павел Барц,1985-06-28,Russia,No,B,Raw,M,O,82.3,82.5,,,,,,180,185,-190,185,,,,,,,185
4,Viktor Sevostyanov,Виктор Севостьянов,1983-01-06,Russia,No,B,Raw,M,O,80.9,82.5,,,,,,150,160,165,165,,,,,,,165
5,Stanislav Shestakov,Станислав Шестаков,1982-04-11,Russia,No,B,Raw,M,O,81.9,82.5,,,,,,-140,147.5,-150,147.5,,,,,,,147.5
6,Mikhail Mesekha,Михаил Месеха,1985-03-22,Russia,No,B,Raw,M,O,80.3,82.5,,,,,,135,-145,145,145,,,,,,,145
7,Daniil Krasilnikov,Даниил Красильников,1989-02-02,Russia,No,B,Raw,M,O,81.9,82.5,,,,,,137.5,-147.5,-147.5,137.5,,,,,,,137.5
1,Andrey Berkovich,Андрей Беркович,1972-10-07,Russia,No,B,Raw,M,M1,81.5,82.5,,,,,,165,170,-175,170,,,,,,,170
1,Igor Moroz,Игорь Мороз,1965-09-17,Russia,No,B,Raw,M,M2,82.5,82.5,,,,,,-150,150,-160,150,,,,,,,150
1,Sergey Pozynenko,Сергей Позыненко,1961-06-04,Russia,No,B,Raw,M,M3,82.5,82.5,,,,,,160,167.5,172.5,172.5,,,,,,,172.5
1,Roman Maer,Роман Маер,1994-03-05,Russia,No,B,Raw,M,T3,88.9,90,,,,,,-150,150,-180,150,,,,,,,150
1,Yevgeniy Beloval,,1991-12-06,Kazakhstan,No,B,Raw,M,J,85.5,90,,,,,,170,180,190,190,,,,,,,190
2,Vladislav Timokhin,Владислав Тимохин,1993-05-28,Russia,No,B,Raw,M,J,87.1,90,,,,,,-180,180,-195,180,,,,,,,180
3,Aleksandr Smirnov,Александр Смирнов,1991-03-04,Russia,No,B,Raw,M,J,89.9,90,,,,,,170,180,-182.5,180,,,,,,,180
1,Ivan Kudelin,Иван Куделин,1972-08-23,Russia,No,B,Raw,M,O,89.2,90,,,,,,200,210,-215,210,,,,,,,210
2,Yevgeniy Beloval,,1991-12-06,Kazakhstan,No,B,Raw,M,O,85.5,90,,,,,,170,180,190,190,,,,,,,190
3,Vladislav Timokhin,Владислав Тимохин,1993-05-28,Russia,No,B,Raw,M,O,87.1,90,,,,,,-180,180,-195,180,,,,,,,180
4,Sergey Akimov,Сергей Акимов,1984-01-31,Russia,No,B,Raw,M,O,88.8,90,,,,,,170,180,-190,180,,,,,,,180
5,Stepan Borovskiy,Степан Боровский,1986-01-22,Russia,No,B,Raw,M,O,88.8,90,,,,,,-180,180,-190,180,,,,,,,180
6,Maksim Domanskikh,Максим Доманских,1983-01-22,Russia,No,B,Raw,M,O,88.8,90,,,,,,160,-180,-180,160,,,,,,,160
1,Ivan Kudelin,Иван Куделин,1972-08-23,Russia,No,B,Raw,M,M1,89.2,90,,,,,,200,210,-215,210,,,,,,,210
1,Sergey Fedorov,Сергей Федоров,1962-04-27,Russia,No,B,Raw,M,M3,84,90,,,,,,-150,150,-160,150,,,,,,,150
1,Boris Ryazanov,Борис Рязанов,1954-06-13,Russia,No,B,Raw,M,M4,87.2,90,,,,,,147.5,-158.5,,147.5,,,,,,,147.5
1,Valeriy Nugumanov,Валерий Нугуманов,1939-06-25,Russia,No,B,Raw,M,M7,88.2,90,,,,,,100,105,110,110,,,,,,,110
1,Vasiliy Fedyaev,Василий Федяев,1982-10-26,Russia,No,B,Raw,M,O,99.2,100,,,,,,240,250,255.5,255.5,,,,,,,255.5
2,Maksim Svintsov,Максим Свинцов,1987-11-08,Russia,No,B,Raw,M,O,95.4,100,,,,,,200,210,220,220,,,,,,,220
3,Vadim Mikhaylov,Вадим Михайлов,1975-06-16,Russia,No,B,Raw,M,O,97.7,100,,,,,,210,215,220,220,,,,,,,220
4,Anatoliy Doletskiy,Анатолий Долецкий,1984-01-27,Russia,No,B,Raw,M,O,99.5,100,,,,,,210,-220,-222.5,210,,,,,,,210
5,Sergey Martyanov,Сергей Мартьянов,1975-02-25,Russia,No,B,Raw,M,O,98.9,100,,,,,,180,190,-202.5,190,,,,,,,190
6,Ivan Melnik,Иван Мельник,1986-10-03,Russia,No,B,Raw,M,O,99,100,,,,,,175,-190,-190,175,,,,,,,175
1,Igor Lyzhin,Игорь Лыжин,1959-06-19,Russia,No,B,Raw,M,M3,94.6,100,,,,,,175,185,-190,185,,,,,,,185
1,Aleksandr Pozyabkin,Александр Позябкин,1958-03-06,Russia,No,B,Raw,M,M4,93.2,100,,,,,,115,125,-130,125,,,,,,,125
2,Vasiliy Ivanov,Василий Иванов,1955-09-04,Russia,No,B,Raw,M,M4,98.1,100,,,,,,110,115,120,120,,,,,,,120
1,Petr Shtark,Петр Штарк,1983-08-10,Russia,No,B,Raw,M,O,110,110,,,,,,215,225,230,230,,,,,,,230
2,Aleksandr Mantserov,Александр Манцеров,1983-06-13,Russia,No,B,Raw,M,O,107.8,110,,,,,,215,220,,220,,,,,,,220
3,Stanislav Dedevshin,Станислав Дедевшин,1969-09-28,Russia,No,B,Raw,M,O,108.9,110,,,,,,200,212.5,-217.5,212.5,,,,,,,212.5
4,Andrey Komarov,Андрей Комаров,1973-08-18,Russia,No,B,Raw,M,O,103.5,110,,,,,,200,210,-220,210,,,,,,,210
5,Anton Guselnikov,Антон Гусельников,1982-05-02,Russia,No,B,Raw,M,O,103.9,110,,,,,,205,210,-215,210,,,,,,,210
6,Evgeniy Butenko,Евгений Бутенко,1982-10-31,Russia,No,B,Raw,M,O,108,110,,,,,,202.5,210,-227.5,210,,,,,,,210
7,Dmitriy Platonov,Дмитрий Платонов,1986-11-19,Russia,No,B,Raw,M,O,105.1,110,,,,,,185,197.5,200,200,,,,,,,200
8,Andrey Novikov,Андрей Новиков,1978-04-25,Russia,No,B,Raw,M,O,109,110,,,,,,200,-210,-210,200,,,,,,,200
1,Stanislav Dedevshin,Станислав Дедевшин,1969-09-28,Russia,No,B,Raw,M,M1,108.9,110,,,,,,200,212.5,-217.5,212.5,,,,,,,212.5
2,Andrey Komarov,Андрей Комаров,1973-08-18,Russia,No,B,Raw,M,M1,103.5,110,,,,,,200,210,-220,210,,,,,,,210
3,Dmitriy Lalo,Дмитрий Лало,1970-03-07,Russia,No,B,Raw,M,M1,103.1,110,,,,,,-180,185,-195,185,,,,,,,185
DQ,Anton Egorov,Антон Егоров,1969-02-22,Russia,No,B,Raw,M,M1,105.3,110,,,,,,-180,-180,-180,,,,,,,,
1,Aleksey Chernysh,Алексей Черныш,1967-05-10,Russia,No,B,Raw,M,M2,109,110,,,,,,180,190,-200,190,,,,,,,190
1,Evgeniy Stuchkov,Евгений Стучков,1961-06-09,Russia,No,B,Raw,M,M3,106.5,110,,,,,,175,182.5,187.5,187.5,,,,,,,187.5
1,Aleksey Nelyubov,Алексей Нелюбов,1990-10-26,Russia,No,B,Raw,M,J,123.9,125,,,,,,200,210,-215,210,,,,,,,210
1,Evgeniy Zheltenko,Евгений Желтенко,1982-04-21,Russia,No,B,Raw,M,O,119.3,125,,,,,,250,257.5,-265,257.5,,,,,,,257.5
2,Konstantin Elshin,Константин Ельшин,1986-07-19,Russia,No,B,Raw,M,O,120.2,125,,,,,,235,242.5,247.5,247.5,,,,,,,247.5
3,Nikolay Boykov,Николай Бойков,1969-12-17,Russia,No,B,Raw,M,O,119,125,,,,,,220,-227.5,-227.5,220,,,,,,,220
4,Sergey Blokh,Сергей Блох,1973-04-19,Russia,No,B,Raw,M,O,115.9,125,,,,,,215,-220,,215,,,,,,,215
5,Andrey Konenko,Андрей Коненко,1981-03-06,Russia,No,B,Raw,M,O,116,125,,,,,,200,207.5,215,215,,,,,,,215
6,Nikolay Orlov,Николай Орлов,1971-01-05,Russia,No,B,Raw,M,O,117.4,125,,,,,,210,215,-222.5,215,,,,,,,215
7,Roman Nikishin,Роман Никишин,1982-01-19,Russia,No,B,Raw,M,O,124.7,125,,,,,,200,-207.5,207.5,207.5,,,,,,,207.5
8,Andrey Lazarevskiy,Андрей Лазаревский,1983-12-25,Russia,No,B,Raw,M,O,117.5,125,,,,,,-205,205,-212.5,205,,,,,,,205
9,Mikhail Glazunov,Михаил Глазунов,1974-02-09,Russia,No,B,Raw,M,O,121.4,125,,,,,,180,200,-210,200,,,,,,,200
1,Nikolay Boykov,Николай Бойков,1969-12-17,Russia,No,B,Raw,M,M1,119,125,,,,,,220,-227.5,-227.5,220,,,,,,,220
2,Sergey Blokh,Сергей Блох,1973-04-19,Russia,No,B,Raw,M,M1,115.9,125,,,,,,215,-220,,215,,,,,,,215
3,Nikolay Orlov,Николай Орлов,1971-01-05,Russia,No,B,Raw,M,M1,117.4,125,,,,,,210,215,-222.5,215,,,,,,,215
1,Oleg Solovev,Олег Соловьев,1966-09-03,Russia,No,B,Raw,M,M2,111.3,125,,,,,,170,177.5,-182.5,177.5,,,,,,,177.5
1,Aleksandr Elshin,Александр Ельшин,1992-08-17,Russia,No,B,Raw,M,J,128.8,140,,,,,,-180,180,192.5,192.5,,,,,,,192.5
1,Vladimir Mikhin,Владимир Михин,1987-04-22,Russia,No,B,Raw,M,O,129,140,,,,,,-225,-225,230,230,,,,,,,230
2,Sergey Grebenkin,Сергей Гребенкин,1973-12-04,Russia,No,B,Raw,M,O,125.1,140,,,,,,215,-225,-225,215,,,,,,,215
3,Vadim Teterev,Вадим Тетерев,1972-11-10,Russia,No,B,Raw,M,O,131.1,140,,,,,,170,187.5,-190,187.5,,,,,,,187.5
1,Vadim Teterev,Вадим Тетерев,1972-11-10,Russia,No,B,Raw,M,M1,131.1,140,,,,,,170,187.5,-190,187.5,,,,,,,187.5
1,Andrey Karpenkov,Андрей Карпенков,1991-10-03,Russia,No,B,Raw,M,J,150.4,140+,,,,,,-200,202.5,-210,202.5,,,,,,,202.5
1,Maxim Osipov,,1982-04-03,Kazakhstan,No,B,Raw,M,O,145.4,140+,,,,,,220,230,-240,230,,,,,,,230
1,Sofiya Nechaeva,София Нечаева,2001-08-14,Russia,No,B,Single-ply,F,T1,35.8,44,,,,,,40,-47.5,-47.5,40,,,,,,,40
1,Darya Markova,Дарья Маркова,1995-04-27,Russia,No,B,Single-ply,F,T3,48,48,,,,,,90,-100,-100,90,,,,,,,90
1,Elvira Zaripova,Эльвира Зарипова,2001-03-05,Russia,No,B,Single-ply,F,T1,52,52,,,,,,-52.5,52.5,-57.5,52.5,,,,,,,52.5
1,Darima Kudrya,Дарима Кудря,1976-05-10,Russia,No,B,Single-ply,F,O,56,56,,,,,,-92.5,92.5,97.5,97.5,,,,,,,97.5
1,Oksana Sova,Оксана Сова,1977-02-19,Russia,No,B,Single-ply,F,O,63,67.5,,,,,,90,97.5,100,100,,,,,,,100
1,Ivan Sivkov,Иван Сивков,1988-12-10,Russia,No,B,Single-ply,M,O,67.5,67.5,,,,,,-150,150,157.5,157.5,,,,,,,157.5
DQ,Daniil Ogly,Даниил Оглы,1991-05-29,Russia,No,B,Single-ply,M,J,74.1,75,,,,,,-160,-160,-160,,,,,,,,
1,Mark Spitsin,Марк Спицин,1989-06-06,Russia,No,B,Single-ply,M,O,75,75,,,,,,165,-175,-175,165,,,,,,,165
2,Vyacheslav Makarov,Вячеслав Макаров,1979-05-17,Russia,No,B,Single-ply,M,O,75,75,,,,,,-145,145,-155,145,,,,,,,145
1,Konstantin Semenov,Константин Семенов,1964-08-24,Russia,No,B,Single-ply,M,M2,73.7,75,,,,,,-175,175,177.5,177.5,,,,,,,177.5
1,Maksim Shukhalov,Максим Шухалов,1986-10-23,Russia,No,B,Single-ply,M,O,81.8,82.5,,,,,,180,190,202.5,202.5,,,,,,,202.5
2,Aleksandr Sorokin,Александр Сорокин,1980-05-29,Russia,No,B,Single-ply,M,O,80.3,82.5,,,,,,200,-210,-210,200,,,,,,,200
3,Dmitriy Savchenko,Дмитрий Савченко,1981-08-03,Russia,No,B,Single-ply,M,O,81.2,82.5,,,,,,150,165,175,175,,,,,,,175
DQ,Andrey Tomasik,Андрей Томасик,1987-12-14,Russia,No,B,Single-ply,M,O,82.2,82.5,,,,,,-190,,,,,,,,,,
1,Sergey Pozynenko,Сергей Позыненко,1961-04-06,Russia,No,B,Single-ply,M,M3,82.5,82.5,,,,,,175,-182.5,190,190,,,,,,,190
1,Petr Makhov,Петр Махов,1993-11-15,Russia,No,B,Single-ply,M,T3,89.8,90,,,,,,180,190,-195,190,,,,,,,190
1,Dmitriy Khovanskiy,Дмитрий Хованский,1986-05-26,Russia,No,B,Single-ply,M,O,89,90,,,,,,-245,245,255,255,,,,,,,255
2,Yuriy Korikov,Юрий Кориков,1962-04-24,Russia,No,B,Single-ply,M,O,88.3,90,,,,,,210,-220,220,220,,,,,,,220
DQ,Aleksandr Savin,Александр Савин,1986-06-01,Russia,No,B,Single-ply,M,O,90,90,,,,,,-220,-220,-220,,,,,,,,
1,Yuriy Korikov,Юрий Кориков,1962-04-24,Russia,No,B,Single-ply,M,M3,88.3,90,,,,,,210,-220,220,220,,,,,,,220
1,Pavel Isakov,Павел Исаков,1980-11-04,Russia,No,B,Single-ply,M,O,99.3,100,,,,,,260,270,-280,270,,,,,,,270
2,Mikhail Ryzhkin,Михаил Рыжкин,1984-08-12,Russia,No,B,Single-ply,M,O,98.4,100,,,,,,230,250,-270,250,,,,,,,250
3,Vladimir Stepanov,Владимир Степанов,1980-12-02,Russia,No,B,Single-ply,M,O,99.7,100,,,,,,-180,180,190,190,,,,,,,190
1,Vladimir Fil,Владимир Филь,1976-12-21,Russia,No,B,Single-ply,M,O,109.5,110,,,,,,-270,280,292.5,292.5,,,,,,,292.5
2,Denis Murin,Денис Мурин,1979-09-17,Russia,No,B,Single-ply,M,O,109.9,110,,,,,,-250,250,-260,250,,,,,,,250
3,Stanislav Dedevshin,Станислав Дедевшин,1969-09-28,Russia,No,B,Single-ply,M,O,108.9,110,,,,,,230,235,240,240,,,,,,,240
4,Andrey Novikov,Андрей Новиков,1978-04-25,Russia,No,B,Single-ply,M,O,109,110,,,,,,235,240,-250,240,,,,,,,240
1,Stanislav Dedevshin,Станислав Дедевшин,1969-09-28,Russia,No,B,Single-ply,M,M1,108.9,110,,,,,,230,235,240,240,,,,,,,240
1,Oleg Borisov,Олег Борисов,1971-11-14,Russia,No,B,Single-ply,M,O,114.8,125,,,,,,285,300,-312.5,300,,,,,,,300
2,Georgiy Lopatskiy,Георгий Лопацкий,1962-05-16,Russia,No,B,Single-ply,M,O,124.4,125,,,,,,-260,265,275,275,,,,,,,275
3,Sergey Blokh,Сергей Блох,1973-04-19,Russia,No,B,Single-ply,M,O,115.9,125,,,,,,250,260,-270,260,,,,,,,260
4,Dmitriy Pastukhov,Дмитрий Пастухов,1988-06-13,Russia,No,B,Single-ply,M,O,118.1,125,,,,,,-247.5,247.5,-262.5,247.5,,,,,,,247.5
5,Dmitriy Fedorov,Дмитрий Федоров,1976-01-01,Russia,No,B,Single-ply,M,O,116.3,125,,,,,,-195,-205,215,215,,,,,,,215
1,Oleg Borisov,Олег Борисов,1971-11-14,Russia,No,B,Single-ply,M,M1,114.8,125,,,,,,285,300,-312.5,300,,,,,,,300
2,Sergey Blokh,Сергей Блох,1973-04-19,Russia,No,B,Single-ply,M,M1,115.9,125,,,,,,250,260,-270,260,,,,,,,260
1,Oleg Solovev,Олег Соловьев,1966-09-03,Russia,No,B,Single-ply,M,M2,111.3,125,,,,,,195,-202.5,-202.5,195,,,,,,,195
1,Georgiy Lopatskiy,Георгий Лопацкий,1962-05-16,Russia,No,B,Single-ply,M,M3,124.4,125,,,,,,-260,265,275,275,,,,,,,275
1,Anastasiya Noskova,Анастасия Носкова,1984-02-14,Russia,Yes,D,Raw,F,O,54.4,56,,,,,,,,,,,127.5,135,142.5,142.5,-147.5,142.5
1,Svetlana Ilyasova,Светлана Ильясова,1975-03-25,Russia,Yes,D,Raw,F,O,60,60,,,,,,,,,,,90,110,,110,,110
1,Anastasiya Tishchenko,Анастасия Тищенко,1990-04-06,Russia,Yes,D,Raw,F,J,65.6,67.5,,,,,,,,,,,85,95,-102.5,95,,95
1,Dmitriy Abdulin,Дмитрий Абдулин,1999-11-24,Russia,Yes,D,Raw,M,T1,40.3,52,,,,,,,,,,,60,70,,70,,70
1,Maksim Kutyavin,Максим Кутявин,1988-12-19,Russia,Yes,D,Raw,M,O,56,56,,,,,,,,,,,152.5,-162.5,162.5,162.5,167.5,162.5
1,Aleksey Ryzhikh,Алексей Рыжих,1998-04-28,Russia,Yes,D,Raw,M,T1,62.8,67.5,,,,,,,,,,,125,135,145,145,,145
1,Nikita Mordachev,Никита Мордачев,1996-06-15,Russia,Yes,D,Raw,M,T2,66.1,67.5,,,,,,,,,,,165,-190,190,190,,190
2,Barsbold Tunsee,,1995-08-24,Mongolia,Yes,D,Raw,M,T2,66.2,67.5,,,,,,,,,,,150,170,182.5,182.5,,182.5
3,Evgeniy Volokhin,Евгений Волохин,1997-07-26,Russia,Yes,D,Raw,M,T2,65.5,67.5,,,,,,,,,,,165,-190,-190,165,,165
4,Anton Voronin,Антон Воронин,1997-08-06,Russia,Yes,D,Raw,M,T2,66.5,67.5,,,,,,,,,,,155,165,,165,,165
5,Evgeniy Romanov,Евгений Романов,1997-08-04,Russia,Yes,D,Raw,M,T2,65,67.5,,,,,,,,,,,135,145,-152.5,145,,145
1,Sergey Shpilev,Сергей Шпилев,1995-03-09,Russia,Yes,D,Raw,M,T3,65.7,67.5,,,,,,,,,,,155,165,170,170,,170
2,Dmitriy Chakilev,Дмитрий Чакилев,1995-01-16,Russia,Yes,D,Raw,M,T3,64.3,67.5,,,,,,,,,,,130,135,-142.5,135,,135
1,Amarbat Batmagnay,,1990-05-22,Mongolia,Yes,D,Raw,M,J,67.4,67.5,,,,,,,,,,,230,240,-251,240,,240
2,Sergey Zagarskiy,Сергей Загарский,1989-11-20,Russia,Yes,D,Raw,M,J,67.5,67.5,,,,,,,,,,,170,190,-195,190,,190
1,Amarbat Batmagnay,,1990-05-22,Mongolia,Yes,D,Raw,M,O,67.4,67.5,,,,,,,,,,,230,240,-251,240,,240
2,Barsbold Tunsee,,1995-08-24,Mongolia,Yes,D,Raw,M,O,66.2,67.5,,,,,,,,,,,150,170,182.5,182.5,,182.5
3,Nikolay Kraev,Николай Краев,1977-01-29,Russia,Yes,D,Raw,M,O,66.3,67.5,,,,,,,,,,,135,145,150,150,,150
1,Vladislav Medvedev,Владислав Медведев,1996-09-05,Russia,Yes,D,Raw,M,T2,75,75,,,,,,,,,,,165,177.5,-202.5,177.5,,177.5
1,Ilya Kurbatov,Илья Курбатов,1994-09-22,Russia,Yes,D,Raw,M,T3,73.1,75,,,,,,,,,,,220,232.5,-265,232.5,,232.5
1,Bermurat Avdalkhamid,,1992-01-01,Mongolia,Yes,D,Raw,M,J,73.9,75,,,,,,,,,,,230,240,,240,,240
2,Artem Golubig,Артем Голубиг,1990-06-25,Mongolia,Yes,D,Raw,M,J,71.1,75,,,,,,,,,,,160,180,190,190,,190
3,Evgeniy Kiselev,Евгений Киселев,1990-08-06,Russia,Yes,D,Raw,M,J,71.9,75,,,,,,,,,,,180,-190,190,190,,190
4,Khayrullo Saburov,Хайрулло Сабуров,1992-07-29,Russia,Yes,D,Raw,M,J,71.8,75,,,,,,,,,,,130,150,185,185,,185
5,Viktor Kurbatov,Виктор Курбатов,1992-10-23,Russia,Yes,D,Raw,M,J,74.7,75,,,,,,,,,,,180,-202.5,-202.5,180,,180
1,Bermurat Avdalkhamid,,1992-01-01,Mongolia,Yes,D,Raw,M,O,73.9,75,,,,,,,,,,,230,240,,240,,240
2,Kostas Telidis,Костас Телидис,1989-04-18,Russia,Yes,D,Raw,M,O,74,75,,,,,,,,,,,205,-232.5,-232.5,205,,205
1,Valeriy Khomenko,Валерий Хоменко,1951-09-03,Russia,Yes,D,Raw,M,M5,74.4,75,,,,,,,,,,,190,202.5,205,205,,205
2,Namkhaydorzh Dash,,1952-03-03,Mongolia,Yes,D,Raw,M,M5,72.3,75,,,,,,,,,,,170,,,170,,170
1,Tsegmed Byambaa,,1940-05-09,Mongolia,Yes,D,Raw,M,M7,73.7,75,,,,,,,,,,,140,,,140,,140
1,Sergey Gurkovskiy,Сергей Гурковский,1990-08-17,Russia,Yes,D,Raw,M,J,77.9,82.5,,,,,,,,,,,220,235,245,245,,245
2,Mikhail Kovalev,Михаил Ковалев,1990-04-04,Russia,Yes,D,Raw,M,J,82.4,82.5,,,,,,,,,,,-120,120,140,140,,140
1,Andrey Tanakov,Андрей Танаков,1976-02-06,Russia,Yes,D,Raw,M,O,81,82.5,,,,,,,,,,,240,250,252.5,252.5,,252.5
2,Sergey Gurkovskiy,Сергей Гурковский,1990-08-17,Russia,Yes,D,Raw,M,O,77.9,82.5,,,,,,,,,,,220,235,245,245,,245
3,Boris Levitan,Борис Левитан,1975-04-24,Russia,Yes,D,Raw,M,O,82,82.5,,,,,,,,,,,230,-245,,230,,230
4,Dmitriy Zharkov,Дмитрий Жарков,1979-12-13,Russia,Yes,D,Raw,M,O,81.5,82.5,,,,,,,,,,,-215,215,-222.5,215,,215
5,Nikolay Akhundov,Николай Ахундов,1989-06-20,Russia,Yes,D,Raw,M,O,79,82.5,,,,,,,,,,,185,200,-215,200,,200
6,Dmitriy Kashchavtsev,Дмитрий Кащавцев,1981-06-04,Russia,Yes,D,Raw,M,O,81.7,82.5,,,,,,,,,,,180,200,-215,200,,200
1,Maamchullun Tseveendorzh,,1946-06-08,Mongolia,Yes,D,Raw,M,M6,80.5,82.5,,,,,,,,,,,160,190,,190,,190
2,Nikolay Bachurin,Николай Бачурин,1948-06-30,Russia,Yes,D,Raw,M,M6,80.5,82.5,,,,,,,,,,,-180,180,-190,180,,180
1,Daniil Novikov,Даниил Новиков,1996-03-27,Russia,Yes,D,Raw,M,T2,89.4,90,,,,,,,,,,,180,195,205,205,,205
1,Igor Umerenkov,Игорь Умеренков,1980-09-13,Russia,Yes,D,Raw,M,O,90,90,,,,,,,,,,,252.5,267.5,-290,267.5,,267.5
2,Daniil Novikov,Даниил Новиков,1996-03-27,Russia,Yes,D,Raw,M,O,89.4,90,,,,,,,,,,,180,195,205,205,,205
1,Evgeniy Svoboda,Евгений Свобода,1972-03-23,Russia,Yes,D,Raw,M,M1,88.1,90,,,,,,,,,,,170,200,,200,,200
1,Andrey Sobolev,Андрей Соболев,1968-01-11,Russia,Yes,D,Raw,M,M2,85.3,90,,,,,,,,,,,160,180,-195,180,,180
1,Pavel Berezentsev,Павел Березенцев,1983-08-08,Russia,Yes,D,Raw,M,O,92.3,100,,,,,,,,,,,242.5,257.5,265,265,,265
2,Andrey Germanovich,Андрей Германович,1979-03-09,Russia,Yes,D,Raw,M,O,98.3,100,,,,,,,,,,,232.5,237.5,,237.5,,237.5
3,Dzhamal Akhmadzada,,1984-06-20,Azerbaijan,Yes,D,Raw,M,O,97.7,100,,,,,,,,,,,215,225,235,235,,235
4,Aleksandr Abramov,Александр Абрамов,1987-09-20,Russia,Yes,D,Raw,M,O,100,100,,,,,,,,,,,230,-247.5,-247.5,230,,230
1,Aleksandr Kiselev,Александр Киселев,1968-03-28,Russia,Yes,D,Raw,M,M2,92.5,100,,,,,,,,,,,145,165,170,170,,170
1,Sergey Karelin,Сергей Карелин,1959-08-09,Russia,Yes,D,Raw,M,M3,98.3,100,,,,,,,,,,,190,202.5,207.5,207.5,,207.5
2,Aleksandr Kyubbar,Александр Кюббар,1960-05-23,Russia,Yes,D,Raw,M,M3,92.8,100,,,,,,,,,,,150,170,-190,170,,170
1,Khatbaatar Buyandalay,,1990-01-06,Mongolia,Yes,D,Raw,M,J,104.6,110,,,,,,,,,,,190,210,230,230,,230
1,Sergey Mazanov,Сергей Мазанов,1975-06-18,Russia,Yes,D,Raw,M,O,109.6,110,,,,,,,,,,,280,-295,-295,280,,280
2,Khatbaatar Buyandalay,,1990-01-06,Mongolia,Yes,D,Raw,M,O,104.6,110,,,,,,,,,,,190,210,230,230,,230
1,Svyatoslav Kotik,Святослав Котик,1972-01-14,Russia,Yes,D,Raw,M,M1,108.9,110,,,,,,,,,,,200,220,,220,,220
1,Ilya Shevelev,Илья Шевелев,1997-08-02,Russia,Yes,D,Raw,M,T2,121.4,125,,,,,,,,,,,220,235,-247.5,235,,235
1,Aleksandr Okhrimenko,Александр Охрименко,1992-08-13,Russia,Yes,D,Raw,M,J,121.7,125,,,,,,,,,,,220,235,-247.5,235,,235
DQ,Vladimir Polivanov,Владимир Поливанов,1963-01-20,Russia,Yes,D,Raw,M,M3,116.5,125,,,,,,,,,,,-200,,,,,
1,Otgontuyaa Gongor,,1991-01-09,Mongolia,Yes,D,Single-ply,F,O,63.4,67.5,,,,,,,,,,,170,185,-200,185,,185
1,Battamir Batzaan,,1995-11-28,Mongolia,Yes,D,Single-ply,M,O,58.1,60,,,,,,,,,,,140,152.5,160,160,,160
1,Ayurbold Gansukh,,1991-08-27,Mongolia,Yes,D,Single-ply,M,O,64.1,67.5,,,,,,,,,,,-195,195,212.5,212.5,,212.5
DQ,Artur Zaykov,Артур Зайков,1996-02-28,Russia,Yes,D,Single-ply,M,T2,74.2,75,,,,,,,,,,,-170,,,,,
1,Evgeniy Svoboda,Евгений Свобода,1972-03-23,Russia,Yes,D,Single-ply,M,O,88.1,90,,,,,,,,,,,205,235,,235,,235
1,Andrey Andriychuk,Андрей Андрийчук,1978-10-18,Russia,Yes,D,Single-ply,M,O,98.7,100,,,,,,,,,,,-240,250,265,265,,265
2,Orkhan Akhmadzada,,1988-04-26,Azerbaijan,Yes,D,Single-ply,M,O,99.8,100,,,,,,,,,,,250,260,-267.5,260,,260
3,Mikhail Grinko,Михаил Гринько,1978-02-04,Russia,Yes,D,Single-ply,M,O,98.6,100,,,,,,,,,,,-240,-255,255,255,,255
1,Natalya Nelyubina,,1987-08-28,Kazakhstan,No,D,Raw,F,O,50.8,52,,,,,,,,,,,50,60,70,70,,70
1,Svetlana Sukmanova,Светлана Сукманова,1990-08-01,Russia,No,D,Raw,F,O,81.6,82.5,,,,,,,,,,,100,115,125,125,,125
1,Daniil Shcherbatykh,Даниил Щербатых,1998-03-25,Russia,No,D,Raw,M,T1,67.5,67.5,,,,,,,,,,,100,110,115,115,,115
1,Vladimir Sviderskiy,Владимир Свидерский,1951-05-07,Russia,No,D,Raw,M,M5,66.3,67.5,,,,,,,,,,,140,147.5,151.5,151.5,,151.5
1,Evgeniy Bykov,Евгений Быков,1984-08-02,Russia,No,D,Raw,M,O,73.9,75,,,,,,,,,,,180,195,210,210,,210
1,Gennadiy Chuldenko,Геннадий Чульденко,1948-07-04,Russia,No,D,Raw,M,M6,75,75,,,,,,,,,,,180,200,-210,200,,200
1,Semen Pshenichnikov,Семен Пшеничников,1991-07-08,Russia,No,D,Raw,M,J,79.6,82.5,,,,,,,,,,,240,255,267.5,267.5,,267.5
1,Semen Pshenichnikov,Семен Пшеничников,1991-07-08,Russia,No,D,Raw,M,O,79.6,82.5,,,,,,,,,,,240,255,267.5,267.5,,267.5
2,Viktor Shmatkov,Виктор Шматков,1982-11-05,Russia,No,D,Raw,M,O,78.4,82.5,,,,,,,,,,,160,180,-200,180,,180
1,Delger-Khishig Banzragch,,1980-01-20,Mongolia,No,D,Raw,M,J?,89.3,90,,,,,,,,,,,230,240,-255,240,,240
1,Denis Pazhitnov,Денис Пажитнов,1988-11-10,Russia,No,D,Raw,M,O,89.4,90,,,,,,,,,,,290,305,310,310,,310
2,Delger-Khishig Banzragch,,1980-01-20,Mongolia,No,D,Raw,M,O,89.3,90,,,,,,,,,,,230,240,-255,240,,240
3,Igor Koshcheev,Игорь Кощеев,1979-07-23,Russia,No,D,Raw,M,O,88,90,,,,,,,,,,,195,205,210,210,,210
4,Anton Shkvarskiy,Антон Шкварский,1988-02-22,Russia,No,D,Raw,M,O,86.3,90,,,,,,,,,,,195,-205,-205,195,,195
1,Andrey Belykh,Андрей Белых,1993-09-06,Russia,No,D,Raw,M,T3,98.2,100,,,,,,,,,,,280,-295,-295,280,,280
1,Batdelger Batsukh,,1990-09-20,Mongolia,No,D,Raw,M,J,94.8,100,,,,,,,,,,,245,265,,265,,265
1,Valeriy Kuznetsov,Валерий Кузнецов,1983-08-21,Russia,No,D,Raw,M,O,96.8,100,,,,,,,,,,,260,277.5,285,285,,285
2,Mikhail Makarov,Михаил Макаров,1985-09-23,Russia,No,D,Raw,M,O,97.9,100,,,,,,,,,,,-260,280,-282.5,280,,280
3,Andrey Belykh,Андрей Белых,1993-09-06,Russia,No,D,Raw,M,O,98.2,100,,,,,,,,,,,280,-295,-295,280,,280
4,Aleksandr Merkurev,Александр Меркурьев,1985-12-01,Russia,No,D,Raw,M,O,99.5,100,,,,,,,,,,,260,275,-280,275,,275
1,Anatoliy Cherkashin,Анатолий Черкашин,1987-10-21,Russia,No,D,Raw,M,O,104.3,110,,,,,,,,,,,250,270,-285,270,,270
2,Tsogzoldorzh Dondog,,1974-08-20,Mongolia,No,D,Raw,M,O,103.3,110,,,,,,,,,,,240,260,-275,260,,260
1,Anton Bardin,Антон Бардин,1990-11-17,Russia,No,D,Raw,M,J,119.3,125,,,,,,,,,,,300,310,-322.5,310,,310
1,Sergey Blokh,Сергей Блох,1973-04-19,Russia,No,D,Raw,M,O,116,125,,,,,,,,,,,310,330,-340,330,,330
2,Aleksandr Filimonov,Александр Филимонов,1987-10-13,Russia,No,D,Raw,M,O,115.7,125,,,,,,,,,,,250,270,,270,,270
1,Sergey Blokh,Сергей Блох,1973-04-19,Russia,No,D,Raw,M,M1,116,125,,,,,,,,,,,310,330,-340,330,,330
1,Aleksey Ermakov,Алексей Ермаков,1973-07-03,Russia,No,D,Raw,M,O,131.1,140,,,,,,,,,,,260,-275,,260,,260
1,Aleksey Ermakov,Алексей Ермаков,1973-07-03,Russia,No,D,Raw,M,M1,131.1,140,,,,,,,,,,,260,-275,,260,,260
1,Sergey Tymchenko,Сергей Тымченко,1970-06-09,Kazakhstan,No,D,Raw,M,O,140.2,140+,,,,,,,,,,,265,275,-285,275,,275
1,Sergey Tymchenko,Сергей Тымченко,1970-06-09,Kazakhstan,No,D,Raw,M,M1,140.2,140+,,,,,,,,,,,265,275,-285,275,,275
1,Gankhuyag Erdenee,,1969-12-09,Mongolia,No,D,Single-ply,M,O,81.9,82.5,,,,,,,,,,,220,235,-245,235,,235
2,Denis Sergeev,Денис Сергеев,1991-07-27,Russia,No,D,Single-ply,M,O,82.5,82.5,,,,,,,,,,,215,235,-250,235,,235
