Place,Name,State,WeightClassKg,BodyweightKg,Age,Best3SquatKg,Best3BenchKg,Best3DeadliftKg,TotalKg,Sex,Division,Equipment,Event
1,Priscilla Delmoral,NY,56,55.8,19,112.5,52.5,120,285,F,Junior 18-19,Raw,SBD
1,Darleynne Espinosa,PA,75,73.2,18,140,60,125,325,F,Junior 18-19,Raw,SBD
1,Cora Galanti,NJ,90,88.7,22,137.5,65,145,347.5,F,Junior 20-23,Raw,SBD
1,Christina Ngo,PA,48,46.9,23,100,45,142.5,287.5,F,Open,Raw,SBD
1,Priscilla Delmoral,NY,56,55.8,19,112.5,52.5,120,285,F,Open,Raw,SBD
1,Sarah Gosdin,PA,60,59.3,36,97.5,60,115,272.5,F,Open,Raw,SBD
1,Amber Dufford,PA,67.5,60.7,33,122.5,80,160,362.5,F,Open,Raw,SBD
2,Anita Stauffer,PA,67.5,63.8,29,97.5,50,110,257.5,F,Open,Raw,SBD
1,Devon Keatts,DE,67.5,64.6,35,110,62.5,117.5,290,F,Submaster 35-39,Raw,SBD
1,Erika Hill,PA,75,68.7,43,112.5,57.5,145,315,F,Master 40-44,Raw,SBD
1,Julie Palmer,NY,75,73.3,47,115,55,147.5,317.5,F,Master 45-49,Raw,SBD
1,Anne Krupa,PA,82.5,78.5,65,77.5,32.5,110,220,F,Master 65-69,Raw,SBD
1,Maddox Haas,PA,75,72.5,15,72.5,42.5,125,240,M,Junior 13-15,Raw,SBD
1,Jordy Chen,NY,75,74.3,16,227.5,125,202.5,555,M,Junior 16-17,Raw,SBD
1,Austin Hoffman,PA,75,72.4,23,200,115,235,550,M,Junior 20-23,Raw,SBD
2,Benjamin Borakove,PA,75,74.2,21,170,122.5,192.5,485,M,Junior 20-23,Raw,SBD
1,Zack Scharnikow,PA,82.5,81.9,21,227.5,145,227.5,600,M,Junior 20-23,Raw,SBD
2,Tyler Keen,NJ,82.5,82,22,180,147.5,250,577.5,M,Junior 20-23,Raw,SBD
3,Wesley Cheng,PA,82.5,81.7,22,187.5,110,195,492.5,M,Junior 20-23,Raw,SBD
1,Christopher Booth,PA,90,86.6,22,147.5,102.5,230,480,M,Junior 20-23,Raw,SBD
1,Jake Dunn,PA,100,97,19,230,150,245,625,M,Junior 18-19,Raw,SBD
DQ,Timothy Persad,PA,100,92.8,23,,167.5,287.5,,M,Junior 20-23,Raw,SBD
DQ,Mario Canas,NJ,67.5,67.2,25,182.5,,,,M,Open,Raw,SBD
1,Danny Stachelek,CT,75,72,19,227.5,135,275,637.5,M,Open,Raw,SBD
2,Curtis Henry,PA,75,74.4,35,190,142.5,232.5,565,M,Open,Raw,SBD
1,Zack Scharnikow,PA,82.5,81.9,21,227.5,145,227.5,600,M,Open,Raw,SBD
2,Andrew Arena,PA,82.5,79.6,24,195,157.5,195,547.5,M,Open,Raw,SBD
3,Kristopher Novak,PA,82.5,80.1,29,200,132.5,215,547.5,M,Open,Raw,SBD
4,Jian Wu,NY,82.5,76.6,22,162.5,125,225,512.5,M,Open,Raw,SBD
5,Warren Gosdin,PA,82.5,80.5,29,152.5,107.5,185,445,M,Open,Raw,SBD
1,Marcos Mana,NJ,100,97.5,29,230,187.5,285,702.5,M,Open,Raw,SBD
2,Daniel Fitzpatrick,NJ,100,96.7,29,227.5,160,297.5,685,M,Open,Raw,SBD
3,Jake Dunn,PA,100,97,19,230,150,245,625,M,Open,Raw,SBD
4,Kyle Griesemer,PA,100,95.6,29,210,157.5,242.5,610,M,Open,Raw,SBD
DQ,Timothy Persad,PA,100,92.8,23,,167.5,287.5,,M,Open,Raw,SBD
1,Jacob Dufford,PA,110,105.2,36,230,157.5,265,652.5,M,Open,Raw,SBD
2,Kyle Cross,MD,110,106.3,35,205,140,215,560,M,Open,Raw,SBD
1,Robert Eckhart,PA,125,122.7,45,215,190,277.5,682.5,M,Open,Raw,SBD
1,Travis Hearn,MD,140,135.2,32,300,195,277.5,772.5,M,Open,Raw,SBD
DQ,Roland Wilder,PA,100,96.4,39,200,,210,,M,Submaster 35-39,Raw,SBD
1,Jim McKenna,PA,100,96.9,69,90,135,140,365,M,Master 65-69,Raw,SBD
1,Robert Eckhart,PA,125,122.7,45,215,190,277.5,682.5,M,Master 45-49,Raw,SBD
1,Joshu Mink,PA,90,87.3,27,282.5,175,260,717.5,M,Open,Wraps,SBD
2,Johnny Santangelo,PA,90,89.1,24,262.5,145,287.5,695,M,Open,Wraps,SBD
3,Matthew Citron,PA,90,87.6,26,205,145,225,575,M,Open,Wraps,SBD
4,Ira Bell,PA,90,89.9,43,182.5,142.5,197.5,522.5,M,Open,Wraps,SBD
DQ,Michael Blaney,NJ,100,98.8,26,,,232.5,,M,Open,Wraps,SBD
1,David Jasiulewicz,PA,125,122.6,28,317.5,210,380,907.5,M,Open,Wraps,SBD
2,Rob Christine,PA,125,123.5,30,290,227.5,275,792.5,M,Open,Wraps,SBD
1,Ben Goldman,PA,82.5,81.1,36,130,92.5,180,402.5,M,Submaster 35-39,Wraps,SBD
1,Ira Bell,PA,90,89.9,43,182.5,142.5,197.5,522.5,M,Master 40-44,Wraps,SBD
1,Christopher Booth,PA,90,86.6,22,,102.5,,102.5,M,Junior 20-23,Raw,B
1,David Butler,NY,67.5,60.9,55,,90,,90,M,Open,Raw,B
1,Robert Eckhart,PA,125,122.7,45,,190,,190,M,Open,Raw,B
2,Ramon Munez,NY,125,113.6,32,,132.5,,132.5,M,Open,Raw,B
1,Pedro Mejias,NY,140+,201.4,39,,262.5,,262.5,M,Open,Raw,B
1,Michael Correa,NY,100,98.8,38,,155,,155,M,Submaster 35-39,Raw,B
1,Pedro Mejias,NY,140+,201.4,39,,262.5,,262.5,M,Submaster 35-39,Raw,B
1,David Butler,NY,67.5,60.9,55,,90,,90,M,Master 55-59,Raw,B
1,Robert Eckhart,PA,125,122.7,45,,190,,190,M,Master 45-49,Raw,B
1,Michael Bell,PA,125,124,52,,147.5,,147.5,M,Master 50-54,Raw,B
1,Victoria Moccio-Bell,PA,90+,116.8,16,,,112.5,112.5,F,Junior 16-17,Raw,D
1,Terry Miele,NJ,67.5,65.5,61,,,137.5,137.5,F,Master 60-64,Raw,D
1,Christopher Booth,PA,90,86.6,22,,,230,230,M,Junior 20-23,Raw,D
1,David Jasiulewicz,PA,125,122.6,28,,,380,380,M,Open,Raw,D
1,Neil Belman,PA,110,105,56,,,217.5,217.5,M,Master 55-59,Raw,D
1,Michael Bell,PA,125,124,52,,,182.5,182.5,M,Master 50-54,Raw,D
