Place,Name,CyrillicName,Country,BodyweightKg,Squat1Kg,Squat2Kg,Squat3Kg,Squat4Kg,Bench1Kg,Bench2Kg,Bench3Kg,Bench4Kg,Deadlift1Kg,Deadlift2Kg,Deadlift3Kg,Deadlift4Kg,TotalKg,WeightClassKg,Division,Sex,Event,Equipment,Best3SquatKg,Best3BenchKg,Best3DeadliftKg,BirthYear
1,Mikola Trimbach,Микола Тримбач,Ukraine,66.2,140,150,160,,90,-100,-100,,150,160,172.5,,422.5,67.5,Amateur Teen 16-17,M,SBD,Wraps,160,90,172.5,2000
1,Bogdan Sidorenko,Богдан Сидоренко,Ukraine,77.4,120,125,130,,82.5,87.5,92.5,,155,165,-175,,387.5,82.5,Amateur Teen 16-17,M,SBD,Wraps,130,92.5,165,2000
1,Vladislav Berdishev,Владислав Бердишев,Ukraine,72.1,180,-190,-190,,90,-100,-100,,160,170,185,,455,75,Amateur Teen 18-19,M,SBD,Wraps,180,90,185,1998
1,Maksim Dikhtyar,Максим Діхтяр,Ukraine,79.6,150,165,180,,125,130,-132.5,,190,202.5,210,,520,82.5,Amateur Teen 18-19,M,SBD,Wraps,180,130,210,1999
1,Dmitro Gumanenko,Дмитро Гуманенко,Ukraine,90,-180,-180,180,,105,110,112.5,,210,-220,-220,,502.5,90,Amateur Teen 18-19,M,SBD,Wraps,180,112.5,210,1999
2,Bogdan Bushtryuk,Богдан Буштрюк,Ukraine,86.9,100,120,,,90,100,-105,,130,150,,,370,90,Amateur Teen 18-19,M,SBD,Wraps,120,100,150,1998
1,Oleksandr Tkachenko,Олександр Ткаченко,Ukraine,102.3,-165,170,180,,115,120,127.5,,200,210,220,,527.5,110,Amateur Teen 18-19,M,SBD,Wraps,180,127.5,220,1998
1,Illya Nosenok,Ілля Носенок,Ukraine,58.7,130,137.5,-142.5,,95,105,-112.5,,155,165,-170,,407.5,60,Amateur Juniors 20-23,M,SBD,Wraps,137.5,105,165,1997
1,Dmitro Manzyuk,Дмитро Манзюк,Ukraine,75,170,180,190,,110,120,130,,180,190,195,,515,75,Amateur Juniors 20-23,M,SBD,Wraps,190,130,195,1994
2,Vladislav Skvortsov,Владислав Скворцов,Ukraine,73.3,150,165,175,,90,100,105,,170,185,-195,,465,75,Amateur Juniors 20-23,M,SBD,Wraps,175,105,185,1996
3,Dmitriy Dudnik,Дмитрий Дудник,Ukraine,74.3,142.5,-152.5,152.5,,97.5,102.5,-105,,145,160,-167.5,,415,75,Amateur Juniors 20-23,M,SBD,Wraps,152.5,102.5,160,1994
4,Andriy Bikhun,Андрій Бихун,Ukraine,74.5,125,-130,130,,70,75,77.5,,155,165,175,,382.5,75,Amateur Juniors 20-23,M,SBD,Wraps,130,77.5,175,1996
1,Oleksandr Nayden,Олександр Найден,Ukraine,83.8,175,-185,190,,95,105,110,,-190,200,210,,510,90,Amateur Juniors 20-23,M,SBD,Wraps,190,110,210,1997
1,Illya Nosenok,Ілля Носенок,Ukraine,58.7,130,137.5,-142.5,,95,105,-112.5,,155,165,-170,,407.5,60,Amateur Open,M,SBD,Wraps,137.5,105,165,1997
1,Ivan Kril,Іван Криль,Ukraine,66.1,-170,-180,180,,95,100,-105,,180,185,195,,475,67.5,Amateur Open,M,SBD,Wraps,180,100,195,1991
1,Vitaliy Titarenko,Віталій Титаренко,Ukraine,72.2,180,-190,-190,,110,-120,-120,,190,205,-215,,495,75,Amateur Open,M,SBD,Wraps,180,110,205,1990
2,Denis Popov,Денис Попов,Ukraine,71.1,-140,140,145,,85,90,95,,170,180,185,,425,75,Amateur Open,M,SBD,Wraps,145,95,185,1988
3,Dmitriy Dudnik,Дмитрий Дудник,Ukraine,74.3,142.5,-152.5,152.5,,97.5,102.5,-105,,145,160,-167.5,,415,75,Amateur Open,M,SBD,Wraps,152.5,102.5,160,1994
1,Evgen Kitaygorodskiy,Євген Китайгородський,Ukraine,80.5,180,190,195,,132.5,140,142.5,,215,225,232.5,,570,82.5,Amateur Open,M,SBD,Wraps,195,142.5,232.5,1989
2,Sergiy Chaliy,Сергій Чалий,Ukraine,81.3,190,200,,,115,120,,,210,-222.5,,,530,82.5,Amateur Open,M,SBD,Wraps,200,120,210,1993
3,Maksim Dikhtyar,Максим Діхтяр,Ukraine,79.6,150,165,180,,125,130,-132.5,,190,202.5,210,,520,82.5,Amateur Open,M,SBD,Wraps,180,130,210,1999
4,Ivan Tsiganenko,Іван Циганенко,Ukraine,75.1,-140,140,150,,-115,115,125,,155,160,170,,445,82.5,Amateur Open,M,SBD,Wraps,150,125,170,1996
DD,Ivan Kozir,Иван Козырь,Ukraine,82.5,-175,-182.5,-190,,-170,-175,-177.5,,-200,-210,-220,,,82.5,Amateur Open,M,SBD,Wraps,,,,1986
1,Pavlo Solovyov,Павло Соловйов,Ukraine,88.2,190,210,215,,155,160,165,,230,235,245,,625,90,Amateur Open,M,SBD,Wraps,215,165,245,1992
2,Dmitro Bogomaz,Дмитро Богомаз,Ukraine,90,195,205,210,,135,140,145,,225,235,-245,,590,90,Amateur Open,M,SBD,Wraps,210,145,235,1990
3,Taras Ganzha,Тарас Ганжа,Ukraine,87.9,185,195,-205,,122.5,132.5,140,,195,210,225,,560,90,Amateur Open,M,SBD,Wraps,195,140,225,1987
4,Mikhaylo Moshkovich,Михайло Мошкович,Ukraine,82.8,145,150,155,,85,-90,90,,190,205,-210,,450,90,Amateur Open,M,SBD,Wraps,155,90,205,1984
5,Sergiy Shevchenko,Сергій Шевченко,Ukraine,89.9,160,167.5,-172.5,,105,-110,110,,-170,170,-180,,447.5,90,Amateur Open,M,SBD,Wraps,167.5,110,170,1973
1,Pavlo Kipnyak,Павло Кіпняк,Ukraine,100,200,215,,,150,-160,-160,,210,-227.5,-227.5,,575,100,Amateur Open,M,SBD,Wraps,215,150,210,1969
1,Sergiy Gaydrikh,Сергій Гайдрих,Ukraine,107.5,260,270,-282.5,,160,165,167.5,,260,270,282.5,,720,110,Amateur Open,M,SBD,Wraps,270,167.5,282.5,1993
2,Sergiy Bessel,Сергій Бессель,Ukraine,107.8,230,240,247.5,,177.5,185,-190,,240,255,-265,,687.5,110,Amateur Open,M,SBD,Wraps,247.5,185,255,1984
3,Mikhaylo Belichenko,Михайло Бєліченко,Ukraine,108.8,-165,-165,165,,-140,140,145,,210,220,230,,540,110,Amateur Open,M,SBD,Wraps,165,145,230,1982
1,Pavlo Semkovich,Павло Семкович,Ukraine,112.4,235,245,250,,160,165,170,,230,240,245,,665,125,Amateur Open,M,SBD,Wraps,250,170,245,1980
2,Oleksandr Kalkutin,Олександр Калкутін,Ukraine,125,230,250,,,140,150,-155,,220,-235,-235,,620,125,Amateur Open,M,SBD,Wraps,250,150,220,1965
3,Danilo Udovik,Данило Удовик,Ukraine,113.8,187.5,197.5,205,,125,132.5,-140,,202.5,212.5,220,,557.5,125,Amateur Open,M,SBD,Wraps,205,132.5,220,1992
1,Evgen Gavrilin,Євген Гаврилін,Ukraine,151.2,220,235,250,,170,180,190,,240,250,260,,700,140+,Amateur Open,M,SBD,Wraps,250,190,260,1982
2,Denis Perevolochanskiy,Денис Переволочанський,Ukraine,162.6,-200,200,215,,180,195,-205,,210,230,-260,,640,140+,Amateur Open,M,SBD,Wraps,215,195,230,1978
3,Oleg Brazhnik,Олег Бражник,Ukraine,158,180,-200,200,,115,125,-130,,190,200,-210,,525,140+,Amateur Open,M,SBD,Wraps,200,125,200,1970
1,Andriy Karneta,Андрій Карнета,Ukraine,98.7,-130,150,160,,100,110,115,,160,180,190,,465,100,Amateur Submasters 33-39,M,SBD,Wraps,160,115,190,1984
1,Mikhaylo Belichenko,Михайло Бєліченко,Ukraine,108.8,-165,-165,165,,-140,140,145,,210,220,230,,540,110,Amateur Submasters 33-39,M,SBD,Wraps,165,145,230,1982
1,Pavlo Semkovich,Павло Семкович,Ukraine,112.4,235,245,250,,160,165,170,,230,240,245,,665,125,Amateur Submasters 33-39,M,SBD,Wraps,250,170,245,1980
1,Sergiy Shevchenko,Сергій Шевченко,Ukraine,89.9,160,167.5,-172.5,,105,-110,110,,-170,170,-180,,447.5,90,Amateur Masters 40-44,M,SBD,Wraps,167.5,110,170,1973
1,Volodimir Andreev,Володимир Андрєєв,Ukraine,98.8,140,,,,115,-140,,,140,,,,395,100,Amateur Masters 40-44,M,SBD,Wraps,140,115,140,1973
1,Pavlo Kipnyak,Павло Кіпняк,Ukraine,100,200,215,,,150,-160,-160,,210,-227.5,-227.5,,575,100,Amateur Masters 45-49,M,SBD,Wraps,215,150,210,1969
1,Oleg Brazhnik,Олег Бражник,Ukraine,158,180,-200,200,,115,125,-130,,190,200,-210,,525,140+,Amateur Masters 45-49,M,SBD,Wraps,200,125,200,1970
1,Oleksandr Kalkutin,Олександр Калкутін,Ukraine,125,230,250,,,140,150,-155,,220,-235,-235,,620,125,Amateur Masters 50-54,M,SBD,Wraps,250,150,220,1965
1,Volodimir Mushchinin,Володимир Мущинін,Ukraine,93.5,120,140,150,,70,80,82.5,,140,160,165,,397.5,100,Amateur Masters 55-59,M,SBD,Wraps,150,82.5,165,1961
1,Kseniya Mukhachova,Ксенія Мухачова,Ukraine,59.3,-115,117.5,120,130,50,55,60,,105,115,122.5,,302.5,60,Amateur Teen 13-15,F,SBD,Wraps,120,60,122.5,2001
1,Diana Mishchenko,Діана Міщенко,Ukraine,60,77.5,85,90,,40,42.5,-45,,80,90,97.5,,230,60,Amateur Teen 16-17,F,SBD,Wraps,90,42.5,97.5,2000
1,Anna Sivokobilska,Анна Сивокобильська,Ukraine,56,110,125,-135,,45,50,-57.5,,100,112.5,115,,290,56,Amateur Teen 18-19,F,SBD,Wraps,125,50,115,1998
1,Arina Oleynik,Аріна Олейник,Ukraine,71.4,85,95,-100,,50,55,-57.5,,110,122.5,130,,280,75,Amateur Teen 18-19,F,SBD,Wraps,95,55,130,1998
1,Sevda Kondrashova,Севда Кондрашова,Ukraine,47.7,60,-70,70,,35,40,-42.5,,-70,75,82.5,,192.5,48,Amateur Juniors 20-23,F,SBD,Wraps,70,40,82.5,1995
1,Nelya Boyko,Неля Бойко,Ukraine,52.5,60,65,,,32.5,37.5,,,85,90,95,,197.5,56,Amateur Juniors 20-23,F,SBD,Wraps,65,37.5,95,1995
1,Irina Bozhko,Ірина Божко,Ukraine,59.5,110,117.5,125,,50,55,-60,,110,117.5,122.5,,302.5,60,Amateur Juniors 20-23,F,SBD,Wraps,125,55,122.5,1993
2,Dariya Yurash,Дарія Юраш,Ukraine,58.2,95,105,117.5,,-45,-45,45,,80,90,-97.5,,252.5,60,Amateur Juniors 20-23,F,SBD,Wraps,117.5,45,90,1997
1,Olga Zaderyaka,Ольга Задеряка,Ukraine,61.9,-90,90,95,,42.5,47.5,50,,90,100,-112.5,,245,67.5,Amateur Juniors 20-23,F,SBD,Wraps,95,50,100,1996
2,Yana Mulishova,Яна Мулішова,Ukraine,65,-77.5,-85,85,,45,-50,50,,80,90,100,,235,67.5,Amateur Juniors 20-23,F,SBD,Wraps,85,50,100,1995
1,Galina Danilenko,Галина Даниленко,Ukraine,43.8,70,75,80,,-30,30,35,,75,82.5,87.5,,202.5,44,Amateur Open,F,SBD,Wraps,80,35,87.5,1991
2,Nadiya Osaenko,Надія Осаєнко,Ukraine,42.8,-60,60,65,,-32.5,32.5,35,,85,90,92.5,,192.5,44,Amateur Open,F,SBD,Wraps,65,35,92.5,1990
1,Katerina Yarushina,Катерина Ярушина,Ukraine,51.2,80,85,90,,-40,42.5,-45,,90,100,110,,242.5,52,Amateur Open,F,SBD,Wraps,90,42.5,110,1990
1,Darina Kovalova,Дарина Ковальова,Ukraine,55.3,-125,130,-140,,55,60,62.5,,155,165,-170,,357.5,56,Amateur Open,F,SBD,Wraps,130,62.5,165,1990
1,Olga Skorokhodova,Ольга Скороходова,Ukraine,57.1,-130,-142.5,142.5,-145,70,-75,-75,,130,140,145,,357.5,60,Amateur Open,F,SBD,Wraps,142.5,70,145,1980
2,Valeriya Sukonkina,Валерія Суконкіна,Ukraine,59,130,137.5,142.5,,47.5,52.5,55,,127.5,135,142.5,,340,60,Amateur Open,F,SBD,Wraps,142.5,55,142.5,1983
3,Irina Bozhko,Ірина Божко,Ukraine,59.5,110,117.5,125,,50,55,-60,,110,117.5,122.5,,302.5,60,Amateur Open,F,SBD,Wraps,125,55,122.5,1993
4,Yuliya Dovgal,Юлія Довгаль,Ukraine,57.6,-100,100,-110,,50,57.5,-62.5,,100,115,125,,282.5,60,Amateur Open,F,SBD,Wraps,100,57.5,125,1986
5,Olga Drozdova,Ольга Дроздова,Ukraine,59.6,-80,80,90,,35,-45,-45,,115,125,132.5,,257.5,60,Amateur Open,F,SBD,Wraps,90,35,132.5,1988
6,Dariya Yurash,Дарія Юраш,Ukraine,58.2,95,105,117.5,,-45,-45,45,,80,90,-97.5,,252.5,60,Amateur Open,F,SBD,Wraps,117.5,45,90,1997
DD,Yuliya Malinovska,Юлія Маліновська,Ukraine,59.6,-125,-135,-140,,-65,-70,-72.5,,-140,-150,-157.5,,,60,Amateur Open,F,SBD,Wraps,,,,1984
DQ,Yana Tkachenko,Яна Ткаченко,Ukraine,58.5,-100,-110,-110,,-40,,,,-90,,,,,60,Amateur Open,F,SBD,Wraps,,,,1984
1,Tetyana Khomyak,Тетяна Хомяк,Ukraine,75,95,100,105,,60,65,-72.5,,105,115,120,,290,75,Amateur Open,F,SBD,Wraps,105,65,120,1979
1,Olga Skorokhodova,Ольга Скороходова,Ukraine,57.1,-130,-142.5,142.5,-145,70,-75,-75,,130,140,145,,357.5,60,Amateur Submasters 33-39,F,SBD,Wraps,142.5,70,145,1980
DQ,Yana Tkachenko,Яна Ткаченко,Ukraine,58.5,-100,-110,-110,,-40,,,,-90,,,,,60,Amateur Submasters 33-39,F,SBD,Wraps,,,,1984
1,Tetyana Khomyak,Тетяна Хомяк,Ukraine,75,95,100,105,,60,65,-72.5,,105,115,120,,290,75,Amateur Submasters 33-39,F,SBD,Wraps,105,65,120,1979
1,Olena Levada,Олена Левада,Ukraine,51.3,-105,-105,105,,55,60,65,,110,-122.5,-122.5,,280,52,Amateur Masters 40-44,F,SBD,Wraps,105,65,110,1975
1,Tetyana Melnik,Тетяна Мельник,Ukraine,71,-85,85,90,,45,-47.5,-47.5,,90,95,100,,235,75,Amateur Masters 40-44,F,SBD,Wraps,90,45,100,1975
1,Olga Kritikova,Ольга Крітікова,Ukraine,64.6,110,117.5,125,,62.5,70,75,,110,120,-130,,320,67.5,Amateur Masters 45-49,F,SBD,Wraps,125,75,120,1971
1,Vladislav Kravchenko,Владислав Кравченко,Ukraine,80,-210,210,-215,,132.5,137.5,,,255,260,-262.5,,607.5,82.5,Pro Juniors 20-23,M,SBD,Wraps,210,137.5,260,1995
DQ,Evgeniy Timokhin,Євгеній Тимохін,Ukraine,82.5,-200,-200,-200,,-112.5,,,,-210,,,,,82.5,Pro Juniors 20-23,M,SBD,Wraps,,,,1997
DQ,Dmitro Grigorev,Дмитро Григорьєв,Ukraine,107.8,250,272.5,-300,,-160,-160,-160,,-245,,,,,110,Pro Juniors 20-23,M,SBD,Wraps,272.5,,,1997
1,Dmitro Kondratenko,Дмитро Кондратенко,Ukraine,67.3,200,-210,-210,,120,-127.5,-127.5,,180,-190,-190,,500,67.5,Pro Open,M,SBD,Wraps,200,120,180,1986
1,Ivan Kapelyukh,Іван Капелюх,Ukraine,73.7,185,195,200,,135,140,-145,,230,240,-245,,580,75,Pro Open,M,SBD,Wraps,200,140,240,1985
2,Andriy Boyko,Андрій Бойко,Ukraine,75,210,220,-230,,105,112.5,-117.5,,205,215,-222.5,,547.5,75,Pro Open,M,SBD,Wraps,220,112.5,215,1993
1,Vladislav Kravchenko,Владислав Кравченко,Ukraine,80,-210,210,-215,,132.5,137.5,,,255,260,-262.5,,607.5,82.5,Pro Open,M,SBD,Wraps,210,137.5,260,1995
2,Mark Bezborodov,Марк Безбородов,Ukraine,82.2,220,-235,-245,,150,160,-167.5,,200,215,-230,,595,82.5,Pro Open,M,SBD,Wraps,220,160,215,1989
3,Mikhaylo Kisliy,Михайло Кислий,Ukraine,81.9,180,195,210,,132.5,140,-145,,190,205,212.5,,562.5,82.5,Pro Open,M,SBD,Wraps,210,140,212.5,1991
4,Oleksandr Golovatskiy,Олександр Головацький,Ukraine,79.3,195,205,215,,140,-147.5,-147.5,,200,-210,-210,,555,82.5,Pro Open,M,SBD,Wraps,215,140,200,1993
1,Yaroslav Litvinenko,Ярослав Литвиненко,Ukraine,88.6,-240,250,-262.5,,140,152.5,-160,,260,-280,-280,,662.5,90,Pro Open,M,SBD,Wraps,250,152.5,260,1976
2,Sergiy Mazur,Сергій Мазур,Ukraine,89.2,200,220,-230,,150,160,-165,,240,-260,-260,,620,90,Pro Open,M,SBD,Wraps,220,160,240,1981
DQ,Mikola Tishuk,Микола Тишук,Ukraine,89.4,-275,-275,-275,,-165,,,,-272.5,-280,,,,90,Pro Open,M,SBD,Wraps,,,,1992
1,Oleg Khristoforov,Олег Христофоров,Ukraine,100,-330,330,352.5,,180,190,-195,,270,290,-300,,832.5,100,Pro Open,M,SBD,Wraps,352.5,190,290,1975
2,Anton Grishchenkov,Антон Грищенков,Ukraine,100,265,280,287.5,,180,192.5,-200,,240,260,275,,755,100,Pro Open,M,SBD,Wraps,287.5,192.5,275,1987
3,Igor Klyauz,Ігор Кляуз,Ukraine,99.1,240,-250,260,,160,170,180,,250,-270,-280,,690,100,Pro Open,M,SBD,Wraps,260,180,250,1987
4,Viktor Telyatnik,Віктор Телятник,Ukraine,99,190,205,220,,140,145,-150,,230,245,252.5,,617.5,100,Pro Open,M,SBD,Wraps,220,145,252.5,1988
1,Viktor Rublov,Віктор Рубльов,Ukraine,100.9,260,270,-280,,170,180,-185,,250,260,,,710,110,Pro Open,M,SBD,Wraps,270,180,260,1975
DQ,Dmitro Grigorev,Дмитро Григорьєв,Ukraine,107.8,250,272.5,-300,,-160,-160,-160,,-245,,,,,110,Pro Open,M,SBD,Wraps,272.5,,,1997
DQ,Dmitro Gotlashov,Дмитро Готлашов,Ukraine,108,-280,,,,-160,,,,-270,,,,,110,Pro Open,M,SBD,Wraps,,,,1985
1,Sergiy Mazur,Сергій Мазур,Ukraine,89.2,200,220,-230,,150,160,-165,,240,-260,-260,,620,90,Pro Submasters 33-39,M,SBD,Wraps,220,160,240,1981
1,Oleg Cherchel,,Moldova,105.2,-220,220,240,,115,-125,125,,210,-225,-225,,575,110,Pro Submasters 33-39,M,SBD,Wraps,240,125,210,1978
1,Yaroslav Litvinenko,Ярослав Литвиненко,Ukraine,88.6,-240,250,-262.5,,140,152.5,-160,,260,-280,-280,,662.5,90,Pro Masters 40-44,M,SBD,Wraps,250,152.5,260,1976
2,Vitaliy Poryadkov,Віталій Порядков,Ukraine,88.9,140,150,160,,135,145,-152.5,,190,210,215,,520,90,Pro Masters 40-44,M,SBD,Wraps,160,145,215,1972
1,Oleg Khristoforov,Олег Христофоров,Ukraine,100,-330,330,352.5,,180,190,-195,,270,290,-300,,832.5,100,Pro Masters 40-44,M,SBD,Wraps,352.5,190,290,1975
1,Viktor Rublov,Віктор Рубльов,Ukraine,100.9,260,270,-280,,170,180,-185,,250,260,,,710,110,Pro Masters 40-44,M,SBD,Wraps,270,180,260,1975
DQ,Oleksandr Desyatskiy,Олександр Десяцький,Ukraine,124,-220,,,,-200,,,,-250,,,,,125,Pro Masters 40-44,M,SBD,Wraps,,,,1976
1,Dmitro Kondratenko,Дмитро Кондратенко,Ukraine,67.3,200,-210,-210,,120,-127.5,-127.5,,180,-190,-190,,500,67.5,Pro Military/Fire/Police,M,SBD,Wraps,200,120,180,1986
1,Andriy Boyko,Андрій Бойко,Ukraine,75,210,220,-230,,105,112.5,-117.5,,205,215,-222.5,,547.5,75,Pro Military/Fire/Police,M,SBD,Wraps,220,112.5,215,1993
DQ,Tetyana Brodetska,Тетяна Бродецька,Ukraine,73,-160,,,,-75,,,,-160,,,,,75,Pro Juniors 20-23,F,SBD,Wraps,,,,1996
1,Mariya Kravchuk,Марія Кравчук,Ukraine,56,135,-142.5,145,,-75,75,80,-82.5,155,165,-170,,390,56,Pro Open,F,SBD,Wraps,145,80,165,1983
2,Anastasiya Kalashnikova,Анастасія Калашнікова,Ukraine,52.7,-135,142.5,150,,70,75,-80,,132.5,142.5,150,,375,56,Pro Open,F,SBD,Wraps,150,75,150,1985
3,Olena Bubnova,Олена Бубнова,Ukraine,54.4,-110,110,-115,,65,-70,-70,,130,,,,305,56,Pro Open,F,SBD,Wraps,110,65,130,1985
1,Nataliya Mavdrik,Наталія Мавдрик,Ukraine,67.5,150,155,160,,90,95,-100,,155,-160,-160,,410,67.5,Pro Open,F,SBD,Wraps,160,95,155,1984
1,Nataliya Mavdrik,Наталія Мавдрик,Ukraine,67.5,150,155,160,,90,95,-100,,155,-160,-160,,410,67.5,Pro Submasters 33-39,F,SBD,Wraps,160,95,155,1984
1,Andriy Tupchiy,Андрій Тупчій,Ukraine,89.6,200,210,220,,150,160,170,,230,-250,-250,,620,90,Pro Open,M,SBD,Multi-ply,220,170,230,1987
1,Nikita Gavrilenko,Нікіта Гавриленко,Ukraine,47.4,,,,,60,-67.5,67.5,,,,,,67.5,48,Amateur Teen 13-15,M,B,Raw,,67.5,,2002
1,Oleksiy Parshin,Олексій Паршин,Ukraine,56,,,,,70,75,-80,,,,,,75,56,Amateur Teen 13-15,M,B,Raw,,75,,2003
1,Mikola Linnik,Микола Линник,Ukraine,61.2,,,,,-52.5,52.5,60,,,,,,60,67.5,Amateur Teen 13-15,M,B,Raw,,60,,2003
2,Volodimir Petrina,Володимир Петрина,Ukraine,66.4,,,,,50,55,-60,,,,,,55,67.5,Amateur Teen 13-15,M,B,Raw,,55,,2003
1,Illya Sapezhko,Ілля Сапежко,Ukraine,73.8,,,,,60,65,70,,,,,,70,75,Amateur Teen 13-15,M,B,Raw,,70,,2002
1,Arseniy Dmukhaylo,Арсеній Дмухайло,Ukraine,66.9,,,,,100,110,115,,,,,,115,67.5,Amateur Teen 16-17,M,B,Raw,,115,,2000
1,Igor Starchenko,Ігор Старченко,Ukraine,82.5,,,,,100,107.5,115,-120,,,,,115,82.5,Amateur Teen 16-17,M,B,Raw,,115,,2001
1,Pavlo Garkaviy,Павло Гарькавий,Ukraine,53.4,,,,,85,92.5,100,,,,,,100,56,Amateur Teen 18-19,M,B,Raw,,100,,1999
1,Vasil Kovalchuk,Василь Ковальчук,Ukraine,73.4,,,,,125,132.5,-137.5,,,,,,132.5,75,Amateur Teen 18-19,M,B,Raw,,132.5,,1999
1,Bogdan Bushtryuk,Богдан Буштрюк,Ukraine,86.9,,,,,90,100,-105,,,,,,100,90,Amateur Teen 18-19,M,B,Raw,,100,,1998
1,Illya Nosenok,Ілля Носенок,Ukraine,58.7,,,,,95,105,-112.5,,,,,,105,60,Amateur Juniors 20-23,M,B,Raw,,105,,1997
1,Artem Ivanov,Артем Іванов,Ukraine,67.3,,,,,95,-100,-100,,,,,,95,67.5,Amateur Juniors 20-23,M,B,Raw,,95,,1995
1,Anatoliy Martsenyuk,Анатолій Марценюк,Ukraine,74.1,,,,,137.5,147.5,-157.5,,,,,,147.5,75,Amateur Juniors 20-23,M,B,Raw,,147.5,,1995
2,Oleksiy Borisov,Олексій Борисов,Ukraine,74,,,,,127.5,132.5,-137.5,,,,,,132.5,75,Amateur Juniors 20-23,M,B,Raw,,132.5,,1995
3,Dmitro Manzyuk,Дмитро Манзюк,Ukraine,75,,,,,110,120,130,,,,,,130,75,Amateur Juniors 20-23,M,B,Raw,,130,,1994
DQ,Vadim Nigay,Вадим Нігай,Ukraine,72,,,,,-130,-130,-137.5,,,,,,,75,Amateur Juniors 20-23,M,B,Raw,,,,1995
1,Mikola Yur'Ev,Микола Юр'Єв,Ukraine,80.5,,,,,135,140,-150,,,,,,140,82.5,Amateur Juniors 20-23,M,B,Raw,,140,,1995
1,Oleksandr Nayden,Олександр Найден,Ukraine,83.8,,,,,95,105,110,,,,,,110,90,Amateur Juniors 20-23,M,B,Raw,,110,,1997
1,Anatoliy Klimenko,Анатолій Клименко,Ukraine,108.4,,,,,130,135,140,,,,,,140,110,Amateur Juniors 20-23,M,B,Raw,,140,,1996
1,Pavlo Garkaviy,Павло Гарькавий,Ukraine,53.4,,,,,85,92.5,100,,,,,,100,56,Amateur Open,M,B,Raw,,100,,1999
1,Roman Golishev,Роман Голишев,Ukraine,65.3,,,,,120,125,127.5,,,,,,127.5,67.5,Amateur Open,M,B,Raw,,127.5,,1991
1,Anatoliy Martsenyuk,Анатолій Марценюк,Ukraine,74.1,,,,,137.5,147.5,-157.5,,,,,,147.5,75,Amateur Open,M,B,Raw,,147.5,,1995
2,Dmitro Kuryata,Дмитро Курята,Ukraine,74.4,,,,,-137.5,-137.5,137.5,,,,,,137.5,75,Amateur Open,M,B,Raw,,137.5,,1984
3,Vasil Kovalchuk,Василь Ковальчук,Ukraine,73.4,,,,,125,132.5,-137.5,,,,,,132.5,75,Amateur Open,M,B,Raw,,132.5,,1999
4,Oleksiy Borisov,Олексій Борисов,Ukraine,74,,,,,127.5,132.5,-137.5,,,,,,132.5,75,Amateur Open,M,B,Raw,,132.5,,1995
5,Kostyantin Kovalenko,Костянтин Коваленко,Ukraine,71.3,,,,,110,-120,125,,,,,,125,75,Amateur Open,M,B,Raw,,125,,1990
DQ,Mikola Sidiy,Микола Сідий,Ukraine,74.3,,,,,-127.5,-127.5,-127.5,,,,,,,75,Amateur Open,M,B,Raw,,,,1990
1,Igor Kashinskiy,Ігор Кашинський,Ukraine,82.5,,,,,160,172.5,-177.5,,,,,,172.5,82.5,Amateur Open,M,B,Raw,,172.5,,1993
2,Oleksandr Klimenko,Олександр Кліменко,Ukraine,80.1,,,,,140,147.5,150,,,,,,150,82.5,Amateur Open,M,B,Raw,,150,,1990
3,Evgen Kitaygorodskiy,Євген Китайгородський,Ukraine,80.5,,,,,132.5,140,142.5,,,,,,142.5,82.5,Amateur Open,M,B,Raw,,142.5,,1989
4,Mikola Krishun,Микола Крішун,Ukraine,81.7,,,,,-132.5,132.5,-140,,,,,,132.5,82.5,Amateur Open,M,B,Raw,,132.5,,1983
5,Evgen Kunpan,Євген Кунпан,Ukraine,79.7,,,,,125,-132.5,-132.5,,,,,,125,82.5,Amateur Open,M,B,Raw,,125,,1989
DD,Ivan Kozir,Иван Козырь,Ukraine,82.5,,,,,-170,-175,-177.5,,,,,,,82.5,Amateur Open,M,B,Raw,,,,1986
DQ,Oleksiy Rallo,Олексій Ралло,Ukraine,82.3,,,,,-132.5,-132.5,-132.5,,,,,,,82.5,Amateur Open,M,B,Raw,,,,1988
1,Dmitro Tkach,Дмитро Ткач,Ukraine,90,,,,,170,-180,180,,,,,,180,90,Amateur Open,M,B,Raw,,180,,1991
2,Igor Licherep,Ігор Лічереп,Ukraine,87.6,,,,,140,-150,-150,,,,,,140,90,Amateur Open,M,B,Raw,,140,,1979
3,Oleksandr Marinyak,Олександр Мариняк,Ukraine,86.1,,,,,-135,135,-142.5,-142.5,,,,,135,90,Amateur Open,M,B,Raw,,135,,1993
1,Andriy Petruk,Андрій Петрук,Ukraine,98.5,,,,,180,187.5,192.5,,,,,,192.5,100,Amateur Open,M,B,Raw,,192.5,,1975
2,Nazar Korzhak,Назар Коржак,Ukraine,100,,,,,170,-175,177.5,,,,,,177.5,100,Amateur Open,M,B,Raw,,177.5,,1993
3,Igor Ilchenko,Ігор Ільченко,Ukraine,96.9,,,,,175,-185,-185,,,,,,175,100,Amateur Open,M,B,Raw,,175,,1981
4,Dmitro Dvoytsov,Дмитро Двойцов,Ukraine,95.4,,,,,145,160,167.5,,,,,,167.5,100,Amateur Open,M,B,Raw,,167.5,,1993
5,Evgen Filima,Євген Филима,Ukraine,98.7,,,,,155,162.5,-170,,,,,,162.5,100,Amateur Open,M,B,Raw,,162.5,,1990
6,Ruslan Kuyan,Руслан Куян,Ukraine,95.6,,,,,-140,147.5,152.5,,,,,,152.5,100,Amateur Open,M,B,Raw,,152.5,,1987
7,Pavlo Kipnyak,Павло Кіпняк,Ukraine,100,,,,,150,-160,-160,,,,,,150,100,Amateur Open,M,B,Raw,,150,,1969
8,Volodimir Kravchenko,Володимир Кравченко,Ukraine,92.6,,,,,115,-120,-120,,,,,,115,100,Amateur Open,M,B,Raw,,115,,1990
1,Kostyantin Karpov,Костянтин Карпов,Ukraine,108,,,,,-195,195,-202.5,,,,,,195,110,Amateur Open,M,B,Raw,,195,,1985
2,V'Yacheslav Telyura,В'ячеслав Телюра,Ukraine,107,,,,,-190,190,-195,,,,,,190,110,Amateur Open,M,B,Raw,,190,,1967
3,Dmitro Sviridenko,Дмитро Свириденко,Ukraine,103.5,,,,,-185,-185,185,,,,,,185,110,Amateur Open,M,B,Raw,,185,,1977
4,Sergiy Bessel,Сергій Бессель,Ukraine,107.8,,,,,177.5,185,-190,,,,,,185,110,Amateur Open,M,B,Raw,,185,,1984
5,Volodimir Kukhar,Володимир Кухар,Ukraine,110,,,,,165,-175,-177.5,,,,,,165,110,Amateur Open,M,B,Raw,,165,,1985
1,Sergiy Shumskiy,Сергій Шумський,Ukraine,113.6,,,,,160,170,-175,,,,,,170,125,Amateur Open,M,B,Raw,,170,,1985
2,Artur Maslovets,Артур Масловець,Ukraine,119.9,,,,,130,140,150,,,,,,150,125,Amateur Open,M,B,Raw,,150,,1988
3,Oleksandr Kalkutin,Олександр Калкутін,Ukraine,125,,,,,140,150,-155,,,,,,150,125,Amateur Open,M,B,Raw,,150,,1965
4,Danilo Udovik,Данило Удовик,Ukraine,113.8,,,,,125,132.5,-140,,,,,,132.5,125,Amateur Open,M,B,Raw,,132.5,,1992
1,Denis Perevolochanskiy,Денис Переволочанський,Ukraine,162.6,,,,,180,195,205,,,,,,205,140+,Amateur Open,M,B,Raw,,205,,1978
2,Oleg Brazhnik,Олег Бражник,Ukraine,158,,,,,115,125,-130,,,,,,125,140+,Amateur Open,M,B,Raw,,125,,1970
1,Dmitro Romanenko,Дмитро Романенко,Ukraine,73,,,,,105,-115,-115,,,,,,105,75,Amateur Submasters 33-39,M,B,Raw,,105,,1983
1,Maksim Savchenko,Максим Савченко,Ukraine,81.3,,,,,125,132.5,-137.5,,,,,,132.5,82.5,Amateur Submasters 33-39,M,B,Raw,,132.5,,1984
2,Mikola Krishun,Микола Крішун,Ukraine,81.7,,,,,-132.5,132.5,-140,,,,,,132.5,82.5,Amateur Submasters 33-39,M,B,Raw,,132.5,,1983
1,Igor Licherep,Ігор Лічереп,Ukraine,87.6,,,,,140,-150,-150,,,,,,140,90,Amateur Submasters 33-39,M,B,Raw,,140,,1979
1,Igor Ilchenko,Ігор Ільченко,Ukraine,96.9,,,,,175,-185,-185,,,,,,175,100,Amateur Submasters 33-39,M,B,Raw,,175,,1981
1,Igor Tilichko,Ігор Тилічко,Ukraine,107,,,,,165,175,-180,,,,,,175,110,Amateur Submasters 33-39,M,B,Raw,,175,,1978
2,Maksim Fedorovskiy,Максим Федоровський,Ukraine,108.6,,,,,135,-150,150,,,,,,150,110,Amateur Submasters 33-39,M,B,Raw,,150,,1982
3,Mikhaylo Belichenko,Михайло Бєліченко,Ukraine,108.8,,,,,-140,140,145,,,,,,145,110,Amateur Submasters 33-39,M,B,Raw,,145,,1982
1,Viktor Bozhukha,Віктор Божуха,Ukraine,110.8,,,,,160,170,-175,,,,,,170,125,Amateur Submasters 33-39,M,B,Raw,,170,,1978
1,Artem Sukhovarov,Артем Суховаров,Ukraine,80.1,,,,,127.5,-135,-135,,,,,,127.5,82.5,Amateur Masters 40-44,M,B,Raw,,127.5,,1976
1,V'yacheslav Bevzyuk,В'Ячеслав Бевзюк,Ukraine,86.6,,,,,135,140,-145,,,,,,140,90,Amateur Masters 40-44,M,B,Raw,,140,,1975
2,Igor Radets,Ігор Радець,Ukraine,87.4,,,,,115,120,-125,,,,,,120,90,Amateur Masters 40-44,M,B,Raw,,120,,1974
1,Andriy Petruk,Андрій Петрук,Ukraine,98.5,,,,,180,187.5,192.5,,,,,,192.5,100,Amateur Masters 40-44,M,B,Raw,,192.5,,1975
2,Oleksandr Kashinskiy,Олександр Кашинський,Ukraine,90.9,,,,,-170,170,-180,,,,,,170,100,Amateur Masters 40-44,M,B,Raw,,170,,1972
3,Andriy Sokolovskiy,Андрій Соколовський,Ukraine,98.9,,,,,130,-140,-140,,,,,,130,100,Amateur Masters 40-44,M,B,Raw,,130,,1974
1,Dmitro Sviridenko,Дмитро Свириденко,Ukraine,103.5,,,,,-185,-185,185,,,,,,185,110,Amateur Masters 40-44,M,B,Raw,,185,,1977
1,Oleksandr Shvab,Олександр Шваб,Ukraine,120,,,,,120,,,,,,,,120,125,Amateur Masters 40-44,M,B,Raw,,120,,1976
1,Oleksandr Tolmachov,Олександр Толмачов,Ukraine,128,,,,,90,95,-100,,,,,,95,140,Amateur Masters 40-44,M,B,Raw,,95,,1974
1,Pavlo Kipnyak,Павло Кіпняк,Ukraine,100,,,,,150,-160,-160,,,,,,150,100,Amateur Masters 45-49,M,B,Raw,,150,,1969
1,Oleg Brazhnik,Олег Бражник,Ukraine,158,,,,,115,125,-130,,,,,,125,140+,Amateur Masters 45-49,M,B,Raw,,125,,1970
1,Vyacheslav Bulgakov,Вячеслав Булгаков,Ukraine,80.8,,,,,130,140,-150,,,,,,140,82.5,Amateur Masters 50-54,M,B,Raw,,140,,1966
1,V'Yacheslav Telyura,В'ячеслав Телюра,Ukraine,107,,,,,-190,190,-195,,,,,,190,110,Amateur Masters 50-54,M,B,Raw,,190,,1967
1,Oleksandr Kalkutin,Олександр Калкутін,Ukraine,125,,,,,140,150,-155,,,,,,150,125,Amateur Masters 50-54,M,B,Raw,,150,,1965
1,Dmitro Romanenko,Дмитро Романенко,Ukraine,73,,,,,105,-115,-115,,,,,,105,75,Amateur Military/Fire/Police,M,B,Raw,,105,,1983
1,Kostyantin Karpov,Костянтин Карпов,Ukraine,108,,,,,-195,195,-202.5,,,,,,195,110,Amateur Military/Fire/Police,M,B,Raw,,195,,1985
2,Igor Tilichko,Ігор Тилічко,Ukraine,107,,,,,165,175,-180,,,,,,175,110,Amateur Military/Fire/Police,M,B,Raw,,175,,1978
1,Arina Borovkova,Аріна Боровкова,Ukraine,54.5,,,,,52.5,57.5,-60,,,,,,57.5,56,Amateur Teen 13-15,F,B,Raw,,57.5,,2002
1,Anastasiya Telyatnikova,Анастасія Телятнікова,Ukraine,52,,,,,-35,37.5,40,,,,,,40,52,Amateur Teen 16-17,F,B,Raw,,40,,2000
1,Diana Mishchenko,Діана Міщенко,Ukraine,60,,,,,40,42.5,-45,,,,,,42.5,60,Amateur Teen 16-17,F,B,Raw,,42.5,,2000
1,Anna Sivokobilska,Анна Сивокобильська,Ukraine,56,,,,,45,50,-57.5,,,,,,50,56,Amateur Teen 18-19,F,B,Raw,,50,,1998
1,Vladislava Drobot,Владислава Дробот,Ukraine,59.3,,,,,-57.5,-65,65,,,,,,65,60,Amateur Teen 18-19,F,B,Raw,,65,,1998
1,Tetyana Kovalchuk,Тетяна Ковальчук,Ukraine,51.7,,,,,42.5,45,-47.5,,,,,,45,52,Amateur Juniors 20-23,F,B,Raw,,45,,1994
1,Yuliya Zaderyaka,Юлія Задеряка,Ukraine,55.7,,,,,30,35,-37.5,,,,,,35,56,Amateur Juniors 20-23,F,B,Raw,,35,,1994
1,Irina Bozhko,Ірина Божко,Ukraine,59.5,,,,,50,55,-60,,,,,,55,60,Amateur Juniors 20-23,F,B,Raw,,55,,1993
1,Olga Zaderyaka,Ольга Задеряка,Ukraine,61.9,,,,,42.5,47.5,50,,,,,,50,67.5,Amateur Juniors 20-23,F,B,Raw,,50,,1996
2,Yana Mulishova,Яна Мулішова,Ukraine,65,,,,,45,-50,50,,,,,,50,67.5,Amateur Juniors 20-23,F,B,Raw,,50,,1995
1,Nadiya Osaenko,Надія Осаєнко,Ukraine,42.8,,,,,-32.5,32.5,35,,,,,,35,44,Amateur Open,F,B,Raw,,35,,1990
1,Viktoriya Demura,Вікторія Демура,Ukraine,48,,,,,40,45,-50,,,,,,45,48,Amateur Open,F,B,Raw,,45,,1985
2,Oksana Motrunchik,Оксана Мотрунчик,Ukraine,45.7,,,,,37.5,42.5,-45,,,,,,42.5,48,Amateur Open,F,B,Raw,,42.5,,1992
1,Tetyana Kovalchuk,Тетяна Ковальчук,Ukraine,51.7,,,,,42.5,45,-47.5,,,,,,45,52,Amateur Open,F,B,Raw,,45,,1994
1,Lyubov Bestaeva,Любов Бестаєва,Ukraine,54.3,,,,,42.5,47.5,-52.5,,,,,,47.5,56,Amateur Open,F,B,Raw,,47.5,,1985
2,Yuliya Levankova,Юлія Леванькова,Ukraine,56,,,,,40,45,-47.5,,,,,,45,56,Amateur Open,F,B,Raw,,45,,1988
3,Viktoriya Karakay,Вікторія Каракай,Ukraine,54.5,,,,,35,37.5,-40,,,,,,37.5,56,Amateur Open,F,B,Raw,,37.5,,1989
1,Olga Skorokhodova,Ольга Скороходова,Ukraine,57.1,,,,,70,-75,-75,,,,,,70,60,Amateur Open,F,B,Raw,,70,,1980
2,Irina Bozhko,Ірина Божко,Ukraine,59.5,,,,,50,55,-60,,,,,,55,60,Amateur Open,F,B,Raw,,55,,1993
3,Yana Tkachenko,Яна Ткаченко,Ukraine,58.5,,,,,40,47.5,-55,,,,,,47.5,60,Amateur Open,F,B,Raw,,47.5,,1984
4,Kseniya Zolotukhina,Ксенія Золотухіна,Ukraine,57.7,,,,,40,45,-50,,,,,,45,60,Amateur Open,F,B,Raw,,45,,1988
1,Nadiya Tishchenko,Надія Тищенко,Ukraine,66,,,,,95,97.5,100,,,,,,100,67.5,Amateur Open,F,B,Raw,,100,,1993
2,Sofiya Smila,Софія Сміла,Ukraine,63.8,,,,,57.5,-62.5,62.5,,,,,,62.5,67.5,Amateur Open,F,B,Raw,,62.5,,1989
1,Tetyana Khomyak,Тетяна Хомяк,Ukraine,75,,,,,60,65,-72.5,,,,,,65,75,Amateur Open,F,B,Raw,,65,,1979
1,Olga Skorokhodova,Ольга Скороходова,Ukraine,57.1,,,,,70,-75,-75,,,,,,70,60,Amateur Submasters 33-39,F,B,Raw,,70,,1980
2,Yana Tkachenko,Яна Ткаченко,Ukraine,58.5,,,,,40,47.5,-55,,,,,,47.5,60,Amateur Submasters 33-39,F,B,Raw,,47.5,,1984
1,Tetyana Khomyak,Тетяна Хомяк,Ukraine,75,,,,,60,65,-72.5,,,,,,65,75,Amateur Submasters 33-39,F,B,Raw,,65,,1979
1,Viktoriya Ryabkova,Вікторія Рябкова,Ukraine,56,,,,,50,-52.5,-52.5,,,,,,50,56,Amateur Masters 40-44,F,B,Raw,,50,,1975
2,Olena Lyubimova,Олена Любімова,Ukraine,54.7,,,,,47.5,-52.5,-52.5,,,,,,47.5,56,Amateur Masters 40-44,F,B,Raw,,47.5,,1975
1,Tetyana Melnik,Тетяна Мельник,Ukraine,71,,,,,45,-47.5,-47.5,,,,,,45,75,Amateur Masters 40-44,F,B,Raw,,45,,1975
DQ,Larisa Piddubna,Лариса Піддубна,Ukraine,60,,,,,-50,-57.5,-57.5,,,,,,,60,Amateur Masters 45-49,F,B,Raw,,,,1970
1,Olga Kritikova,Ольга Крітікова,Ukraine,64.6,,,,,62.5,70,75,,,,,,75,67.5,Amateur Masters 45-49,F,B,Raw,,75,,1971
1,Mikhaylo Mayboroda,Михайло Майборода,Ukraine,59,,,,,45,50,52.5,,,,,,52.5,60,Pro Teen 13-15,M,B,Raw,,52.5,,2001
1,Illya Poltavets,Ілля Полтавець,Ukraine,75,,,,,85,90,-95,,,,,,90,75,Pro Teen 13-15,M,B,Raw,,90,,2002
DQ,Oleg Dyakiv,Олег Дяків,Ukraine,63,,,,,-50,,,,,,,,,67.5,Pro Teen 16-17,M,B,Raw,,,,2001
1,Valeriy Galtsov,Валерій Гальцов,Ukraine,87.3,,,,,115,-122.5,-122.5,,,,,,115,90,Pro Teen 18-19,M,B,Raw,,115,,1999
1,Mikita Mitryukhin,Микита Мітрюхін,Ukraine,116.5,,,,,140,-150,152.5,,,,,,152.5,125,Pro Teen 18-19,M,B,Raw,,152.5,,1997
1,Andriy Plokhoy,Андрій Плохой,Ukraine,74.1,,,,,110,115,117.5,,,,,,117.5,75,Pro Juniors 20-23,M,B,Raw,,117.5,,1995
1,Vladislav Kravchenko,Владислав Кравченко,Ukraine,80,,,,,132.5,137.5,,,,,,,137.5,82.5,Pro Juniors 20-23,M,B,Raw,,137.5,,1995
1,Glib Orlovskiy,Гліб Орловський,Ukraine,55.8,,,,,70,75,80,,,,,,80,56,Pro Open,M,B,Raw,,80,,1987
1,Oleksandr Chernets,Олександр Чернець,Ukraine,73.8,,,,,190,-200,-200,,,,,,190,75,Pro Open,M,B,Raw,,190,,1991
2,Andriy Plokhoy,Андрій Плохой,Ukraine,74.1,,,,,110,115,117.5,,,,,,117.5,75,Pro Open,M,B,Raw,,117.5,,1995
1,Yuriy Osadchenko,Юрій Осадченко,Ukraine,81.3,,,,,-160,160,-165,,,,,,160,82.5,Pro Open,M,B,Raw,,160,,1961
2,Mark Bezborodov,Марк Безбородов,Ukraine,82.2,,,,,150,160,-167.5,,,,,,160,82.5,Pro Open,M,B,Raw,,160,,1989
3,Oleksandr Romashchenko,Олександр Ромащенко,Ukraine,78.7,,,,,-135,140,150,,,,,,150,82.5,Pro Open,M,B,Raw,,150,,1989
4,Oleksandr Golovatskiy,Олександр Головацький,Ukraine,79.3,,,,,140,-147.5,-147.5,,,,,,140,82.5,Pro Open,M,B,Raw,,140,,1993
5,Mikhaylo Kisliy,Михайло Кислий,Ukraine,81.9,,,,,132.5,140,-145,,,,,,140,82.5,Pro Open,M,B,Raw,,140,,1991
6,Vladislav Kravchenko,Владислав Кравченко,Ukraine,80,,,,,132.5,137.5,,,,,,,137.5,82.5,Pro Open,M,B,Raw,,137.5,,1995
1,Aleksandr Scherbakov,,Moldova,89,,,,,200,-220,220,,,,,,220,90,Pro Open,M,B,Raw,,220,,1966
2,Artem Kots,Артем Коц,Ukraine,89.1,,,,,177.5,185,-190,,,,,,185,90,Pro Open,M,B,Raw,,185,,1987
3,Pavlo Vedmid,Павло Ведмідь,Ukraine,87.1,,,,,170,180,-185,,,,,,180,90,Pro Open,M,B,Raw,,180,,1990
4,Sergiy Mazur,Сергій Мазур,Ukraine,89.2,,,,,150,160,-165,,,,,,160,90,Pro Open,M,B,Raw,,160,,1981
5,Anton Chirkov,Антон Чирков,Ukraine,88.9,,,,,147.5,-155,-155,,,,,,147.5,90,Pro Open,M,B,Raw,,147.5,,1993
1,Oleg Volkov,Олег Волков,Ukraine,99.4,,,,,180,190,-200,,,,,,190,100,Pro Open,M,B,Raw,,190,,1973
2,Maksim Medvid,Максим Медвідь,Ukraine,99.7,,,,,-180,185,190,,,,,,190,100,Pro Open,M,B,Raw,,190,,1988
3,Dmitro Protsiv,Дмитро Проців,Ukraine,98.4,,,,,175,185,-190,,,,,,185,100,Pro Open,M,B,Raw,,185,,1981
4,Artem Kvashnin,Артем Квашнін,Ukraine,100,,,,,170,177.5,-182.5,,,,,,177.5,100,Pro Open,M,B,Raw,,177.5,,1985
5,Roman Sidenko,Роман Сиденко,Ukraine,98.2,,,,,-150,150,-155,,,,,,150,100,Pro Open,M,B,Raw,,150,,1988
DQ,Oleksandr Onishchenko,Олександр Оніщенко,Ukraine,96,,,,,-200,-200,,,,,,,,100,Pro Open,M,B,Raw,,,,1980
DQ,Andriy Maksimchuk,Андрій Максимчук,Ukraine,96.1,,,,,-155,-155,-155,,,,,,,100,Pro Open,M,B,Raw,,,,1992
DQ,Dmitro Fatiy,Дмитро Фатій,Ukraine,96.4,,,,,-195,-205,-207.5,,,,,,,100,Pro Open,M,B,Raw,,,,1986
1,Viktor Rublov,Віктор Рубльов,Ukraine,100.9,,,,,170,180,-185,,,,,,180,110,Pro Open,M,B,Raw,,180,,1975
2,Artem Medvedev,Артем Медведєв,Ukraine,104.5,,,,,160,170,-180,,,,,,170,110,Pro Open,M,B,Raw,,170,,1990
3,Anton Mazur,Антон Мазур,Ukraine,108.6,,,,,160,170,-180,,,,,,170,110,Pro Open,M,B,Raw,,170,,1987
1,Mikola Prezhin,Микола Прежин,Ukraine,120,,,,,207.5,217.5,222.5,,,,,,222.5,125,Pro Open,M,B,Raw,,222.5,,1981
2,Vadim Shalamov,Вадим Шаламов,Ukraine,121.9,,,,,180,190,-200,,,,,,190,125,Pro Open,M,B,Raw,,190,,1987
1,Ivan Vanin,Іван Ванін,Ukraine,80.7,,,,,-130,130,-140,,,,,,130,82.5,Pro Submasters 33-39,M,B,Raw,,130,,1980
1,Sergiy Mazur,Сергій Мазур,Ukraine,89.2,,,,,150,160,-165,,,,,,160,90,Pro Submasters 33-39,M,B,Raw,,160,,1981
1,Anton Fedichev,Антон Федічев,Ukraine,109.1,,,,,-150,155,-167.5,,,,,,155,110,Pro Submasters 33-39,M,B,Raw,,155,,1982
1,Mikola Prezhin,Микола Прежин,Ukraine,120,,,,,207.5,217.5,222.5,,,,,,222.5,125,Pro Submasters 33-39,M,B,Raw,,222.5,,1981
1,Evgen Sitnikov,Євген Ситніков,Ukraine,74.1,,,,,115,120,125,,,,,,125,75,Pro Masters 40-44,M,B,Raw,,125,,1973
1,Oleg Volkov,Олег Волков,Ukraine,99.4,,,,,180,190,-200,,,,,,190,100,Pro Masters 40-44,M,B,Raw,,190,,1973
1,Viktor Rublov,Віктор Рубльов,Ukraine,100.9,,,,,170,180,-185,,,,,,180,110,Pro Masters 40-44,M,B,Raw,,180,,1975
1,Oleksandr Zhariy,Олександр Жарий,Ukraine,62.9,,,,,120,125,130,,,,,,130,67.5,Pro Masters 45-49,M,B,Raw,,130,,1972
1,Sergiy Avramenko,Сергій Авраменко,Ukraine,110.1,,,,,110,115,,,,,,,115,125,Pro Masters 45-49,M,B,Raw,,115,,1971
1,Dmitro Radovskiy,Дмитро Радовський,Ukraine,74.5,,,,,115,120.5,-122.5,,,,,,120.5,75,Pro Masters 50-54,M,B,Raw,,120.5,,1965
1,Aleksandr Scherbakov,,Moldova,89,,,,,200,-220,220,,,,,,220,90,Pro Masters 50-54,M,B,Raw,,220,,1966
1,Yuriy Osadchenko,Юрій Осадченко,Ukraine,81.3,,,,,-160,160,-165,,,,,,160,82.5,Pro Masters 55-59,M,B,Raw,,160,,1961
1,Valērijs Petrovs,,Latvia,85,,,,,105,110,115,,,,,,115,90,Pro Masters 70-74,M,B,Raw,,115,,1946
1,Diana Bagno,Діана Багно,Ukraine,59.9,,,,,65,70,75,80,,,,,75,60,Pro Teen 18-19,F,B,Raw,,75,,1999
1,Zhasmin Nadzhafli,Жасмін Наджафлі,Ukraine,63.8,,,,,40,52.5,-55,,,,,,52.5,67.5,Pro Teen 18-19,F,B,Raw,,52.5,,1998
1,Anastasiya Kalashnikova,Анастасія Калашнікова,Ukraine,52.7,,,,,70,75,-80,,,,,,75,56,Pro Open,F,B,Raw,,75,,1985
2,Olena Bubnova,Олена Бубнова,Ukraine,54.4,,,,,65,-70,-70,,,,,,65,56,Pro Open,F,B,Raw,,65,,1985
3,Olena Korpusenko,Олена Корпусенко,Ukraine,55.7,,,,,37.5,40,-45,,,,,,40,56,Pro Open,F,B,Raw,,40,,1990
1,Diana Bagno,Діана Багно,Ukraine,59.9,,,,,65,70,75,80,,,,,75,60,Pro Open,F,B,Raw,,75,,1999
2,Viktoriya Kurchin,Вікторія Курчин,Ukraine,58.5,,,,,-60,60,65,,,,,,65,60,Pro Open,F,B,Raw,,65,,1985
3,Yuliya Kutsareva,Юлія Куцарева,Ukraine,59.8,,,,,50,55,57.5,,,,,,57.5,60,Pro Open,F,B,Raw,,57.5,,1991
1,Nataliya Mavdrik,Наталія Мавдрик,Ukraine,67.5,,,,,90,95,-100,,,,,,95,67.5,Pro Open,F,B,Raw,,95,,1984
1,Nataliya Mavdrik,Наталія Мавдрик,Ukraine,67.5,,,,,90,95,-100,,,,,,95,67.5,Pro Submasters 33-39,F,B,Raw,,95,,1984
1,Oleksandr Kapustin,Олександр Капустін,Ukraine,82.5,,,,,165,177.5,-180,,,,,,177.5,82.5,Amateur Open,M,B,Multi-ply,,177.5,,1987
1,Viktor Bozhukha,Віктор Божуха,Ukraine,110.8,,,,,200,210,-217.5,,,,,,210,125,Amateur Open,M,B,Multi-ply,,210,,1978
1,Viktor Bozhukha,Віктор Божуха,Ukraine,110.8,,,,,200,210,-217.5,,,,,,210,125,Amateur Submasters 33-39,M,B,Multi-ply,,210,,1978
1,Oleksandr Shvab,Олександр Шваб,Ukraine,120,,,,,180,,,,,,,,180,125,Amateur Masters 40-44,M,B,Multi-ply,,180,,1976
1,Vitaliy Menchuk,Віталій Менчук,Ukraine,89.4,,,,,-225,225,-240,,,,,,225,90,Pro Teen 18-19,M,B,Multi-ply,,225,,1998
DQ,Stanislav Chigirinskiy,Станіслав Чигиринський,Ukraine,78.1,,,,,-145,-145,,,,,,,,82.5,Pro Juniors 20-23,M,B,Multi-ply,,,,1994
DQ,Stanislav Chigirinskiy,Станіслав Чигиринський,Ukraine,78.1,,,,,-145,-145,,,,,,,,82.5,Pro Open,M,B,Multi-ply,,,,1994
1,Volodimir Chigirinskiy,Володимир Чигиринський,Ukraine,93.9,,,,,150,-177.5,-177.5,,,,,,150,100,Pro Open,M,B,Multi-ply,,150,,1962
DQ,Dmitro Lomeyko,Дмитро Ломейко,Ukraine,91.6,,,,,-295,-295,-300,,,,,,,100,Pro Open,M,B,Multi-ply,,,,1983
DQ,Dmitro Lomeyko,Дмитро Ломейко,Ukraine,91.6,,,,,-295,-295,-300,,,,,,,100,Pro Submasters 33-39,M,B,Multi-ply,,,,1983
1,Volodimir Chigirinskiy,Володимир Чигиринський,Ukraine,93.9,,,,,150,-177.5,-177.5,,,,,,150,100,Pro Masters 50-54,M,B,Multi-ply,,150,,1962
1,Maksim Sukhov,Максим Сухов,Ukraine,67.3,,,,,,,,,-190,190,-195,,190,67.5,Amateur Teen 16-17,M,D,Raw,,,190,2000
2,Mikola Trimbach,Микола Тримбач,Ukraine,66.2,,,,,,,,,150,160,172.5,,172.5,67.5,Amateur Teen 16-17,M,D,Raw,,,172.5,2000
DQ,Igor Svekolnikov,Ігор Свекольніков,Ukraine,73.7,,,,,,,,,-210,-210,-210,,,75,Amateur Teen 18-19,M,D,Raw,,,,1998
1,Maksim Dikhtyar,Максим Діхтяр,Ukraine,79.6,,,,,,,,,180,202.5,210,,210,82.5,Amateur Teen 18-19,M,D,Raw,,,210,1999
1,Dmitro Gumanenko,Дмитро Гуманенко,Ukraine,90,,,,,,,,,210,-220,-220,,210,90,Amateur Teen 18-19,M,D,Raw,,,210,1999
2,Bogdan Bushtryuk,Богдан Буштрюк,Ukraine,86.9,,,,,,,,,130,150,,,150,90,Amateur Teen 18-19,M,D,Raw,,,150,1998
1,Oleksandr Tkachenko,Олександр Ткаченко,Ukraine,102.3,,,,,,,,,200,210,220,,220,110,Amateur Teen 18-19,M,D,Raw,,,220,1998
1,Illya Nosenok,Ілля Носенок,Ukraine,58.7,,,,,,,,,155,165,-170,,165,60,Amateur Juniors 20-23,M,D,Raw,,,165,1997
1,Artem Ivanov,Артем Іванов,Ukraine,67.3,,,,,,,,,-115,120,125,,125,67.5,Amateur Juniors 20-23,M,D,Raw,,,125,1995
1,Volodimir Semkovich,Володимир Семкович,Ukraine,70,,,,,,,,,200,210,217.5,,217.5,75,Amateur Juniors 20-23,M,D,Raw,,,217.5,1995
2,Anatoliy Martsenyuk,Анатолій Марценюк,Ukraine,74.1,,,,,,,,,175,190,197.5,,197.5,75,Amateur Juniors 20-23,M,D,Raw,,,197.5,1995
3,Dmitro Manzyuk,Дмитро Манзюк,Ukraine,75,,,,,,,,,180,190,195,,195,75,Amateur Juniors 20-23,M,D,Raw,,,195,1994
4,Vladislav Skvortsov,Владислав Скворцов,Ukraine,73.3,,,,,,,,,170,185,-195,,185,75,Amateur Juniors 20-23,M,D,Raw,,,185,1996
1,Andriy Kuzmuk,Андрій Кузьмук,Ukraine,81.3,,,,,,,,,-240,-247.5,247.5,,247.5,82.5,Amateur Juniors 20-23,M,D,Raw,,,247.5,1997
1,Oleksandr Nayden,Олександр Найден,Ukraine,83.8,,,,,,,,,-190,200,210,,210,90,Amateur Juniors 20-23,M,D,Raw,,,210,1997
1,Dmitro Shevchuk,Дмитро Шевчук,Ukraine,96.1,,,,,,,,,197.5,222.5,230,,230,100,Amateur Juniors 20-23,M,D,Raw,,,230,1994
1,Anatoliy Klimenko,Анатолій Клименко,Ukraine,108.4,,,,,,,,,185,195,200,,200,110,Amateur Juniors 20-23,M,D,Raw,,,200,1996
1,Illya Nosenok,Ілля Носенок,Ukraine,58.7,,,,,,,,,155,165,-170,,165,60,Amateur Open,M,D,Raw,,,165,1997
1,Ivan Kril,Іван Криль,Ukraine,66.1,,,,,,,,,180,185,195,,195,67.5,Amateur Open,M,D,Raw,,,195,1991
2,Vadim Bozhik,Вадим Божик,Ukraine,66.9,,,,,,,,,150,162.5,-175,,162.5,67.5,Amateur Open,M,D,Raw,,,162.5,1993
3,Kirilo Pityulin,Кирило Пітюлін,Ukraine,66.3,,,,,,,,,130,150,-155,,150,67.5,Amateur Open,M,D,Raw,,,150,1985
1,Volodimir Semkovich,Володимир Семкович,Ukraine,70,,,,,,,,,200,210,217.5,,217.5,75,Amateur Open,M,D,Raw,,,217.5,1995
2,Anatoliy Martsenyuk,Анатолій Марценюк,Ukraine,74.1,,,,,,,,,175,190,197.5,,197.5,75,Amateur Open,M,D,Raw,,,197.5,1995
3,Rostislav Petruk,Ростислав Петрук,Ukraine,75,,,,,,,,,170,180,-195,,180,75,Amateur Open,M,D,Raw,,,180,1990
4,Vadim Kasperovich,Вадим Касперович,Ukraine,74.6,,,,,,,,,150,170,-177.5,,170,75,Amateur Open,M,D,Raw,,,170,1987
5,Sergiy Kucher,Сергій Кучер,Ukraine,74.2,,,,,,,,,155,-167.5,-170,,155,75,Amateur Open,M,D,Raw,,,155,1986
1,Andriy Kuzmuk,Андрій Кузьмук,Ukraine,81.3,,,,,,,,,-240,-247.5,247.5,,247.5,82.5,Amateur Open,M,D,Raw,,,247.5,1997
2,Evgen Kitaygorodskiy,Євген Китайгородський,Ukraine,80.5,,,,,,,,,215,225,232.5,,232.5,82.5,Amateur Open,M,D,Raw,,,232.5,1989
3,Maksim Dikhtyar,Максим Діхтяр,Ukraine,79.6,,,,,,,,,180,202.5,210,,210,82.5,Amateur Open,M,D,Raw,,,210,1999
4,Sergiy Chaliy,Сергій Чалий,Ukraine,81.3,,,,,,,,,210,-222.5,,,210,82.5,Amateur Open,M,D,Raw,,,210,1993
5,Pavlo Zayats,Павло Заяць,Ukraine,80.1,,,,,,,,,-177.5,177.5,187.5,,187.5,82.5,Amateur Open,M,D,Raw,,,187.5,1991
6,Oleksiy Rallo,Олексій Ралло,Ukraine,82.3,,,,,,,,,177.5,,,,177.5,82.5,Amateur Open,M,D,Raw,,,177.5,1988
1,Taras Ganzha,Тарас Ганжа,Ukraine,87.9,,,,,,,,,195,210,225,,225,90,Amateur Open,M,D,Raw,,,225,1987
2,Sergiy Yurchuk,Сергій Юрчук,Ukraine,88.2,,,,,,,,,200,210,220,,220,90,Amateur Open,M,D,Raw,,,220,1986
3,Pavlo Svintsitskiy,Павло Свінцицький,Ukraine,88.5,,,,,,,,,175,185,190,,190,90,Amateur Open,M,D,Raw,,,190,1991
1,Mikhaylo Kravchenya,Михайло Кравченя,Ukraine,92.9,,,,,,,,,230,245,255,,255,100,Amateur Open,M,D,Raw,,,255,1992
2,Nazar Korzhak,Назар Коржак,Ukraine,100,,,,,,,,,-235,-235,235,,235,100,Amateur Open,M,D,Raw,,,235,1993
3,Oleksandr Yatsenko,Олександр Яценко,Ukraine,95.1,,,,,,,,,200,210,220,,220,100,Amateur Open,M,D,Raw,,,220,1988
4,Pavlo Kipnyak,Павло Кіпняк,Ukraine,100,,,,,,,,,210,-227.5,-227.5,,210,100,Amateur Open,M,D,Raw,,,210,1969
5,Sergiy Stolbtsov,Сергій Столбцов,Ukraine,98.1,,,,,,,,,180,192.5,197.5,,197.5,100,Amateur Open,M,D,Raw,,,197.5,1988
1,Volodimir Ogloblin,Володимир Оглоблін,Ukraine,105.5,,,,,,,,,270,280,285,,285,110,Amateur Open,M,D,Raw,,,285,1965
2,Denis Petrov,Денис Петров,Ukraine,108,,,,,,,,,250,-260,260,,260,110,Amateur Open,M,D,Raw,,,260,1984
3,Sergiy Bessel,Сергій Бессель,Ukraine,107.8,,,,,,,,,240,255,-265,,255,110,Amateur Open,M,D,Raw,,,255,1984
4,Mikhaylo Belichenko,Михайло Бєліченко,Ukraine,108.8,,,,,,,,,210,220,230,,230,110,Amateur Open,M,D,Raw,,,230,1982
5,Oleksiy Boychuk,Олексій Бойчук,Ukraine,105.2,,,,,,,,,190,205,-222.5,,205,110,Amateur Open,M,D,Raw,,,205,1986
1,Artur Maslovets,Артур Масловець,Ukraine,119.9,,,,,,,,,222.5,-235,235,,235,125,Amateur Open,M,D,Raw,,,235,1988
2,Danilo Udovik,Данило Удовик,Ukraine,113.8,,,,,,,,,202.5,212.5,220,,220,125,Amateur Open,M,D,Raw,,,220,1992
3,Oleksandr Kalkutin,Олександр Калкутін,Ukraine,125,,,,,,,,,220,-235,-235,,220,125,Amateur Open,M,D,Raw,,,220,1965
1,Denis Perevolochanskiy,Денис Переволочанський,Ukraine,162.6,,,,,,,,,210,230,-260,,230,140+,Amateur Open,M,D,Raw,,,230,1978
2,Oleg Brazhnik,Олег Бражник,Ukraine,158,,,,,,,,,190,200,-210,,200,140+,Amateur Open,M,D,Raw,,,200,1970
1,Dmitro Romanenko,Дмитро Романенко,Ukraine,73,,,,,,,,,150,170,-195,,170,75,Amateur Submasters 33-39,M,D,Raw,,,170,1983
1,Denis Petrov,Денис Петров,Ukraine,108,,,,,,,,,250,-260,260,,260,110,Amateur Submasters 33-39,M,D,Raw,,,260,1984
2,Mikhaylo Belichenko,Михайло Бєліченко,Ukraine,108.8,,,,,,,,,210,220,230,,230,110,Amateur Submasters 33-39,M,D,Raw,,,230,1982
1,Pavlo Kipnyak,Павло Кіпняк,Ukraine,100,,,,,,,,,210,-227.5,-227.5,,210,100,Amateur Masters 45-49,M,D,Raw,,,210,1969
1,Oleg Brazhnik,Олег Бражник,Ukraine,158,,,,,,,,,190,200,-210,,200,140+,Amateur Masters 45-49,M,D,Raw,,,200,1970
1,Vyacheslav Bulgakov,Вячеслав Булгаков,Ukraine,80.8,,,,,,,,,160,177.5,,,177.5,82.5,Amateur Masters 50-54,M,D,Raw,,,177.5,1966
1,Volodimir Ogloblin,Володимир Оглоблін,Ukraine,105.5,,,,,,,,,270,280,285,,285,110,Amateur Masters 50-54,M,D,Raw,,,285,1965
1,Oleksandr Kalkutin,Олександр Калкутін,Ukraine,125,,,,,,,,,220,-235,-235,,220,125,Amateur Masters 50-54,M,D,Raw,,,220,1965
1,Dmitro Romanenko,Дмитро Романенко,Ukraine,73,,,,,,,,,150,170,-195,,170,75,Amateur Military/Fire/Police,M,D,Raw,,,170,1983
1,Oleksandr Chorniy,Олександр Чорний,Ukraine,82,,,,,,,,,215,232.5,-235,,232.5,82.5,Amateur Military/Fire/Police,M,D,Raw,,,232.5,1989
1,Diana Mishchenko,Діана Міщенко,Ukraine,60,,,,,,,,,80,90,97.5,,97.5,60,Amateur Teen 16-17,F,D,Raw,,,97.5,2000
1,Anna Sivokobilska,Анна Сивокобильська,Ukraine,56,,,,,,,,,100,112.5,115,,115,56,Amateur Teen 18-19,F,D,Raw,,,115,1998
1,Arina Oleynik,Аріна Олейник,Ukraine,71.4,,,,,,,,,110,120,130,,130,75,Amateur Teen 18-19,F,D,Raw,,,130,1998
1,Ganna Sivakova,Ганна Сівакова,Ukraine,51,,,,,,,,,100,115,-122.5,,115,52,Amateur Juniors 20-23,F,D,Raw,,,115,1997
1,Tetyana Didovets,Тетяна Дідовець,Ukraine,54.7,,,,,,,,,75,80,85,,85,56,Amateur Juniors 20-23,F,D,Raw,,,85,1995
1,Irina Bozhko,Ірина Божко,Ukraine,59.5,,,,,,,,,110,117.5,122.5,,122.5,60,Amateur Juniors 20-23,F,D,Raw,,,122.5,1993
2,Dariya Yurash,Дарія Юраш,Ukraine,58.2,,,,,,,,,85,90,-97.5,,90,60,Amateur Juniors 20-23,F,D,Raw,,,90,1997
1,Olga Zaderyaka,Ольга Задеряка,Ukraine,61.9,,,,,,,,,90,100,-112.5,,100,67.5,Amateur Juniors 20-23,F,D,Raw,,,100,1996
2,Yana Mulishova,Яна Мулішова,Ukraine,65,,,,,,,,,80,90,100,,100,67.5,Amateur Juniors 20-23,F,D,Raw,,,100,1995
1,Nadiya Osaenko,Надія Осаєнко,Ukraine,42.8,,,,,,,,,85,90,92.5,,92.5,44,Amateur Open,F,D,Raw,,,92.5,1990
1,Viktoriya Demura,Вікторія Демура,Ukraine,48,,,,,,,,,-90,90,100,,100,48,Amateur Open,F,D,Raw,,,100,1985
2,Oksana Motrunchik,Оксана Мотрунчик,Ukraine,45.7,,,,,,,,,72.5,80,85,,85,48,Amateur Open,F,D,Raw,,,85,1992
1,Katerina Yarushina,Катерина Ярушина,Ukraine,51.2,,,,,,,,,90,100,110,,110,52,Amateur Open,F,D,Raw,,,110,1990
1,Anna Soboleva,Анна Соболєва,Ukraine,55.3,,,,,,,,,97.5,117.5,122.5,,122.5,56,Amateur Open,F,D,Raw,,,122.5,1991
2,Yuliya Levankova,Юлія Леванькова,Ukraine,56,,,,,,,,,90,100,105,,105,56,Amateur Open,F,D,Raw,,,105,1988
3,Lyubov Bestaeva,Любов Бестаєва,Ukraine,54.3,,,,,,,,,85,90,95,,95,56,Amateur Open,F,D,Raw,,,95,1985
4,Anastasiya Tishchenko,Анастасия Тищенко,Ukraine,55.3,,,,,,,,,82.5,-97.5,-97.5,,82.5,56,Amateur Open,F,D,Raw,,,82.5,1983
1,Olga Skorokhodova,Ольга Скороходова,Ukraine,57.1,,,,,,,,,130,140,145,,145,60,Amateur Open,F,D,Raw,,,145,1980
2,Olga Drozdova,Ольга Дроздова,Ukraine,59.6,,,,,,,,,115,125,132.5,,132.5,60,Amateur Open,F,D,Raw,,,132.5,1988
3,Yuliya Dovgal,Юлія Довгаль,Ukraine,57.6,,,,,,,,,100,115,125,,125,60,Amateur Open,F,D,Raw,,,125,1986
4,Irina Tumanova,Ірина Туманова,Ukraine,58,,,,,,,,,115,120,125,,125,60,Amateur Open,F,D,Raw,,,125,1986
5,Irina Bozhko,Ірина Божко,Ukraine,59.5,,,,,,,,,110,117.5,122.5,,122.5,60,Amateur Open,F,D,Raw,,,122.5,1993
6,Dariya Yurash,Дарія Юраш,Ukraine,58.2,,,,,,,,,85,90,-97.5,,90,60,Amateur Open,F,D,Raw,,,90,1997
7,Yana Tkachenko,Яна Ткаченко,Ukraine,58.5,,,,,,,,,90,-105,-105,,90,60,Amateur Open,F,D,Raw,,,90,1984
DD,Yuliya Malinovska,Юлія Маліновська,Ukraine,59.6,,,,,,,,,-140,-147.5,-157.5,,,60,Amateur Open,F,D,Raw,,,,1984
1,Anastasiya Tishchenko,Анастасия Тищенко,Ukraine,55.3,,,,,,,,,82.5,-97.5,-97.5,,82.5,56,Amateur Submasters 33-39,F,D,Raw,,,82.5,1983
1,Olga Skorokhodova,Ольга Скороходова,Ukraine,57.1,,,,,,,,,130,140,145,,145,60,Amateur Submasters 33-39,F,D,Raw,,,145,1980
2,Yana Tkachenko,Яна Ткаченко,Ukraine,58.5,,,,,,,,,90,-105,-105,,90,60,Amateur Submasters 33-39,F,D,Raw,,,90,1984
1,Liliya Konstantinova,Лілія Константінова,Ukraine,66.5,,,,,,,,,97.5,105,112.5,,112.5,67.5,Amateur Submasters 33-39,F,D,Raw,,,112.5,1982
1,Tetyana Melnik,Тетяна Мельник,Ukraine,71,,,,,,,,,90,95,100,,100,75,Amateur Masters 40-44,F,D,Raw,,,100,1975
1,Olga Kritikova,Ольга Крітікова,Ukraine,64.6,,,,,,,,,110,120,-130,,120,67.5,Amateur Masters 45-49,F,D,Raw,,,120,1971
1,Yan Alpenizde,Ян Альпенізде,Ukraine,70.7,,,,,,,,,-195,-195,195,,195,75,Pro Teen 18-19,M,D,Raw,,,195,1997
1,Maksim Samoylenko,Максим Самойленко,Ukraine,98.7,,,,,,,,,300,310,,,310,100,Pro Teen 18-19,M,D,Raw,,,310,1998
1,Mikita Mitryukhin,Микита Мітрюхін,Ukraine,116.5,,,,,,,,,230,240,-250,,240,125,Pro Teen 18-19,M,D,Raw,,,240,1997
1,Vladislav Kravchenko,Владислав Кравченко,Ukraine,80,,,,,,,,,255,260,-262.5,,260,82.5,Pro Juniors 20-23,M,D,Raw,,,260,1995
2,Evgeniy Timokhin,Євгеній Тимохін,Ukraine,82.5,,,,,,,,,-210,210,-220,,210,82.5,Pro Juniors 20-23,M,D,Raw,,,210,1997
1,Oleksandr Polutsiganov,Олександр Полуциганов,Ukraine,116.5,,,,,,,,,200,230,260,,260,125,Pro Juniors 20-23,M,D,Raw,,,260,1993
1,Dmitro Kondratenko,Дмитро Кондратенко,Ukraine,67.3,,,,,,,,,180,-190,-190,,180,67.5,Pro Open,M,D,Raw,,,180,1986
1,Ivan Kapelyukh,Іван Капелюх,Ukraine,73.7,,,,,,,,,230,240,-245,,240,75,Pro Open,M,D,Raw,,,240,1985
2,Boris Novoselov,Борис Новоселов,Ukraine,69.2,,,,,,,,,205,215,-220,,215,75,Pro Open,M,D,Raw,,,215,1992
1,Vladislav Kravchenko,Владислав Кравченко,Ukraine,80,,,,,,,,,255,260,-262.5,,260,82.5,Pro Open,M,D,Raw,,,260,1995
2,Oleksandr Golovatskiy,Олександр Головацький,Ukraine,79.3,,,,,,,,,200,-210,,,200,82.5,Pro Open,M,D,Raw,,,200,1993
DQ,Sergiy Zakharev,Сергій Захарьєв,Ukraine,82,,,,,,,,,-220,,,,,82.5,Pro Open,M,D,Raw,,,,1982
1,Mikola Tishuk,Микола Тишук,Ukraine,89.4,,,,,,,,,272.5,-280,,,272.5,90,Pro Open,M,D,Raw,,,272.5,1992
2,Yaroslav Litvinenko,Ярослав Литвиненко,Ukraine,88.6,,,,,,,,,260,-280,-280,,260,90,Pro Open,M,D,Raw,,,260,1976
3,Oleksandr Maslov,Олександр Маслов,Ukraine,86.3,,,,,,,,,217.5,242.5,250,,250,90,Pro Open,M,D,Raw,,,250,1984
4,Sergiy Mazur,Сергій Мазур,Ukraine,89.2,,,,,,,,,250,-260,-260,,250,90,Pro Open,M,D,Raw,,,250,1981
5,Anton Chirkov,Антон Чирков,Ukraine,88.9,,,,,,,,,210,-220,-220,,210,90,Pro Open,M,D,Raw,,,210,1993
1,Maksim Samoylenko,Максим Самойленко,Ukraine,98.7,,,,,,,,,300,310,,,310,100,Pro Open,M,D,Raw,,,310,1998
2,Oleg Khristoforov,Олег Христофоров,Ukraine,100,,,,,,,,,270,290,300,,300,100,Pro Open,M,D,Raw,,,300,1975
3,Viktor Telyatnik,Віктор Телятник,Ukraine,99,,,,,,,,,230,245,252.5,,252.5,100,Pro Open,M,D,Raw,,,252.5,1988
1,Viktor Rublov,Віктор Рубльов,Ukraine,100.9,,,,,,,,,250,260,,,260,110,Pro Open,M,D,Raw,,,260,1975
2,Artem Medvedev,Артем Медведєв,Ukraine,104.5,,,,,,,,,245,-260,,,245,110,Pro Open,M,D,Raw,,,245,1990
DQ,Sergiy Zakharev,Сергій Захарьєв,Ukraine,82,,,,,,,,,-220,,,,,82.5,Pro Submasters 33-39,M,D,Raw,,,,1982
1,Oleksandr Maslov,Олександр Маслов,Ukraine,86.3,,,,,,,,,217.5,242.5,250,,250,90,Pro Submasters 33-39,M,D,Raw,,,250,1984
2,Sergiy Mazur,Сергій Мазур,Ukraine,89.2,,,,,,,,,250,-260,-260,,250,90,Pro Submasters 33-39,M,D,Raw,,,250,1981
1,Vitaliy Chunikhovskiy,Віталій Чуніховський,Ukraine,99.5,,,,,,,,,265,-282.5,-282.5,,265,100,Pro Submasters 33-39,M,D,Raw,,,265,1983
1,Yaroslav Litvinenko,Ярослав Литвиненко,Ukraine,88.6,,,,,,,,,260,-280,-280,,260,90,Pro Masters 40-44,M,D,Raw,,,260,1976
1,Oleg Khristoforov,Олег Христофоров,Ukraine,100,,,,,,,,,270,290,300,,300,100,Pro Masters 40-44,M,D,Raw,,,300,1975
1,Viktor Rublov,Віктор Рубльов,Ukraine,100.9,,,,,,,,,250,260,,,260,110,Pro Masters 40-44,M,D,Raw,,,260,1975
1,Volodimir Vasilenko,Володимир Василенко,Ukraine,73.3,,,,,,,,,130,140,145,,145,75,Pro Masters 70-74,M,D,Raw,,,145,1943
1,Dmitro Kondratenko,Дмитро Кондратенко,Ukraine,67.3,,,,,,,,,180,-190,-190,,180,67.5,Pro Military/Fire/Police,M,D,Raw,,,180,1986
1,Anastasiya Kirpichova,Анастасія Кирпичова,Ukraine,54.9,,,,,,,,,-92.5,92.5,-100,,92.5,56,Pro Teen 18-19,F,D,Raw,,,92.5,1999
1,Katerina Ivanushchik,Катерина Іванущик,Ukraine,62.5,,,,,,,,,60,70,85,,85,67.5,Pro Teen 18-19,F,D,Raw,,,85,1998
1,Margarita Kasparova,Маргарита Каспарова,Ukraine,65.2,,,,,,,,,102.5,107.5,112.5,,112.5,67.5,Pro Juniors 20-23,F,D,Raw,,,112.5,1995
1,Mariya Bort,Марія Борт,Ukraine,73.2,,,,,,,,,-60,60,75,,75,75,Pro Juniors 20-23,F,D,Raw,,,75,1994
1,Mariya Kravchuk,Марія Кравчук,Ukraine,56,,,,,,,,,155,165,-170,,165,56,Pro Open,F,D,Raw,,,165,1983
2,Olena Bubnova,Олена Бубнова,Ukraine,54.4,,,,,,,,,130,,,,130,56,Pro Open,F,D,Raw,,,130,1985
3,Olena Korpusenko,Олена Корпусенко,Ukraine,55.7,,,,,,,,,90,100,-110,,100,56,Pro Open,F,D,Raw,,,100,1990
4,Anastasiya Kirpichova,Анастасія Кирпичова,Ukraine,54.9,,,,,,,,,-92.5,92.5,-100,,92.5,56,Pro Open,F,D,Raw,,,92.5,1999
1,Mariya Bort,Марія Борт,Ukraine,73.2,,,,,,,,,-60,60,75,,75,75,Pro Open,F,D,Raw,,,75,1994
1,Anna Dumina,Анна Думіна,Ukraine,66.4,,,,,,,,,60,70,80,,80,67.5,Pro Submasters 33-39,F,D,Raw,,,80,1981
1,Yukhim Stepatskiy,Юхим Степацький,Ukraine,88.9,,,,,,,,,280,290,-302.5,,290,90,Pro Open,M,D,Multi-ply,,,290,1987
2,Sergiy Kapustin,Сергій Капустін,Ukraine,85,,,,,,,,,-265,265,-290,,265,90,Pro Open,M,D,Multi-ply,,,265,1979
3,Andriy Tupchiy,Андрій Тупчій,Ukraine,89.6,,,,,,,,,230,-250,-250,,230,90,Pro Open,M,D,Multi-ply,,,230,1987
1,Sergiy Kapustin,Сергій Капустін,Ukraine,85,,,,,,,,,-265,265,-290,,265,90,Pro Submasters 33-39,M,D,Multi-ply,,,265,1979
1,Oleg Kovbasa,Олег Ковбаса,Ukraine,95.4,,,,,,,,,200,220,-245,,220,100,Pro Masters 40-44,M,D,Multi-ply,,,220,1975
1,Sergiy Kolesnik,Сергей Колесник,Ukraine,98.8,,,,,,,,,225,235,-245,,235,100,Pro Masters 50-54,M,D,Multi-ply,,,235,1963
1,Yukhim Stepatskiy,Юхим Степацький,Ukraine,88.9,,,,,,,,,280,290,-302.5,,290,90,Pro Military/Fire/Police,M,D,Multi-ply,,,290,1987
